ISO-10303-21;
HEADER;
FILE_DESCRIPTION(('Open CASCADE Model'),'2;1');
FILE_NAME('Open CASCADE Shape Model','2023-12-09T21:52:24',('Author'),(
    'Open CASCADE'),'Open CASCADE STEP processor 7.7','Open CASCADE 7.7'
  ,'Unknown');
FILE_SCHEMA(('AUTOMOTIVE_DESIGN { 1 0 10303 214 1 1 1 1 }'));
ENDSEC;
DATA;
#1=APPLICATION_PROTOCOL_DEFINITION('international standard',  'automotive_design',2000,#2);
#2=APPLICATION_CONTEXT(  'core data for automotive mechanical design processes');
#3=SHAPE_DEFINITION_REPRESENTATION(#4,#10);
#4=PRODUCT_DEFINITION_SHAPE('','',#5);
#5=PRODUCT_DEFINITION('design','',#6,#9);
#6=PRODUCT_DEFINITION_FORMATION('','',#7);
#7=PRODUCT('sim_full_area','sim_full_area','',(#8));
#8=PRODUCT_CONTEXT('',#2,'mechanical');
#9=PRODUCT_DEFINITION_CONTEXT('part definition',#2,'design');
#10=SHAPE_REPRESENTATION('',(#11,#11,#11),#15);
#11=AXIS2_PLACEMENT_3D('',#12,#13,#14);
#12=CARTESIAN_POINT('',(0.,0.,0.));
#13=DIRECTION('',(0.,0.,1.));
#14=DIRECTION('',(1.,0.,-0.));
#15=( GEOMETRIC_REPRESENTATION_CONTEXT(3) GLOBAL_UNCERTAINTY_ASSIGNED_CONTEXT((#19)) GLOBAL_UNIT_ASSIGNED_CONTEXT((#16,#17,#18)) REPRESENTATION_CONTEXT('Context #1',  '3D Context with UNIT and UNCERTAINTY') );
#16=( LENGTH_UNIT() NAMED_UNIT(*) SI_UNIT(.MILLI.,.METRE.) );
#17=( NAMED_UNIT(*) PLANE_ANGLE_UNIT() SI_UNIT($,.RADIAN.) );
#18=( NAMED_UNIT(*) SI_UNIT($,.STERADIAN.) SOLID_ANGLE_UNIT() );
#19=UNCERTAINTY_MEASURE_WITH_UNIT(LENGTH_MEASURE(0.1),#16,  'distance_accuracy_value','confusion accuracy');
#20=PRODUCT_RELATED_PRODUCT_CATEGORY('part',$,(#7));
#21=SHAPE_DEFINITION_REPRESENTATION(#22,#27);
#22=PRODUCT_DEFINITION_SHAPE('','',#23);
#23=PRODUCT_DEFINITION('design','',#24,#26);
#24=PRODUCT_DEFINITION_FORMATION('','',#25);
#25=PRODUCT('tco','tco','',(#8));
#26=PRODUCT_DEFINITION_CONTEXT('part definition',#2,'design'); 
#27=SHAPE_REPRESENTATION('',(#11,#11),#15);
#28=CONTEXT_DEPENDENT_SHAPE_REPRESENTATION(#29,#31);
#29=( REPRESENTATION_RELATIONSHIP('','',#27,#10) REPRESENTATION_RELATIONSHIP_WITH_TRANSFORMATION(#30) SHAPE_REPRESENTATION_RELATIONSHIP() );
#30=ITEM_DEFINED_TRANSFORMATION('','',#11,#11);
#31=PRODUCT_DEFINITION_SHAPE('Placement','Placement of an item',#32);
#32=NEXT_ASSEMBLY_USAGE_OCCURRENCE('17','','',#5,#23,$);
#33=PRODUCT_RELATED_PRODUCT_CATEGORY('part',$,(#25));
#34=SHAPE_DEFINITION_REPRESENTATION(#35,#40);
#35=PRODUCT_DEFINITION_SHAPE('','',#36);
#36=PRODUCT_DEFINITION('design','',#37,#39);
#37=PRODUCT_DEFINITION_FORMATION('','',#38);
#38=PRODUCT('tco_part','tco_part','',(#8));
#39=PRODUCT_DEFINITION_CONTEXT('part definition',#2,'design');  
#40=SHAPE_REPRESENTATION('',(#11,#41,#579,#817,#988,#997,#1006,    #1015,#1024,#1033,#1042,#1051,#1060,#1069,#1084),#1093);
#41=SHELL_BASED_SURFACE_MODEL('',(#42));
#42=OPEN_SHELL('',(#43));
#43=ADVANCED_FACE('',(#44),#58,.T.);
#44=FACE_BOUND('',#45,.T.);
#45=EDGE_LOOP('',(#46,#68,#82,#95,#107,#120,#134,#147,#161,#174,#188    ,#201,#211,#224,#237,#241,#255,#268,#278,#287,#297,#306,#316,#329,    #339,#352,#362,#372,#382,#392,#405,#415,#428,#439,#450,#460,#470,    #483,#493,#506,#516,#525,#535,#544,#554,#567));
#46=ORIENTED_EDGE('',*,*,#47,.F.);
#47=EDGE_CURVE('',#48,#50,#52,.T.);
#48=VERTEX_POINT('',#49);
#49=CARTESIAN_POINT('',(2.474744871393E+06,-1.35E+07,0.));
#50=VERTEX_POINT('',#51);
#51=CARTESIAN_POINT('',(2.000000000001E+06,-1.35E+07,0.));
#52=SURFACE_CURVE('',#53,(#57),.PCURVE_S1.);
#53=LINE('',#54,#55);
#54=CARTESIAN_POINT('',(1.5E+07,-1.35E+07,0.));
#55=VECTOR('',#56,1.);
#56=DIRECTION('',(-1.,-7.105427357601E-16,0.));
#57=PCURVE('',#58,#62);
#58=PLANE('',#59);
#59=AXIS2_PLACEMENT_3D('',#60,#13,#61);
#60=CARTESIAN_POINT('',(4.15042656788E-07,-3.336198545002E+05,0.));
#61=DIRECTION('',(1.,0.,0.));
#62=DEFINITIONAL_REPRESENTATION('',(#63),#67);
#63=LINE('',#64,#65);
#64=CARTESIAN_POINT('',(1.5E+07,-1.31663801455E+07));
#65=VECTOR('',#66,1.);
#66=DIRECTION('',(-1.,-7.105427357601E-16));
#67=( GEOMETRIC_REPRESENTATION_CONTEXT(2) PARAMETRIC_REPRESENTATION_CONTEXT() REPRESENTATION_CONTEXT('2D SPACE',''  ) );
#68=ORIENTED_EDGE('',*,*,#69,.T.);
#69=EDGE_CURVE('',#48,#70,#72,.T.);
#70=VERTEX_POINT('',#71);
#71=CARTESIAN_POINT('',(2.500000000001E+06,-1.325E+07,0.));
#72=SURFACE_CURVE('',#73,(#76),.PCURVE_S1.);
#73=CIRCLE('',#74,1.25E+06);
#74=AXIS2_PLACEMENT_3D('',#75,#13,#61);
#75=CARTESIAN_POINT('',(1.250000000001E+06,-1.325E+07,0.));
#76=PCURVE('',#58,#77);
#77=DEFINITIONAL_REPRESENTATION('',(#78),#67);
#78=CIRCLE('',#79,1.25E+06);
#79=AXIS2_PLACEMENT_2D('',#80,#81);
#80=CARTESIAN_POINT('',(1.250000000001E+06,-1.29163801455E+07));
#81=DIRECTION('',(1.,0.));
#82=ORIENTED_EDGE('',*,*,#83,.F.);
#83=EDGE_CURVE('',#84,#70,#86,.T.);
#84=VERTEX_POINT('',#85);
#85=CARTESIAN_POINT('',(3.000000000001E+06,-1.275E+07,0.));
#86=SURFACE_CURVE('',#87,(#90),.PCURVE_S1.);
#87=CIRCLE('',#88,4.999999999999E+05);
#88=AXIS2_PLACEMENT_3D('',#89,#13,#61);
#89=CARTESIAN_POINT('',(3.000000000001E+06,-1.325E+07,0.));
#90=PCURVE('',#58,#91);
#91=DEFINITIONAL_REPRESENTATION('',(#92),#67);
#92=CIRCLE('',#93,4.999999999999E+05);
#93=AXIS2_PLACEMENT_2D('',#94,#81);
#94=CARTESIAN_POINT('',(3.E+06,-1.29163801455E+07));
#95=ORIENTED_EDGE('',*,*,#96,.T.);
#96=EDGE_CURVE('',#84,#97,#99,.T.);
#97=VERTEX_POINT('',#98);
#98=CARTESIAN_POINT('',(1.2125E+07,-1.275E+07,0.));
#99=SURFACE_CURVE('',#100,(#102),.PCURVE_S1.);
#100=LINE('',#85,#101);
#101=VECTOR('',#61,1.);
#102=PCURVE('',#58,#103);
#103=DEFINITIONAL_REPRESENTATION('',(#104),#67);
#104=LINE('',#105,#106);
#105=CARTESIAN_POINT('',(3.000000000001E+06,-1.24163801455E+07));
#106=VECTOR('',#81,1.);
#107=ORIENTED_EDGE('',*,*,#108,.T.);
#108=EDGE_CURVE('',#97,#109,#111,.T.);
#109=VERTEX_POINT('',#110);
#110=CARTESIAN_POINT('',(1.275E+07,-1.2125E+07,0.));
#111=SURFACE_CURVE('',#112,(#115),.PCURVE_S1.);
#112=CIRCLE('',#113,6.25E+05);
#113=AXIS2_PLACEMENT_3D('',#114,#13,#61);
#114=CARTESIAN_POINT('',(1.2125E+07,-1.2125E+07,0.));
#115=PCURVE('',#58,#116);
#116=DEFINITIONAL_REPRESENTATION('',(#117),#67);
#117=CIRCLE('',#118,6.25E+05);
#118=AXIS2_PLACEMENT_2D('',#119,#81);
#119=CARTESIAN_POINT('',(1.2125E+07,-1.17913801455E+07));
#120=ORIENTED_EDGE('',*,*,#121,.T.);
#121=EDGE_CURVE('',#109,#122,#124,.T.);
#122=VERTEX_POINT('',#123);
#123=CARTESIAN_POINT('',(1.275E+07,1.2125E+07,0.));
#124=SURFACE_CURVE('',#125,(#128),.PCURVE_S1.);
#125=LINE('',#110,#126);
#126=VECTOR('',#127,1.);
#127=DIRECTION('',(0.,1.,0.));
#128=PCURVE('',#58,#129);
#129=DEFINITIONAL_REPRESENTATION('',(#130),#67);
#130=LINE('',#131,#132);
#131=CARTESIAN_POINT('',(1.275E+07,-1.17913801455E+07));
#132=VECTOR('',#133,1.);
#133=DIRECTION('',(0.,1.));
#134=ORIENTED_EDGE('',*,*,#135,.T.);
#135=EDGE_CURVE('',#122,#136,#138,.T.);
#136=VERTEX_POINT('',#137);
#137=CARTESIAN_POINT('',(1.2125E+07,1.275E+07,0.));
#138=SURFACE_CURVE('',#139,(#142),.PCURVE_S1.);
#139=CIRCLE('',#140,6.25E+05);
#140=AXIS2_PLACEMENT_3D('',#141,#13,#61);
#141=CARTESIAN_POINT('',(1.2125E+07,1.2125E+07,0.));
#142=PCURVE('',#58,#143);
#143=DEFINITIONAL_REPRESENTATION('',(#144),#67);
#144=CIRCLE('',#145,6.25E+05);
#145=AXIS2_PLACEMENT_2D('',#146,#81);
#146=CARTESIAN_POINT('',(1.2125E+07,1.24586198545E+07));
#147=ORIENTED_EDGE('',*,*,#148,.T.);
#148=EDGE_CURVE('',#136,#149,#151,.T.);
#149=VERTEX_POINT('',#150);
#150=CARTESIAN_POINT('',(-1.2125E+07,1.275E+07,0.));
#151=SURFACE_CURVE('',#152,(#155),.PCURVE_S1.);
#152=LINE('',#137,#153);
#153=VECTOR('',#154,1.);
#154=DIRECTION('',(-1.,0.,0.));
#155=PCURVE('',#58,#156);
#156=DEFINITIONAL_REPRESENTATION('',(#157),#67);
#157=LINE('',#158,#159);
#158=CARTESIAN_POINT('',(1.2125E+07,1.30836198545E+07));
#159=VECTOR('',#160,1.);
#160=DIRECTION('',(-1.,0.));
#161=ORIENTED_EDGE('',*,*,#162,.T.);
#162=EDGE_CURVE('',#149,#163,#165,.T.);
#163=VERTEX_POINT('',#164);
#164=CARTESIAN_POINT('',(-1.275E+07,1.2125E+07,0.));
#165=SURFACE_CURVE('',#166,(#169),.PCURVE_S1.);
#166=CIRCLE('',#167,6.25E+05);
#167=AXIS2_PLACEMENT_3D('',#168,#13,#61);
#168=CARTESIAN_POINT('',(-1.2125E+07,1.2125E+07,0.));
#169=PCURVE('',#58,#170);
#170=DEFINITIONAL_REPRESENTATION('',(#171),#67);
#171=CIRCLE('',#172,6.25E+05);
#172=AXIS2_PLACEMENT_2D('',#173,#81);
#173=CARTESIAN_POINT('',(-1.2125E+07,1.24586198545E+07));
#174=ORIENTED_EDGE('',*,*,#175,.T.);
#175=EDGE_CURVE('',#163,#176,#178,.T.);
#176=VERTEX_POINT('',#177);
#177=CARTESIAN_POINT('',(-1.275E+07,-1.2125E+07,0.));
#178=SURFACE_CURVE('',#179,(#182),.PCURVE_S1.);
#179=LINE('',#164,#180);
#180=VECTOR('',#181,1.);
#181=DIRECTION('',(0.,-1.,0.));
#182=PCURVE('',#58,#183);
#183=DEFINITIONAL_REPRESENTATION('',(#184),#67);
#184=LINE('',#185,#186);
#185=CARTESIAN_POINT('',(-1.275E+07,1.24586198545E+07));
#186=VECTOR('',#187,1.);
#187=DIRECTION('',(0.,-1.));
#188=ORIENTED_EDGE('',*,*,#189,.T.);
#189=EDGE_CURVE('',#176,#190,#192,.T.);
#190=VERTEX_POINT('',#191);
#191=CARTESIAN_POINT('',(-1.2125E+07,-1.275E+07,0.));
#192=SURFACE_CURVE('',#193,(#196),.PCURVE_S1.);
#193=CIRCLE('',#194,6.25E+05);
#194=AXIS2_PLACEMENT_3D('',#195,#13,#61);
#195=CARTESIAN_POINT('',(-1.2125E+07,-1.2125E+07,0.));
#196=PCURVE('',#58,#197);
#197=DEFINITIONAL_REPRESENTATION('',(#198),#67);
#198=CIRCLE('',#199,6.25E+05);
#199=AXIS2_PLACEMENT_2D('',#200,#81);
#200=CARTESIAN_POINT('',(-1.2125E+07,-1.17913801455E+07));
#201=ORIENTED_EDGE('',*,*,#202,.T.);
#202=EDGE_CURVE('',#190,#203,#205,.T.);
#203=VERTEX_POINT('',#204);
#204=CARTESIAN_POINT('',(-2.999999999999E+06,-1.275E+07,0.));
#205=SURFACE_CURVE('',#206,(#207),.PCURVE_S1.);
#206=LINE('',#191,#101);
#207=PCURVE('',#58,#208);
#208=DEFINITIONAL_REPRESENTATION('',(#209),#67);
#209=LINE('',#210,#106);
#210=CARTESIAN_POINT('',(-1.2125E+07,-1.24163801455E+07));
#211=ORIENTED_EDGE('',*,*,#212,.F.);
#212=EDGE_CURVE('',#213,#203,#215,.T.);
#213=VERTEX_POINT('',#214);
#214=CARTESIAN_POINT('',(-2.499999999999E+06,-1.325E+07,0.));
#215=SURFACE_CURVE('',#216,(#219),.PCURVE_S1.);
#216=CIRCLE('',#217,4.999999999999E+05);
#217=AXIS2_PLACEMENT_3D('',#218,#13,#61);
#218=CARTESIAN_POINT('',(-2.999999999999E+06,-1.325E+07,0.));
#219=PCURVE('',#58,#220);
#220=DEFINITIONAL_REPRESENTATION('',(#221),#67);
#221=CIRCLE('',#222,4.999999999999E+05);
#222=AXIS2_PLACEMENT_2D('',#223,#81);
#223=CARTESIAN_POINT('',(-2.999999999999E+06,-1.29163801455E+07));
#224=ORIENTED_EDGE('',*,*,#225,.T.);
#225=EDGE_CURVE('',#213,#226,#228,.T.);
#226=VERTEX_POINT('',#227);
#227=CARTESIAN_POINT('',(-2.474744871391E+06,-1.35E+07,0.));
#228=SURFACE_CURVE('',#229,(#232),.PCURVE_S1.);
#229=CIRCLE('',#230,1.25E+06);
#230=AXIS2_PLACEMENT_3D('',#231,#13,#61);
#231=CARTESIAN_POINT('',(-1.249999999999E+06,-1.325E+07,0.));
#232=PCURVE('',#58,#233);
#233=DEFINITIONAL_REPRESENTATION('',(#234),#67);
#234=CIRCLE('',#235,1.25E+06);
#235=AXIS2_PLACEMENT_2D('',#236,#81);
#236=CARTESIAN_POINT('',(-1.249999999999E+06,-1.29163801455E+07));
#237=ORIENTED_EDGE('',*,*,#238,.F.);
#238=EDGE_CURVE('',#239,#226,#52,.T.);
#239=VERTEX_POINT('',#240);
#240=CARTESIAN_POINT('',(-1.999999999999E+06,-1.35E+07,0.));
#241=ORIENTED_EDGE('',*,*,#242,.T.);
#242=EDGE_CURVE('',#239,#243,#245,.T.);
#243=VERTEX_POINT('',#244);
#244=CARTESIAN_POINT('',(-1.999999999999E+06,-1.2375E+07,0.));
#245=SURFACE_CURVE('',#246,(#249),.PCURVE_S1.);
#246=LINE('',#240,#247);
#247=VECTOR('',#248,1.);
#248=DIRECTION('',(2.486899575162E-14,1.,0.));
#249=PCURVE('',#58,#250);
#250=DEFINITIONAL_REPRESENTATION('',(#251),#67);
#251=LINE('',#252,#253);
#252=CARTESIAN_POINT('',(-1.999999999999E+06,-1.31663801455E+07));
#253=VECTOR('',#254,1.);
#254=DIRECTION('',(2.486899575162E-14,1.));
#255=ORIENTED_EDGE('',*,*,#256,.T.);
#256=EDGE_CURVE('',#243,#257,#259,.T.);
#257=VERTEX_POINT('',#258);
#258=CARTESIAN_POINT('',(-2.124999999999E+06,-1.225E+07,0.));
#259=SURFACE_CURVE('',#260,(#263),.PCURVE_S1.);
#260=CIRCLE('',#261,1.25E+05);
#261=AXIS2_PLACEMENT_3D('',#262,#13,#61);
#262=CARTESIAN_POINT('',(-2.124999999999E+06,-1.2375E+07,0.));
#263=PCURVE('',#58,#264);
#264=DEFINITIONAL_REPRESENTATION('',(#265),#67);
#265=CIRCLE('',#266,1.25E+05);
#266=AXIS2_PLACEMENT_2D('',#267,#81);
#267=CARTESIAN_POINT('',(-2.124999999999E+06,-1.20413801455E+07));
#268=ORIENTED_EDGE('',*,*,#269,.T.);
#269=EDGE_CURVE('',#257,#270,#272,.T.);
#270=VERTEX_POINT('',#271);
#271=CARTESIAN_POINT('',(-1.2125E+07,-1.225E+07,0.));
#272=SURFACE_CURVE('',#273,(#274),.PCURVE_S1.);
#273=LINE('',#258,#153);
#274=PCURVE('',#58,#275);
#275=DEFINITIONAL_REPRESENTATION('',(#276),#67);
#276=LINE('',#277,#159);
#277=CARTESIAN_POINT('',(-2.124999999999E+06,-1.19163801455E+07));
#278=ORIENTED_EDGE('',*,*,#279,.F.);
#279=EDGE_CURVE('',#280,#270,#282,.T.);
#280=VERTEX_POINT('',#281);
#281=CARTESIAN_POINT('',(-1.225E+07,-1.2125E+07,0.));
#282=SURFACE_CURVE('',#283,(#284),.PCURVE_S1.);
#283=CIRCLE('',#194,1.25E+05);
#284=PCURVE('',#58,#285);
#285=DEFINITIONAL_REPRESENTATION('',(#286),#67);
#286=CIRCLE('',#199,1.25E+05);
#287=ORIENTED_EDGE('',*,*,#288,.T.);
#288=EDGE_CURVE('',#280,#289,#291,.T.);
#289=VERTEX_POINT('',#290);
#290=CARTESIAN_POINT('',(-1.225E+07,1.2125E+07,0.));
#291=SURFACE_CURVE('',#292,(#293),.PCURVE_S1.);
#292=LINE('',#281,#126);
#293=PCURVE('',#58,#294);
#294=DEFINITIONAL_REPRESENTATION('',(#295),#67);
#295=LINE('',#296,#132);
#296=CARTESIAN_POINT('',(-1.225E+07,-1.17913801455E+07));
#297=ORIENTED_EDGE('',*,*,#298,.F.);
#298=EDGE_CURVE('',#299,#289,#301,.T.);
#299=VERTEX_POINT('',#300);
#300=CARTESIAN_POINT('',(-1.2125E+07,1.225E+07,0.));
#301=SURFACE_CURVE('',#302,(#303),.PCURVE_S1.);
#302=CIRCLE('',#167,1.25E+05);
#303=PCURVE('',#58,#304);
#304=DEFINITIONAL_REPRESENTATION('',(#305),#67);
#305=CIRCLE('',#172,1.25E+05);
#306=ORIENTED_EDGE('',*,*,#307,.T.);
#307=EDGE_CURVE('',#299,#308,#310,.T.);
#308=VERTEX_POINT('',#309);
#309=CARTESIAN_POINT('',(-2.125E+06,1.225E+07,0.));
#310=SURFACE_CURVE('',#311,(#312),.PCURVE_S1.);
#311=LINE('',#300,#101);
#312=PCURVE('',#58,#313);
#313=DEFINITIONAL_REPRESENTATION('',(#314),#67);
#314=LINE('',#315,#106);
#315=CARTESIAN_POINT('',(-1.2125E+07,1.25836198545E+07));
#316=ORIENTED_EDGE('',*,*,#317,.F.);
#317=EDGE_CURVE('',#318,#308,#320,.T.);
#318=VERTEX_POINT('',#319);
#319=CARTESIAN_POINT('',(-2.E+06,1.2125E+07,0.));
#320=SURFACE_CURVE('',#321,(#324),.PCURVE_S1.);
#321=CIRCLE('',#322,1.25E+05);
#322=AXIS2_PLACEMENT_3D('',#323,#13,#61);
#323=CARTESIAN_POINT('',(-2.125E+06,1.2125E+07,0.));
#324=PCURVE('',#58,#325);
#325=DEFINITIONAL_REPRESENTATION('',(#326),#67);
#326=CIRCLE('',#327,1.25E+05);
#327=AXIS2_PLACEMENT_2D('',#328,#81);
#328=CARTESIAN_POINT('',(-2.125E+06,1.24586198545E+07));
#329=ORIENTED_EDGE('',*,*,#330,.T.);
#330=EDGE_CURVE('',#318,#331,#333,.T.);
#331=VERTEX_POINT('',#332);
#332=CARTESIAN_POINT('',(-2.E+06,1.0875E+07,0.));
#333=SURFACE_CURVE('',#334,(#335),.PCURVE_S1.);
#334=LINE('',#319,#180);
#335=PCURVE('',#58,#336);
#336=DEFINITIONAL_REPRESENTATION('',(#337),#67);
#337=LINE('',#338,#186);
#338=CARTESIAN_POINT('',(-2.E+06,1.24586198545E+07));
#339=ORIENTED_EDGE('',*,*,#340,.F.);
#340=EDGE_CURVE('',#341,#331,#343,.T.);
#341=VERTEX_POINT('',#342);
#342=CARTESIAN_POINT('',(-2.125E+06,1.075E+07,0.));
#343=SURFACE_CURVE('',#344,(#347),.PCURVE_S1.);
#344=CIRCLE('',#345,1.25E+05);
#345=AXIS2_PLACEMENT_3D('',#346,#13,#61);
#346=CARTESIAN_POINT('',(-2.125E+06,1.0875E+07,0.));
#347=PCURVE('',#58,#348);
#348=DEFINITIONAL_REPRESENTATION('',(#349),#67);
#349=CIRCLE('',#350,1.25E+05);
#350=AXIS2_PLACEMENT_2D('',#351,#81);
#351=CARTESIAN_POINT('',(-2.125E+06,1.12086198545E+07));
#352=ORIENTED_EDGE('',*,*,#353,.T.);
#353=EDGE_CURVE('',#341,#354,#356,.T.);
#354=VERTEX_POINT('',#355);
#355=CARTESIAN_POINT('',(-1.075E+07,1.075E+07,0.));
#356=SURFACE_CURVE('',#357,(#358),.PCURVE_S1.);
#357=LINE('',#342,#153);
#358=PCURVE('',#58,#359);
#359=DEFINITIONAL_REPRESENTATION('',(#360),#67);
#360=LINE('',#361,#159);
#361=CARTESIAN_POINT('',(-2.125E+06,1.10836198545E+07));
#362=ORIENTED_EDGE('',*,*,#363,.T.);
#363=EDGE_CURVE('',#354,#364,#366,.T.);
#364=VERTEX_POINT('',#365);
#365=CARTESIAN_POINT('',(-1.075E+07,6.15E+06,0.));
#366=SURFACE_CURVE('',#367,(#368),.PCURVE_S1.);
#367=LINE('',#355,#180);
#368=PCURVE('',#58,#369);
#369=DEFINITIONAL_REPRESENTATION('',(#370),#67);
#370=LINE('',#371,#186);
#371=CARTESIAN_POINT('',(-1.075E+07,1.10836198545E+07));
#372=ORIENTED_EDGE('',*,*,#373,.T.);
#373=EDGE_CURVE('',#364,#374,#376,.T.);
#374=VERTEX_POINT('',#375);
#375=CARTESIAN_POINT('',(-1.05E+07,6.15E+06,0.));
#376=SURFACE_CURVE('',#377,(#378),.PCURVE_S1.);
#377=LINE('',#365,#101);
#378=PCURVE('',#58,#379);
#379=DEFINITIONAL_REPRESENTATION('',(#380),#67);
#380=LINE('',#381,#106);
#381=CARTESIAN_POINT('',(-1.075E+07,6.4836198545E+06));
#382=ORIENTED_EDGE('',*,*,#383,.F.);
#383=EDGE_CURVE('',#384,#374,#386,.T.);
#384=VERTEX_POINT('',#385);
#385=CARTESIAN_POINT('',(-1.05E+07,1.0375E+07,0.));
#386=SURFACE_CURVE('',#387,(#388),.PCURVE_S1.);
#387=LINE('',#385,#180);
#388=PCURVE('',#58,#389);
#389=DEFINITIONAL_REPRESENTATION('',(#390),#67);
#390=LINE('',#391,#186);
#391=CARTESIAN_POINT('',(-1.05E+07,1.07086198545E+07));
#392=ORIENTED_EDGE('',*,*,#393,.F.);
#393=EDGE_CURVE('',#394,#384,#396,.T.);
#394=VERTEX_POINT('',#395);
#395=CARTESIAN_POINT('',(-1.0375E+07,1.05E+07,0.));
#396=SURFACE_CURVE('',#397,(#400),.PCURVE_S1.);
#397=CIRCLE('',#398,1.25E+05);
#398=AXIS2_PLACEMENT_3D('',#399,#13,#61);
#399=CARTESIAN_POINT('',(-1.0375E+07,1.0375E+07,0.));
#400=PCURVE('',#58,#401);
#401=DEFINITIONAL_REPRESENTATION('',(#402),#67);
#402=CIRCLE('',#403,1.25E+05);
#403=AXIS2_PLACEMENT_2D('',#404,#81);
#404=CARTESIAN_POINT('',(-1.0375E+07,1.07086198545E+07));
#405=ORIENTED_EDGE('',*,*,#406,.F.);
#406=EDGE_CURVE('',#407,#394,#409,.T.);
#407=VERTEX_POINT('',#408);
#408=CARTESIAN_POINT('',(1.0375E+07,1.05E+07,0.));
#409=SURFACE_CURVE('',#410,(#411),.PCURVE_S1.);
#410=LINE('',#408,#153);
#411=PCURVE('',#58,#412);
#412=DEFINITIONAL_REPRESENTATION('',(#413),#67);
#413=LINE('',#414,#159);
#414=CARTESIAN_POINT('',(1.0375E+07,1.08336198545E+07));
#415=ORIENTED_EDGE('',*,*,#416,.F.);
#416=EDGE_CURVE('',#417,#407,#419,.T.);
#417=VERTEX_POINT('',#418);
#418=CARTESIAN_POINT('',(1.05E+07,1.0375E+07,0.));
#419=SURFACE_CURVE('',#420,(#423),.PCURVE_S1.);
#420=CIRCLE('',#421,1.25E+05);
#421=AXIS2_PLACEMENT_3D('',#422,#13,#61);
#422=CARTESIAN_POINT('',(1.0375E+07,1.0375E+07,0.));
#423=PCURVE('',#58,#424);
#424=DEFINITIONAL_REPRESENTATION('',(#425),#67);
#425=CIRCLE('',#426,1.25E+05);
#426=AXIS2_PLACEMENT_2D('',#427,#81);
#427=CARTESIAN_POINT('',(1.0375E+07,1.07086198545E+07));
#428=ORIENTED_EDGE('',*,*,#429,.F.);
#429=EDGE_CURVE('',#430,#417,#432,.T.);
#430=VERTEX_POINT('',#431);
#431=CARTESIAN_POINT('',(1.05E+07,6.15E+06,0.));
#432=SURFACE_CURVE('',#433,(#435),.PCURVE_S1.);
#433=LINE('',#434,#126);
#434=CARTESIAN_POINT('',(1.05E+07,-1.0375E+07,0.));
#435=PCURVE('',#58,#436);
#436=DEFINITIONAL_REPRESENTATION('',(#437),#67);
#437=LINE('',#438,#132);
#438=CARTESIAN_POINT('',(1.05E+07,-1.00413801455E+07));
#439=ORIENTED_EDGE('',*,*,#440,.T.);
#440=EDGE_CURVE('',#430,#441,#443,.T.);
#441=VERTEX_POINT('',#442);
#442=CARTESIAN_POINT('',(1.075E+07,6.15E+06,0.));
#443=SURFACE_CURVE('',#444,(#446),.PCURVE_S1.);
#444=LINE('',#445,#101);
#445=CARTESIAN_POINT('',(2.E+06,6.15E+06,0.));
#446=PCURVE('',#58,#447);
#447=DEFINITIONAL_REPRESENTATION('',(#448),#67);
#448=LINE('',#449,#106);
#449=CARTESIAN_POINT('',(2.E+06,6.4836198545E+06));
#450=ORIENTED_EDGE('',*,*,#451,.T.);
#451=EDGE_CURVE('',#441,#452,#454,.T.);
#452=VERTEX_POINT('',#453);
#453=CARTESIAN_POINT('',(1.075E+07,1.075E+07,0.));
#454=SURFACE_CURVE('',#455,(#456),.PCURVE_S1.);
#455=LINE('',#442,#126);
#456=PCURVE('',#58,#457);
#457=DEFINITIONAL_REPRESENTATION('',(#458),#67);
#458=LINE('',#459,#132);
#459=CARTESIAN_POINT('',(1.075E+07,6.4836198545E+06));
#460=ORIENTED_EDGE('',*,*,#461,.T.);
#461=EDGE_CURVE('',#452,#462,#464,.T.);
#462=VERTEX_POINT('',#463);
#463=CARTESIAN_POINT('',(2.125E+06,1.075E+07,0.));
#464=SURFACE_CURVE('',#465,(#466),.PCURVE_S1.);
#465=LINE('',#453,#153);
#466=PCURVE('',#58,#467);
#467=DEFINITIONAL_REPRESENTATION('',(#468),#67);
#468=LINE('',#469,#159);
#469=CARTESIAN_POINT('',(1.075E+07,1.10836198545E+07));
#470=ORIENTED_EDGE('',*,*,#471,.F.);
#471=EDGE_CURVE('',#472,#462,#474,.T.);
#472=VERTEX_POINT('',#473);
#473=CARTESIAN_POINT('',(2.E+06,1.0875E+07,0.));
#474=SURFACE_CURVE('',#475,(#478),.PCURVE_S1.);
#475=CIRCLE('',#476,1.25E+05);
#476=AXIS2_PLACEMENT_3D('',#477,#13,#61);
#477=CARTESIAN_POINT('',(2.125E+06,1.0875E+07,0.));
#478=PCURVE('',#58,#479);
#479=DEFINITIONAL_REPRESENTATION('',(#480),#67);
#480=CIRCLE('',#481,1.25E+05);
#481=AXIS2_PLACEMENT_2D('',#482,#81);
#482=CARTESIAN_POINT('',(2.125E+06,1.12086198545E+07));
#483=ORIENTED_EDGE('',*,*,#484,.T.);
#484=EDGE_CURVE('',#472,#485,#487,.T.);
#485=VERTEX_POINT('',#486);
#486=CARTESIAN_POINT('',(2.E+06,1.2125E+07,0.));
#487=SURFACE_CURVE('',#488,(#489),.PCURVE_S1.);
#488=LINE('',#473,#126);
#489=PCURVE('',#58,#490);
#490=DEFINITIONAL_REPRESENTATION('',(#491),#67);
#491=LINE('',#492,#132);
#492=CARTESIAN_POINT('',(2.E+06,1.12086198545E+07));
#493=ORIENTED_EDGE('',*,*,#494,.F.);
#494=EDGE_CURVE('',#495,#485,#497,.T.);
#495=VERTEX_POINT('',#496);
#496=CARTESIAN_POINT('',(2.125E+06,1.225E+07,0.));
#497=SURFACE_CURVE('',#498,(#501),.PCURVE_S1.);
#498=CIRCLE('',#499,1.25E+05);
#499=AXIS2_PLACEMENT_3D('',#500,#13,#61);
#500=CARTESIAN_POINT('',(2.125E+06,1.2125E+07,0.));
#501=PCURVE('',#58,#502);
#502=DEFINITIONAL_REPRESENTATION('',(#503),#67);
#503=CIRCLE('',#504,1.25E+05);
#504=AXIS2_PLACEMENT_2D('',#505,#81);
#505=CARTESIAN_POINT('',(2.125E+06,1.24586198545E+07));
#506=ORIENTED_EDGE('',*,*,#507,.T.);
#507=EDGE_CURVE('',#495,#508,#510,.T.);
#508=VERTEX_POINT('',#509);
#509=CARTESIAN_POINT('',(1.2125E+07,1.225E+07,0.));
#510=SURFACE_CURVE('',#511,(#512),.PCURVE_S1.);
#511=LINE('',#496,#101);
#512=PCURVE('',#58,#513);
#513=DEFINITIONAL_REPRESENTATION('',(#514),#67);
#514=LINE('',#515,#106);
#515=CARTESIAN_POINT('',(2.125E+06,1.25836198545E+07));
#516=ORIENTED_EDGE('',*,*,#517,.F.);
#517=EDGE_CURVE('',#518,#508,#520,.T.);
#518=VERTEX_POINT('',#519);
#519=CARTESIAN_POINT('',(1.225E+07,1.2125E+07,0.));
#520=SURFACE_CURVE('',#521,(#522),.PCURVE_S1.);
#521=CIRCLE('',#140,1.25E+05);
#522=PCURVE('',#58,#523);
#523=DEFINITIONAL_REPRESENTATION('',(#524),#67);
#524=CIRCLE('',#145,1.25E+05);
#525=ORIENTED_EDGE('',*,*,#526,.T.);
#526=EDGE_CURVE('',#518,#527,#529,.T.);
#527=VERTEX_POINT('',#528);
#528=CARTESIAN_POINT('',(1.225E+07,-1.2125E+07,0.));
#529=SURFACE_CURVE('',#530,(#531),.PCURVE_S1.);
#530=LINE('',#519,#180);
#531=PCURVE('',#58,#532);
#532=DEFINITIONAL_REPRESENTATION('',(#533),#67);
#533=LINE('',#534,#186);
#534=CARTESIAN_POINT('',(1.225E+07,1.24586198545E+07));
#535=ORIENTED_EDGE('',*,*,#536,.F.);
#536=EDGE_CURVE('',#537,#527,#539,.T.);
#537=VERTEX_POINT('',#538);
#538=CARTESIAN_POINT('',(1.2125E+07,-1.225E+07,0.));
#539=SURFACE_CURVE('',#540,(#541),.PCURVE_S1.);
#540=CIRCLE('',#113,1.25E+05);
#541=PCURVE('',#58,#542);
#542=DEFINITIONAL_REPRESENTATION('',(#543),#67);
#543=CIRCLE('',#118,1.25E+05);
#544=ORIENTED_EDGE('',*,*,#545,.T.);
#545=EDGE_CURVE('',#537,#546,#548,.T.);
#546=VERTEX_POINT('',#547);
#547=CARTESIAN_POINT('',(2.125000000001E+06,-1.225E+07,0.));
#548=SURFACE_CURVE('',#549,(#550),.PCURVE_S1.);
#549=LINE('',#538,#153);
#550=PCURVE('',#58,#551);
#551=DEFINITIONAL_REPRESENTATION('',(#552),#67);
#552=LINE('',#553,#159);
#553=CARTESIAN_POINT('',(1.2125E+07,-1.19163801455E+07));
#554=ORIENTED_EDGE('',*,*,#555,.T.);
#555=EDGE_CURVE('',#546,#556,#558,.T.);
#556=VERTEX_POINT('',#557);
#557=CARTESIAN_POINT('',(2.000000000001E+06,-1.2375E+07,0.));
#558=SURFACE_CURVE('',#559,(#562),.PCURVE_S1.);
#559=CIRCLE('',#560,1.25E+05);
#560=AXIS2_PLACEMENT_3D('',#561,#13,#61);
#561=CARTESIAN_POINT('',(2.125000000001E+06,-1.2375E+07,0.));
#562=PCURVE('',#58,#563);
#563=DEFINITIONAL_REPRESENTATION('',(#564),#67);
#564=CIRCLE('',#565,1.25E+05);
#565=AXIS2_PLACEMENT_2D('',#566,#81);
#566=CARTESIAN_POINT('',(2.125000000001E+06,-1.20413801455E+07));
#567=ORIENTED_EDGE('',*,*,#568,.T.);
#568=EDGE_CURVE('',#556,#50,#569,.T.);
#569=SURFACE_CURVE('',#570,(#573),.PCURVE_S1.);
#570=LINE('',#557,#571);
#571=VECTOR('',#572,1.);
#572=DIRECTION('',(-2.486899575162E-14,-1.,0.));
#573=PCURVE('',#58,#574);
#574=DEFINITIONAL_REPRESENTATION('',(#575),#67);
#575=LINE('',#576,#577);
#576=CARTESIAN_POINT('',(2.000000000001E+06,-1.20413801455E+07));
#577=VECTOR('',#578,1.);
#578=DIRECTION('',(-2.486899575162E-14,-1.));
#579=SHELL_BASED_SURFACE_MODEL('',(#580));
#580=OPEN_SHELL('',(#581));
#581=ADVANCED_FACE('',(#582),#58,.T.);
#582=FACE_BOUND('',#583,.T.);
#583=EDGE_LOOP('',(#584,#586,#587,#588,#589,#590,#591,#592,#593,#594,    #595,#596,#597,#598,#599,#603,#613,#623,#634,#638,#648,    #658,#673,#677,#687,#697,#707,#717,#728,#732,#746,#756,    #767,#771,#781,#791,#802,#804,#805,#806,#807,#808,#809,    #810,#811,#812,#813,#814,#815,#816));
#584=ORIENTED_EDGE('',*,*,#585,.F.);
#585=EDGE_CURVE('',#50,#239,#52,.T.);
#586=ORIENTED_EDGE('',*,*,#568,.F.);
#587=ORIENTED_EDGE('',*,*,#555,.F.);
#588=ORIENTED_EDGE('',*,*,#545,.F.);
#589=ORIENTED_EDGE('',*,*,#536,.T.);
#590=ORIENTED_EDGE('',*,*,#526,.F.);
#591=ORIENTED_EDGE('',*,*,#517,.T.);
#592=ORIENTED_EDGE('',*,*,#507,.F.);
#593=ORIENTED_EDGE('',*,*,#494,.T.);
#594=ORIENTED_EDGE('',*,*,#484,.F.);
#595=ORIENTED_EDGE('',*,*,#471,.T.);
#596=ORIENTED_EDGE('',*,*,#461,.F.);
#597=ORIENTED_EDGE('',*,*,#451,.F.);
#598=ORIENTED_EDGE('',*,*,#440,.F.);
#599=ORIENTED_EDGE('',*,*,#600,.F.);
#600=EDGE_CURVE('',#601,#430,#432,.T.);
#601=VERTEX_POINT('',#602);
#602=CARTESIAN_POINT('',(1.05E+07,5.95E+06,0.));
#603=ORIENTED_EDGE('',*,*,#604,.F.);
#604=EDGE_CURVE('',#605,#601,#607,.T.);
#605=VERTEX_POINT('',#606);
#606=CARTESIAN_POINT('',(1.075E+07,5.95E+06,0.));
#607=SURFACE_CURVE('',#608,(#609),.PCURVE_S1.);
#608=LINE('',#606,#153);
#609=PCURVE('',#58,#610);
#610=DEFINITIONAL_REPRESENTATION('',(#611),#67);
#611=LINE('',#612,#159);
#612=CARTESIAN_POINT('',(1.075E+07,6.2836198545E+06));
#613=ORIENTED_EDGE('',*,*,#614,.F.);
#614=EDGE_CURVE('',#615,#605,#617,.T.);
#615=VERTEX_POINT('',#616);
#616=CARTESIAN_POINT('',(1.075E+07,9.999999999954E+04,0.));
#617=SURFACE_CURVE('',#618,(#619),.PCURVE_S1.);
#618=LINE('',#616,#126);
#619=PCURVE('',#58,#620);
#620=DEFINITIONAL_REPRESENTATION('',(#621),#67);
#621=LINE('',#622,#132);
#622=CARTESIAN_POINT('',(1.075E+07,4.336198544997E+05));
#623=ORIENTED_EDGE('',*,*,#624,.F.);
#624=EDGE_CURVE('',#625,#615,#627,.T.);
#625=VERTEX_POINT('',#626);
#626=CARTESIAN_POINT('',(1.05E+07,9.999999999954E+04,0.));
#627=SURFACE_CURVE('',#628,(#630),.PCURVE_S1.);
#628=LINE('',#629,#101);
#629=CARTESIAN_POINT('',(2.E+06,9.999999999954E+04,0.));
#630=PCURVE('',#58,#631);
#631=DEFINITIONAL_REPRESENTATION('',(#632),#67);
#632=LINE('',#633,#106);
#633=CARTESIAN_POINT('',(2.E+06,4.336198544997E+05));
#634=ORIENTED_EDGE('',*,*,#635,.F.);
#635=EDGE_CURVE('',#636,#625,#432,.T.);
#636=VERTEX_POINT('',#637);
#637=CARTESIAN_POINT('',(1.05E+07,-1.000000000004E+05,0.));
#638=ORIENTED_EDGE('',*,*,#639,.F.);
#639=EDGE_CURVE('',#640,#636,#642,.T.);
#640=VERTEX_POINT('',#641);
#641=CARTESIAN_POINT('',(1.075E+07,-1.000000000004E+05,0.));
#642=SURFACE_CURVE('',#643,(#644),.PCURVE_S1.);
#643=LINE('',#641,#153);
#644=PCURVE('',#58,#645);
#645=DEFINITIONAL_REPRESENTATION('',(#646),#67);
#646=LINE('',#647,#159);
#647=CARTESIAN_POINT('',(1.075E+07,2.336198544997E+05));
#648=ORIENTED_EDGE('',*,*,#649,.F.);
#649=EDGE_CURVE('',#650,#640,#652,.T.);
#650=VERTEX_POINT('',#651);
#651=CARTESIAN_POINT('',(1.075E+07,-5.95E+06,0.));
#652=SURFACE_CURVE('',#653,(#654),.PCURVE_S1.);
#653=LINE('',#651,#126);
#654=PCURVE('',#58,#655);
#655=DEFINITIONAL_REPRESENTATION('',(#656),#67);
#656=LINE('',#657,#132);
#657=CARTESIAN_POINT('',(1.075E+07,-5.6163801455E+06));
#658=ORIENTED_EDGE('',*,*,#659,.F.);
#659=EDGE_CURVE('',#660,#650,#662,.T.);
#660=VERTEX_POINT('',#661);
#661=CARTESIAN_POINT('',(1.05E+07,-5.95E+06,0.));
#662=SURFACE_CURVE('',#663,(#667),.PCURVE_S1.);
#663=LINE('',#664,#665);
#664=CARTESIAN_POINT('',(2.E+06,-5.95E+06,0.));
#665=VECTOR('',#666,1.);
#666=DIRECTION('',(1.,8.120488408687E-16,0.));
#667=PCURVE('',#58,#668);
#668=DEFINITIONAL_REPRESENTATION('',(#669),#67);
#669=LINE('',#670,#671);
#670=CARTESIAN_POINT('',(2.E+06,-5.6163801455E+06));
#671=VECTOR('',#672,1.);
#672=DIRECTION('',(1.,8.120488408687E-16));
#673=ORIENTED_EDGE('',*,*,#674,.F.);
#674=EDGE_CURVE('',#675,#660,#432,.T.);
#675=VERTEX_POINT('',#676);
#676=CARTESIAN_POINT('',(1.05E+07,-6.15E+06,0.));
#677=ORIENTED_EDGE('',*,*,#678,.F.);
#678=EDGE_CURVE('',#679,#675,#681,.T.);
#679=VERTEX_POINT('',#680);
#680=CARTESIAN_POINT('',(1.075E+07,-6.15E+06,0.));
#681=SURFACE_CURVE('',#682,(#683),.PCURVE_S1.);
#682=LINE('',#680,#153);
#683=PCURVE('',#58,#684);
#684=DEFINITIONAL_REPRESENTATION('',(#685),#67);
#685=LINE('',#686,#159);
#686=CARTESIAN_POINT('',(1.075E+07,-5.8163801455E+06));
#687=ORIENTED_EDGE('',*,*,#688,.F.);
#688=EDGE_CURVE('',#689,#679,#691,.T.);
#689=VERTEX_POINT('',#690);
#690=CARTESIAN_POINT('',(1.075E+07,-1.075E+07,0.));
#691=SURFACE_CURVE('',#692,(#693),.PCURVE_S1.);
#692=LINE('',#690,#126);
#693=PCURVE('',#58,#694);
#694=DEFINITIONAL_REPRESENTATION('',(#695),#67);
#695=LINE('',#696,#132);
#696=CARTESIAN_POINT('',(1.075E+07,-1.04163801455E+07));
#697=ORIENTED_EDGE('',*,*,#698,.F.);
#698=EDGE_CURVE('',#699,#689,#701,.T.);
#699=VERTEX_POINT('',#700);
#700=CARTESIAN_POINT('',(-1.075E+07,-1.075E+07,0.));
#701=SURFACE_CURVE('',#702,(#703),.PCURVE_S1.);
#702=LINE('',#700,#101);
#703=PCURVE('',#58,#704);
#704=DEFINITIONAL_REPRESENTATION('',(#705),#67);
#705=LINE('',#706,#106);
#706=CARTESIAN_POINT('',(-1.075E+07,-1.04163801455E+07));
#707=ORIENTED_EDGE('',*,*,#708,.F.);
#708=EDGE_CURVE('',#709,#699,#711,.T.);
#709=VERTEX_POINT('',#710);
#710=CARTESIAN_POINT('',(-1.075E+07,-6.15E+06,0.));
#711=SURFACE_CURVE('',#712,(#713),.PCURVE_S1.);
#712=LINE('',#710,#180);
#713=PCURVE('',#58,#714);
#714=DEFINITIONAL_REPRESENTATION('',(#715),#67);
#715=LINE('',#716,#186);
#716=CARTESIAN_POINT('',(-1.075E+07,-5.8163801455E+06));
#717=ORIENTED_EDGE('',*,*,#718,.F.);
#718=EDGE_CURVE('',#719,#709,#721,.T.);
#719=VERTEX_POINT('',#720);
#720=CARTESIAN_POINT('',(-1.05E+07,-6.15E+06,0.));
#721=SURFACE_CURVE('',#722,(#724),.PCURVE_S1.);
#722=LINE('',#723,#153);
#723=CARTESIAN_POINT('',(-2.E+06,-6.15E+06,0.));
#724=PCURVE('',#58,#725);
#725=DEFINITIONAL_REPRESENTATION('',(#726),#67);
#726=LINE('',#727,#159);
#727=CARTESIAN_POINT('',(-2.E+06,-5.8163801455E+06));
#728=ORIENTED_EDGE('',*,*,#729,.F.);
#729=EDGE_CURVE('',#730,#719,#386,.T.);
#730=VERTEX_POINT('',#731);
#731=CARTESIAN_POINT('',(-1.05E+07,-5.95E+06,0.));
#732=ORIENTED_EDGE('',*,*,#733,.F.);
#733=EDGE_CURVE('',#734,#730,#736,.T.);
#734=VERTEX_POINT('',#735);
#735=CARTESIAN_POINT('',(-1.075E+07,-5.95E+06,0.));
#736=SURFACE_CURVE('',#737,(#740),.PCURVE_S1.);
#737=LINE('',#735,#738);
#738=VECTOR('',#739,1.);
#739=DIRECTION('',(1.,-8.120488408687E-16,0.));
#740=PCURVE('',#58,#741);
#741=DEFINITIONAL_REPRESENTATION('',(#742),#67);
#742=LINE('',#743,#744);
#743=CARTESIAN_POINT('',(-1.075E+07,-5.6163801455E+06));
#744=VECTOR('',#745,1.);
#745=DIRECTION('',(1.,-8.120488408687E-16));
#746=ORIENTED_EDGE('',*,*,#747,.F.);
#747=EDGE_CURVE('',#748,#734,#750,.T.);
#748=VERTEX_POINT('',#749);
#749=CARTESIAN_POINT('',(-1.075E+07,-1.000000000004E+05,0.));
#750=SURFACE_CURVE('',#751,(#752),.PCURVE_S1.);
#751=LINE('',#749,#180);
#752=PCURVE('',#58,#753);
#753=DEFINITIONAL_REPRESENTATION('',(#754),#67);
#754=LINE('',#755,#186);
#755=CARTESIAN_POINT('',(-1.075E+07,2.336198544997E+05));
#756=ORIENTED_EDGE('',*,*,#757,.F.);
#757=EDGE_CURVE('',#758,#748,#760,.T.);
#758=VERTEX_POINT('',#759);
#759=CARTESIAN_POINT('',(-1.05E+07,-1.000000000004E+05,0.));
#760=SURFACE_CURVE('',#761,(#763),.PCURVE_S1.);
#761=LINE('',#762,#153);
#762=CARTESIAN_POINT('',(-2.E+06,-1.000000000004E+05,0.));
#763=PCURVE('',#58,#764);
#764=DEFINITIONAL_REPRESENTATION('',(#765),#67);
#765=LINE('',#766,#159);
#766=CARTESIAN_POINT('',(-2.E+06,2.336198544997E+05));
#767=ORIENTED_EDGE('',*,*,#768,.F.);
#768=EDGE_CURVE('',#769,#758,#386,.T.);
#769=VERTEX_POINT('',#770);
#770=CARTESIAN_POINT('',(-1.05E+07,9.999999999954E+04,0.));
#771=ORIENTED_EDGE('',*,*,#772,.F.);
#772=EDGE_CURVE('',#773,#769,#775,.T.);
#773=VERTEX_POINT('',#774);
#774=CARTESIAN_POINT('',(-1.075E+07,9.999999999954E+04,0.));
#775=SURFACE_CURVE('',#776,(#777),.PCURVE_S1.);
#776=LINE('',#774,#101);
#777=PCURVE('',#58,#778);
#778=DEFINITIONAL_REPRESENTATION('',(#779),#67);
#779=LINE('',#780,#106);
#780=CARTESIAN_POINT('',(-1.075E+07,4.336198544997E+05));
#781=ORIENTED_EDGE('',*,*,#782,.F.);
#782=EDGE_CURVE('',#783,#773,#785,.T.);
#783=VERTEX_POINT('',#784);
#784=CARTESIAN_POINT('',(-1.075E+07,5.95E+06,0.));
#785=SURFACE_CURVE('',#786,(#787),.PCURVE_S1.);
#786=LINE('',#784,#180);
#787=PCURVE('',#58,#788);
#788=DEFINITIONAL_REPRESENTATION('',(#789),#67);
#789=LINE('',#790,#186);
#790=CARTESIAN_POINT('',(-1.075E+07,6.2836198545E+06));
#791=ORIENTED_EDGE('',*,*,#792,.F.);
#792=EDGE_CURVE('',#793,#783,#795,.T.);
#793=VERTEX_POINT('',#794);
#794=CARTESIAN_POINT('',(-1.05E+07,5.95E+06,0.));
#795=SURFACE_CURVE('',#796,(#798),.PCURVE_S1.);
#796=LINE('',#797,#153);
#797=CARTESIAN_POINT('',(-2.E+06,5.95E+06,0.));
#798=PCURVE('',#58,#799);
#799=DEFINITIONAL_REPRESENTATION('',(#800),#67);
#800=LINE('',#801,#159);
#801=CARTESIAN_POINT('',(-2.E+06,6.2836198545E+06));
#802=ORIENTED_EDGE('',*,*,#803,.F.);
#803=EDGE_CURVE('',#374,#793,#386,.T.);
#804=ORIENTED_EDGE('',*,*,#373,.F.);
#805=ORIENTED_EDGE('',*,*,#363,.F.);
#806=ORIENTED_EDGE('',*,*,#353,.F.);
#807=ORIENTED_EDGE('',*,*,#340,.T.);
#808=ORIENTED_EDGE('',*,*,#330,.F.);
#809=ORIENTED_EDGE('',*,*,#317,.T.);
#810=ORIENTED_EDGE('',*,*,#307,.F.);
#811=ORIENTED_EDGE('',*,*,#298,.T.);
#812=ORIENTED_EDGE('',*,*,#288,.F.);
#813=ORIENTED_EDGE('',*,*,#279,.T.);
#814=ORIENTED_EDGE('',*,*,#269,.F.);
#815=ORIENTED_EDGE('',*,*,#256,.F.);
#816=ORIENTED_EDGE('',*,*,#242,.F.);
#817=SHELL_BASED_SURFACE_MODEL('',(#818));
#818=OPEN_SHELL('',(#819));
#819=ADVANCED_FACE('',(#820),#58,.T.);
#820=FACE_BOUND('',#821,.T.);
#821=EDGE_LOOP('',(#822,#825,#826,#827,#828,#829,#830,#834,    #846,#848,#850,#854,#866,#868,#870,#874,#886,#888,#892,    #905,#919,#931,#933,#937,#949,#951,#953,#957,#969,#971,    #973,#977));
#822=ORIENTED_EDGE('',*,*,#823,.T.);
#823=EDGE_CURVE('',#824,#430,#443,.T.);
#824=VERTEX_POINT('',#445);
#825=ORIENTED_EDGE('',*,*,#429,.T.);
#826=ORIENTED_EDGE('',*,*,#416,.T.);
#827=ORIENTED_EDGE('',*,*,#406,.T.);
#828=ORIENTED_EDGE('',*,*,#393,.T.);
#829=ORIENTED_EDGE('',*,*,#383,.T.);
#830=ORIENTED_EDGE('',*,*,#831,.T.);
#831=EDGE_CURVE('',#374,#832,#376,.T.);
#832=VERTEX_POINT('',#833);
#833=CARTESIAN_POINT('',(-2.E+06,6.15E+06,0.));
#834=ORIENTED_EDGE('',*,*,#835,.F.);
#835=EDGE_CURVE('',#836,#832,#837,.T.);
#836=VERTEX_POINT('',#797);
#837=SURFACE_CURVE('',#838,(#841),.PCURVE_S1.);
#838=CIRCLE('',#839,9.999999999999E+04);
#839=AXIS2_PLACEMENT_3D('',#840,#13,#61);
#840=CARTESIAN_POINT('',(-2.E+06,6.05E+06,0.));
#841=PCURVE('',#58,#842);
#842=DEFINITIONAL_REPRESENTATION('',(#843),#67);
#843=CIRCLE('',#844,9.999999999999E+04);
#844=AXIS2_PLACEMENT_2D('',#845,#81);
#845=CARTESIAN_POINT('',(-2.E+06,6.3836198545E+06));
#846=ORIENTED_EDGE('',*,*,#847,.T.);
#847=EDGE_CURVE('',#836,#793,#795,.T.);
#848=ORIENTED_EDGE('',*,*,#849,.T.);
#849=EDGE_CURVE('',#793,#769,#386,.T.);
#850=ORIENTED_EDGE('',*,*,#851,.T.);
#851=EDGE_CURVE('',#769,#852,#775,.T.);
#852=VERTEX_POINT('',#853);
#853=CARTESIAN_POINT('',(-2.E+06,9.999999999954E+04,0.));
#854=ORIENTED_EDGE('',*,*,#855,.F.);
#855=EDGE_CURVE('',#856,#852,#857,.T.);
#856=VERTEX_POINT('',#762);
#857=SURFACE_CURVE('',#858,(#861),.PCURVE_S1.);
#858=CIRCLE('',#859,9.999999999999E+04);
#859=AXIS2_PLACEMENT_3D('',#860,#13,#61);
#860=CARTESIAN_POINT('',(-2.E+06,-4.547473508865E-07,0.));
#861=PCURVE('',#58,#862);
#862=DEFINITIONAL_REPRESENTATION('',(#863),#67);
#863=CIRCLE('',#864,9.999999999999E+04);
#864=AXIS2_PLACEMENT_2D('',#865,#81);
#865=CARTESIAN_POINT('',(-2.E+06,3.336198544997E+05));
#866=ORIENTED_EDGE('',*,*,#867,.T.);
#867=EDGE_CURVE('',#856,#758,#760,.T.);
#868=ORIENTED_EDGE('',*,*,#869,.T.);
#869=EDGE_CURVE('',#758,#730,#386,.T.);
#870=ORIENTED_EDGE('',*,*,#871,.T.);
#871=EDGE_CURVE('',#730,#872,#736,.T.);
#872=VERTEX_POINT('',#873);
#873=CARTESIAN_POINT('',(-2.E+06,-5.95E+06,0.));
#874=ORIENTED_EDGE('',*,*,#875,.F.);
#875=EDGE_CURVE('',#876,#872,#877,.T.);
#876=VERTEX_POINT('',#723);
#877=SURFACE_CURVE('',#878,(#881),.PCURVE_S1.);
#878=CIRCLE('',#879,9.999999999999E+04);
#879=AXIS2_PLACEMENT_3D('',#880,#13,#61);
#880=CARTESIAN_POINT('',(-2.E+06,-6.05E+06,0.));
#881=PCURVE('',#58,#882);
#882=DEFINITIONAL_REPRESENTATION('',(#883),#67);
#883=CIRCLE('',#884,9.999999999999E+04);
#884=AXIS2_PLACEMENT_2D('',#885,#81);
#885=CARTESIAN_POINT('',(-2.E+06,-5.7163801455E+06));
#886=ORIENTED_EDGE('',*,*,#887,.T.);
#887=EDGE_CURVE('',#876,#719,#721,.T.);
#888=ORIENTED_EDGE('',*,*,#889,.T.);
#889=EDGE_CURVE('',#719,#890,#386,.T.);
#890=VERTEX_POINT('',#891);
#891=CARTESIAN_POINT('',(-1.05E+07,-1.0375E+07,0.));
#892=ORIENTED_EDGE('',*,*,#893,.T.);
#893=EDGE_CURVE('',#890,#894,#896,.T.);
#894=VERTEX_POINT('',#895);
#895=CARTESIAN_POINT('',(-1.0375E+07,-1.05E+07,0.));
#896=SURFACE_CURVE('',#897,(#900),.PCURVE_S1.);
#897=CIRCLE('',#898,1.25E+05);
#898=AXIS2_PLACEMENT_3D('',#899,#13,#61);
#899=CARTESIAN_POINT('',(-1.0375E+07,-1.0375E+07,0.));
#900=PCURVE('',#58,#901);
#901=DEFINITIONAL_REPRESENTATION('',(#902),#67);
#902=CIRCLE('',#903,1.25E+05);
#903=AXIS2_PLACEMENT_2D('',#904,#81);
#904=CARTESIAN_POINT('',(-1.0375E+07,-1.00413801455E+07));
#905=ORIENTED_EDGE('',*,*,#906,.T.);
#906=EDGE_CURVE('',#894,#907,#909,.T.);
#907=VERTEX_POINT('',#908);
#908=CARTESIAN_POINT('',(1.0375E+07,-1.05E+07,0.));
#909=SURFACE_CURVE('',#910,(#913),.PCURVE_S1.);
#910=LINE('',#895,#911);
#911=VECTOR('',#912,1.);
#912=DIRECTION('',(1.,-5.136453511519E-16,0.));
#913=PCURVE('',#58,#914);
#914=DEFINITIONAL_REPRESENTATION('',(#915),#67);
#915=LINE('',#916,#917);
#916=CARTESIAN_POINT('',(-1.0375E+07,-1.01663801455E+07));
#917=VECTOR('',#918,1.);
#918=DIRECTION('',(1.,-5.136453511519E-16));
#919=ORIENTED_EDGE('',*,*,#920,.T.);
#920=EDGE_CURVE('',#907,#921,#922,.T.);
#921=VERTEX_POINT('',#434);
#922=SURFACE_CURVE('',#923,(#926),.PCURVE_S1.);
#923=CIRCLE('',#924,1.25E+05);
#924=AXIS2_PLACEMENT_3D('',#925,#13,#61);
#925=CARTESIAN_POINT('',(1.0375E+07,-1.0375E+07,0.));
#926=PCURVE('',#58,#927);
#927=DEFINITIONAL_REPRESENTATION('',(#928),#67);
#928=CIRCLE('',#929,1.25E+05);
#929=AXIS2_PLACEMENT_2D('',#930,#81);
#930=CARTESIAN_POINT('',(1.0375E+07,-1.00413801455E+07));
#931=ORIENTED_EDGE('',*,*,#932,.T.);
#932=EDGE_CURVE('',#921,#675,#432,.T.);
#933=ORIENTED_EDGE('',*,*,#934,.T.);
#934=EDGE_CURVE('',#675,#935,#681,.T.);
#935=VERTEX_POINT('',#936);
#936=CARTESIAN_POINT('',(2.E+06,-6.15E+06,0.));
#937=ORIENTED_EDGE('',*,*,#938,.F.);
#938=EDGE_CURVE('',#939,#935,#940,.T.);
#939=VERTEX_POINT('',#664);
#940=SURFACE_CURVE('',#941,(#944),.PCURVE_S1.);
#941=CIRCLE('',#942,9.999999999999E+04);
#942=AXIS2_PLACEMENT_3D('',#943,#13,#61);
#943=CARTESIAN_POINT('',(2.E+06,-6.05E+06,0.));
#944=PCURVE('',#58,#945);
#945=DEFINITIONAL_REPRESENTATION('',(#946),#67);
#946=CIRCLE('',#947,9.999999999999E+04);
#947=AXIS2_PLACEMENT_2D('',#948,#81);
#948=CARTESIAN_POINT('',(2.E+06,-5.7163801455E+06));
#949=ORIENTED_EDGE('',*,*,#950,.T.);
#950=EDGE_CURVE('',#939,#660,#662,.T.);
#951=ORIENTED_EDGE('',*,*,#952,.T.);
#952=EDGE_CURVE('',#660,#636,#432,.T.);
#953=ORIENTED_EDGE('',*,*,#954,.T.);
#954=EDGE_CURVE('',#636,#955,#642,.T.);
#955=VERTEX_POINT('',#956);
#956=CARTESIAN_POINT('',(2.E+06,-1.000000000004E+05,0.));
#957=ORIENTED_EDGE('',*,*,#958,.F.);
#958=EDGE_CURVE('',#959,#955,#960,.T.);
#959=VERTEX_POINT('',#629);
#960=SURFACE_CURVE('',#961,(#964),.PCURVE_S1.);
#961=CIRCLE('',#962,9.999999999999E+04);
#962=AXIS2_PLACEMENT_3D('',#963,#13,#61);
#963=CARTESIAN_POINT('',(2.E+06,-4.547612286743E-07,0.));
#964=PCURVE('',#58,#965);
#965=DEFINITIONAL_REPRESENTATION('',(#966),#67);
#966=CIRCLE('',#967,9.999999999999E+04);
#967=AXIS2_PLACEMENT_2D('',#968,#81);
#968=CARTESIAN_POINT('',(2.E+06,3.336198544997E+05));
#969=ORIENTED_EDGE('',*,*,#970,.T.);
#970=EDGE_CURVE('',#959,#625,#627,.T.);
#971=ORIENTED_EDGE('',*,*,#972,.T.);
#972=EDGE_CURVE('',#625,#601,#432,.T.);
#973=ORIENTED_EDGE('',*,*,#974,.T.);
#974=EDGE_CURVE('',#601,#975,#607,.T.);
#975=VERTEX_POINT('',#976);
#976=CARTESIAN_POINT('',(2.E+06,5.95E+06,0.));
#977=ORIENTED_EDGE('',*,*,#978,.F.);
#978=EDGE_CURVE('',#824,#975,#979,.T.);
#979=SURFACE_CURVE('',#980,(#983),.PCURVE_S1.);
#980=CIRCLE('',#981,9.999999999999E+04);
#981=AXIS2_PLACEMENT_3D('',#982,#13,#61);
#982=CARTESIAN_POINT('',(2.E+06,6.05E+06,0.));
#983=PCURVE('',#58,#984);
#984=DEFINITIONAL_REPRESENTATION('',(#985),#67);
#985=CIRCLE('',#986,9.999999999999E+04);
#986=AXIS2_PLACEMENT_2D('',#987,#81);
#987=CARTESIAN_POINT('',(2.E+06,6.3836198545E+06));
#988=SHELL_BASED_SURFACE_MODEL('',(#989));
#989=OPEN_SHELL('',(#990));
#990=ADVANCED_FACE('',(#991),#58,.T.);
#991=FACE_BOUND('',#992,.T.);
#992=EDGE_LOOP('',(#993,#994,#995,#996));
#993=ORIENTED_EDGE('',*,*,#600,.T.);
#994=ORIENTED_EDGE('',*,*,#823,.F.);
#995=ORIENTED_EDGE('',*,*,#978,.T.);
#996=ORIENTED_EDGE('',*,*,#974,.F.);
#997=SHELL_BASED_SURFACE_MODEL('',(#998));
#998=OPEN_SHELL('',(#999));
#999=ADVANCED_FACE('',(#1000),#58,.T.);
#1000=FACE_BOUND('',#1001,.T.);
#1001=EDGE_LOOP('',(#1002,#1003,#1004,#1005));
#1002=ORIENTED_EDGE('',*,*,#604,.T.);
#1003=ORIENTED_EDGE('',*,*,#972,.F.);
#1004=ORIENTED_EDGE('',*,*,#624,.T.);
#1005=ORIENTED_EDGE('',*,*,#614,.T.);
#1006=SHELL_BASED_SURFACE_MODEL('',(#1007));
#1007=OPEN_SHELL('',(#1008));
#1008=ADVANCED_FACE('',(#1009),#58,.T.);
#1009=FACE_BOUND('',#1010,.T.);
#1010=EDGE_LOOP('',(#1011,#1012,#1013,#1014));
#1011=ORIENTED_EDGE('',*,*,#831,.F.);
#1012=ORIENTED_EDGE('',*,*,#803,.T.);
#1013=ORIENTED_EDGE('',*,*,#847,.F.);
#1014=ORIENTED_EDGE('',*,*,#835,.T.);
#1015=SHELL_BASED_SURFACE_MODEL('',(#1016));
#1016=OPEN_SHELL('',(#1017));
#1017=ADVANCED_FACE('',(#1018),#58,.T.);
#1018=FACE_BOUND('',#1019,.T.);
#1019=EDGE_LOOP('',(#1020,#1021,#1022,#1023));
#1020=ORIENTED_EDGE('',*,*,#635,.T.);
#1021=ORIENTED_EDGE('',*,*,#970,.F.);
#1022=ORIENTED_EDGE('',*,*,#958,.T.);
#1023=ORIENTED_EDGE('',*,*,#954,.F.);
#1024=SHELL_BASED_SURFACE_MODEL('',(#1025));
#1025=OPEN_SHELL('',(#1026));
#1026=ADVANCED_FACE('',(#1027),#58,.T.);
#1027=FACE_BOUND('',#1028,.T.);
#1028=EDGE_LOOP('',(#1029,#1030,#1031,#1032));
#1029=ORIENTED_EDGE('',*,*,#849,.F.);
#1030=ORIENTED_EDGE('',*,*,#792,.T.);
#1031=ORIENTED_EDGE('',*,*,#782,.T.);
#1032=ORIENTED_EDGE('',*,*,#772,.T.);
#1033=SHELL_BASED_SURFACE_MODEL('',(#1034));
#1034=OPEN_SHELL('',(#1035));
#1035=ADVANCED_FACE('',(#1036),#58,.T.);
#1036=FACE_BOUND('',#1037,.T.);
#1037=EDGE_LOOP('',(#1038,#1039,#1040,#1041));
#1038=ORIENTED_EDGE('',*,*,#639,.T.);
#1039=ORIENTED_EDGE('',*,*,#952,.F.);
#1040=ORIENTED_EDGE('',*,*,#659,.T.);
#1041=ORIENTED_EDGE('',*,*,#649,.T.);
#1042=SHELL_BASED_SURFACE_MODEL('',(#1043));
#1043=OPEN_SHELL('',(#1044));
#1044=ADVANCED_FACE('',(#1045),#58,.T.);
#1045=FACE_BOUND('',#1046,.T.);
#1046=EDGE_LOOP('',(#1047,#1048,#1049,#1050));
#1047=ORIENTED_EDGE('',*,*,#851,.F.);
#1048=ORIENTED_EDGE('',*,*,#768,.T.);
#1049=ORIENTED_EDGE('',*,*,#867,.F.);
#1050=ORIENTED_EDGE('',*,*,#855,.T.);
#1051=SHELL_BASED_SURFACE_MODEL('',(#1052));
#1052=OPEN_SHELL('',(#1053));
#1053=ADVANCED_FACE('',(#1054),#58,.T.);
#1054=FACE_BOUND('',#1055,.T.);
#1055=EDGE_LOOP('',(#1056,#1057,#1058,#1059));
#1056=ORIENTED_EDGE('',*,*,#674,.T.);
#1057=ORIENTED_EDGE('',*,*,#950,.F.);
#1058=ORIENTED_EDGE('',*,*,#938,.T.);
#1059=ORIENTED_EDGE('',*,*,#934,.F.);
#1060=SHELL_BASED_SURFACE_MODEL('',(#1061));
#1061=OPEN_SHELL('',(#1062));
#1062=ADVANCED_FACE('',(#1063),#58,.T.);
#1063=FACE_BOUND('',#1064,.T.);
#1064=EDGE_LOOP('',(#1065,#1066,#1067,#1068));
#1065=ORIENTED_EDGE('',*,*,#869,.F.);
#1066=ORIENTED_EDGE('',*,*,#757,.T.);
#1067=ORIENTED_EDGE('',*,*,#747,.T.);
#1068=ORIENTED_EDGE('',*,*,#733,.T.);
#1069=SHELL_BASED_SURFACE_MODEL('',(#1070));
#1070=OPEN_SHELL('',(#1071));
#1071=ADVANCED_FACE('',(#1072),#58,.T.);
#1072=FACE_BOUND('',#1073,.T.);
#1073=EDGE_LOOP('',(#1074,#1075,#1076,#1077,#1078,#1079,#1080,#1081,    #1082,#1083));
#1074=ORIENTED_EDGE('',*,*,#678,.T.);
#1075=ORIENTED_EDGE('',*,*,#932,.F.);
#1076=ORIENTED_EDGE('',*,*,#920,.F.);
#1077=ORIENTED_EDGE('',*,*,#906,.F.);
#1078=ORIENTED_EDGE('',*,*,#893,.F.);
#1079=ORIENTED_EDGE('',*,*,#889,.F.);
#1080=ORIENTED_EDGE('',*,*,#718,.T.);
#1081=ORIENTED_EDGE('',*,*,#708,.T.);
#1082=ORIENTED_EDGE('',*,*,#698,.T.);
#1083=ORIENTED_EDGE('',*,*,#688,.T.);
#1084=SHELL_BASED_SURFACE_MODEL('',(#1085));
#1085=OPEN_SHELL('',(#1086));
#1086=ADVANCED_FACE('',(#1087),#58,.T.);
#1087=FACE_BOUND('',#1088,.T.);
#1088=EDGE_LOOP('',(#1089,#1090,#1091,#1092));
#1089=ORIENTED_EDGE('',*,*,#871,.F.);
#1090=ORIENTED_EDGE('',*,*,#729,.T.);
#1091=ORIENTED_EDGE('',*,*,#887,.F.);
#1092=ORIENTED_EDGE('',*,*,#875,.T.);
#1093=( GEOMETRIC_REPRESENTATION_CONTEXT(3) GLOBAL_UNCERTAINTY_ASSIGNED_CONTEXT((#19)) GLOBAL_UNIT_ASSIGNED_CONTEXT((#16,#17,#18)) REPRESENTATION_CONTEXT('Context #1','3D Context with UNIT and UNCERTAINTY') );
#1094=CONTEXT_DEPENDENT_SHAPE_REPRESENTATION(#1095,#1096);
#1095=( REPRESENTATION_RELATIONSHIP('','',#40,#27) REPRESENTATION_RELATIONSHIP_WITH_TRANSFORMATION(#30) SHAPE_REPRESENTATION_RELATIONSHIP() );
#1096=PRODUCT_DEFINITION_SHAPE('Placement','Placement of an item',  #1097);
#1097=NEXT_ASSEMBLY_USAGE_OCCURRENCE('16','','',#23,#36,$);
#1098=PRODUCT_RELATED_PRODUCT_CATEGORY('part',$,(#38));
#1099=SHAPE_DEFINITION_REPRESENTATION(#1100,#1105);
#1100=PRODUCT_DEFINITION_SHAPE('','',#1101);
#1101=PRODUCT_DEFINITION('design','',#1102,#1104);
#1102=PRODUCT_DEFINITION_FORMATION('','',#1103);
#1103=PRODUCT('contact_cutter','contact_cutter','',(#8));
#1104=PRODUCT_DEFINITION_CONTEXT('part definition',#2,'design');   
#1105=SHAPE_REPRESENTATION('',(#11),#1106);
#1106=( GEOMETRIC_REPRESENTATION_CONTEXT(3) GLOBAL_UNCERTAINTY_ASSIGNED_CONTEXT((#1107)) GLOBAL_UNIT_ASSIGNED_CONTEXT((#16,#17,#18)) REPRESENTATION_CONTEXT('Context #1','3D Context with UNIT and UNCERTAINTY') );
#1107=UNCERTAINTY_MEASURE_WITH_UNIT(LENGTH_MEASURE(1.E-07),#16,  'distance_accuracy_value','confusion accuracy');
#1108=CONTEXT_DEPENDENT_SHAPE_REPRESENTATION(#1109,#1110);
#1109=( REPRESENTATION_RELATIONSHIP('','',#1105,#10) REPRESENTATION_RELATIONSHIP_WITH_TRANSFORMATION(#30) SHAPE_REPRESENTATION_RELATIONSHIP() );
#1110=PRODUCT_DEFINITION_SHAPE('Placement','Placement of an item',  #1111);
#1111=NEXT_ASSEMBLY_USAGE_OCCURRENCE('18','','',#5,#1101,$);
#1112=PRODUCT_RELATED_PRODUCT_CATEGORY('part',$,(#1103));
#1113=MECHANICAL_DESIGN_GEOMETRIC_PRESENTATION_REPRESENTATION('',(    #1114,#1122,#1123,#1124,#1125,#1126,#1127,#1128,#1129,#1130,#1131,    #1132,#1133,#1134),#1093);
#1114=STYLED_ITEM('color',(#1115),#43);
#1115=PRESENTATION_STYLE_ASSIGNMENT((#1116));
#1116=SURFACE_STYLE_USAGE(.BOTH.,#1117);
#1117=SURFACE_SIDE_STYLE('',(#1118));
#1118=SURFACE_STYLE_FILL_AREA(#1119);
#1119=FILL_AREA_STYLE('',(#1120));
#1120=FILL_AREA_STYLE_COLOUR('',#1121);
#1121=DRAUGHTING_PRE_DEFINED_COLOUR('red');
#1122=STYLED_ITEM('color',(#1115),#581);
#1123=STYLED_ITEM('color',(#1115),#819);
#1124=STYLED_ITEM('color',(#1115),#990);
#1125=STYLED_ITEM('color',(#1115),#999);
#1126=STYLED_ITEM('color',(#1115),#1008);
#1127=STYLED_ITEM('color',(#1115),#1017);
#1128=STYLED_ITEM('color',(#1115),#1026);
#1129=STYLED_ITEM('color',(#1115),#1035);
#1130=STYLED_ITEM('color',(#1115),#1044);
#1131=STYLED_ITEM('color',(#1115),#1053);
#1132=STYLED_ITEM('color',(#1115),#1062);
#1133=STYLED_ITEM('color',(#1115),#1071);
#1134=STYLED_ITEM('color',(#1115),#1086);
ENDSEC;
END-ISO-10303-21;

