ISO-10303-21;
HEADER;
FILE_DESCRIPTION(('Open CASCADE Model'),'2;1');
FILE_NAME('Open CASCADE Shape Model','2023-11-29T19:58:44',('Author'),(
    'Open CASCADE'),'Open CASCADE STEP processor 7.7','Open CASCADE 7.7'
  ,'Unknown');
FILE_SCHEMA(('AUTOMOTIVE_DESIGN { 1 0 10303 214 1 1 1 1 }'));
ENDSEC;
DATA;
#1=APPLICATION_PROTOCOL_DEFINITION('international standard',  'automotive_design',2000,#2);
#2=APPLICATION_CONTEXT(  'core data for automotive mechanical design processes');
#3=SHAPE_DEFINITION_REPRESENTATION(#4,#10);
#4=PRODUCT_DEFINITION_SHAPE('','',#5);
#5=PRODUCT_DEFINITION('design','',#6,#9);
#6=PRODUCT_DEFINITION_FORMATION('','',#7);
#7=PRODUCT('sim_onesqcm_fingerA','sim_onesqcm_fingerA','',(#8));
#8=PRODUCT_CONTEXT('',#2,'mechanical');
#9=PRODUCT_DEFINITION_CONTEXT('part definition',#2,'design');
#10=SHAPE_REPRESENTATION('',(#11,#11,#11),#15);
#11=AXIS2_PLACEMENT_3D('',#12,#13,#14);
#12=CARTESIAN_POINT('',(0.,0.,0.));
#13=DIRECTION('',(0.,0.,1.));
#14=DIRECTION('',(1.,0.,-0.));
#15=( GEOMETRIC_REPRESENTATION_CONTEXT(3) GLOBAL_UNCERTAINTY_ASSIGNED_CONTEXT((#19)) GLOBAL_UNIT_ASSIGNED_CONTEXT((#16,#17,#18)) REPRESENTATION_CONTEXT('Context #1',  '3D Context with UNIT and UNCERTAINTY') );
#16=( LENGTH_UNIT() NAMED_UNIT(*) SI_UNIT(.MILLI.,.METRE.) );
#17=( NAMED_UNIT(*) PLANE_ANGLE_UNIT() SI_UNIT($,.RADIAN.) );
#18=( NAMED_UNIT(*) SI_UNIT($,.STERADIAN.) SOLID_ANGLE_UNIT() );
#19=UNCERTAINTY_MEASURE_WITH_UNIT(LENGTH_MEASURE(0.1),#16,  'distance_accuracy_value','confusion accuracy');
#20=PRODUCT_RELATED_PRODUCT_CATEGORY('part',$,(#7));
#21=SHAPE_DEFINITION_REPRESENTATION(#22,#27);
#22=PRODUCT_DEFINITION_SHAPE('','',#23);
#23=PRODUCT_DEFINITION('design','',#24,#26);
#24=PRODUCT_DEFINITION_FORMATION('','',#25);
#25=PRODUCT('tco','tco','',(#8));
#26=PRODUCT_DEFINITION_CONTEXT('part definition',#2,'design'); 
#27=SHAPE_REPRESENTATION('',(#11,#11),#15);
#28=CONTEXT_DEPENDENT_SHAPE_REPRESENTATION(#29,#31);
#29=( REPRESENTATION_RELATIONSHIP('','',#27,#10) REPRESENTATION_RELATIONSHIP_WITH_TRANSFORMATION(#30) SHAPE_REPRESENTATION_RELATIONSHIP() );
#30=ITEM_DEFINED_TRANSFORMATION('','',#11,#11);
#31=PRODUCT_DEFINITION_SHAPE('Placement','Placement of an item',#32);
#32=NEXT_ASSEMBLY_USAGE_OCCURRENCE('14','','',#5,#23,$);
#33=PRODUCT_RELATED_PRODUCT_CATEGORY('part',$,(#25));
#34=SHAPE_DEFINITION_REPRESENTATION(#35,#40);
#35=PRODUCT_DEFINITION_SHAPE('','',#36);
#36=PRODUCT_DEFINITION('design','',#37,#39);
#37=PRODUCT_DEFINITION_FORMATION('','',#38);
#38=PRODUCT('tco_part','tco_part','',(#8));
#39=PRODUCT_DEFINITION_CONTEXT('part definition',#2,'design');  
#40=SHAPE_REPRESENTATION('',(#11,#41,#638,#694,#718,#795,#804,    #819,#834),#843);
#41=SHELL_BASED_SURFACE_MODEL('',(#42));
#42=OPEN_SHELL('',(#43));
#43=ADVANCED_FACE('',(#44),#58,.T.);
#44=FACE_BOUND('',#45,.T.);
#45=EDGE_LOOP('',(#46,#67,#81,#94,#108,#121,#136,#151,#166,#179,#194    ,#207,#221,#234,#246,#259,#269,#282,#296,#305,#319,#332,#343,#354,    #364,#377,#387,#396,#410,#423,#438,#449,#463,#476,#486,#495,#509,    #522,#533,#544,#554,#567,#577,#586,#600,#613,#623,#636));
#46=ORIENTED_EDGE('',*,*,#47,.T.);
#47=EDGE_CURVE('',#48,#50,#52,.T.);
#48=VERTEX_POINT('',#49);
#49=CARTESIAN_POINT('',(1.025E+07,1.249999999999E+06,0.));
#50=VERTEX_POINT('',#51);
#51=CARTESIAN_POINT('',(1.15E+07,2.499999999999E+06,0.));
#52=SURFACE_CURVE('',#53,(#57),.PCURVE_S1.);
#53=CIRCLE('',#54,1.25E+06);
#54=AXIS2_PLACEMENT_3D('',#55,#13,#56);
#55=CARTESIAN_POINT('',(1.025E+07,2.499999999999E+06,0.));
#56=DIRECTION('',(1.,0.,0.));
#57=PCURVE('',#58,#61);
#58=PLANE('',#59);
#59=AXIS2_PLACEMENT_3D('',#60,#13,#56);
#60=CARTESIAN_POINT('',(2.604363504942E-07,5.996128675735E+06,0.));
#61=DEFINITIONAL_REPRESENTATION('',(#62),#66);
#62=CIRCLE('',#63,1.25E+06);
#63=AXIS2_PLACEMENT_2D('',#64,#65);
#64=CARTESIAN_POINT('',(1.025E+07,-3.496128675736E+06));
#65=DIRECTION('',(1.,0.));
#66=( GEOMETRIC_REPRESENTATION_CONTEXT(2) PARAMETRIC_REPRESENTATION_CONTEXT() REPRESENTATION_CONTEXT('2D SPACE',''  ) );
#67=ORIENTED_EDGE('',*,*,#68,.T.);
#68=EDGE_CURVE('',#50,#69,#71,.T.);
#69=VERTEX_POINT('',#70);
#70=CARTESIAN_POINT('',(1.15E+07,6.161144271469E+06,0.));
#71=SURFACE_CURVE('',#72,(#75),.PCURVE_S1.);
#72=LINE('',#51,#73);
#73=VECTOR('',#74,1.);
#74=DIRECTION('',(0.,1.,0.));
#75=PCURVE('',#58,#76);
#76=DEFINITIONAL_REPRESENTATION('',(#77),#66);
#77=LINE('',#78,#79);
#78=CARTESIAN_POINT('',(1.15E+07,-3.496128675736E+06));
#79=VECTOR('',#80,1.);
#80=DIRECTION('',(0.,1.));
#81=ORIENTED_EDGE('',*,*,#82,.T.);
#82=EDGE_CURVE('',#69,#83,#85,.T.);
#83=VERTEX_POINT('',#84);
#84=CARTESIAN_POINT('',(1.025E+07,7.411144271469E+06,0.));
#85=SURFACE_CURVE('',#86,(#89),.PCURVE_S1.);
#86=CIRCLE('',#87,1.25E+06);
#87=AXIS2_PLACEMENT_3D('',#88,#13,#56);
#88=CARTESIAN_POINT('',(1.025E+07,6.161144271469E+06,0.));
#89=PCURVE('',#58,#90);
#90=DEFINITIONAL_REPRESENTATION('',(#91),#66);
#91=CIRCLE('',#92,1.25E+06);
#92=AXIS2_PLACEMENT_2D('',#93,#65);
#93=CARTESIAN_POINT('',(1.025E+07,1.650155957339E+05));
#94=ORIENTED_EDGE('',*,*,#95,.T.);
#95=EDGE_CURVE('',#83,#96,#98,.T.);
#96=VERTEX_POINT('',#97);
#97=CARTESIAN_POINT('',(8.50000000001E+05,7.411144271469E+06,0.));
#98=SURFACE_CURVE('',#99,(#102),.PCURVE_S1.);
#99=LINE('',#84,#100);
#100=VECTOR('',#101,1.);
#101=DIRECTION('',(-1.,1.889741318511E-15,0.));
#102=PCURVE('',#58,#103);
#103=DEFINITIONAL_REPRESENTATION('',(#104),#66);
#104=LINE('',#105,#106);
#105=CARTESIAN_POINT('',(1.025E+07,1.415015595734E+06));
#106=VECTOR('',#107,1.);
#107=DIRECTION('',(-1.,1.889741318511E-15));
#108=ORIENTED_EDGE('',*,*,#109,.F.);
#109=EDGE_CURVE('',#110,#96,#112,.T.);
#110=VERTEX_POINT('',#111);
#111=CARTESIAN_POINT('',(7.50000000001E+05,7.511144271469E+06,0.));
#112=SURFACE_CURVE('',#113,(#116),.PCURVE_S1.);
#113=CIRCLE('',#114,1.E+05);
#114=AXIS2_PLACEMENT_3D('',#115,#13,#56);
#115=CARTESIAN_POINT('',(8.500000000019E+05,7.511144271469E+06,0.));
#116=PCURVE('',#58,#117);
#117=DEFINITIONAL_REPRESENTATION('',(#118),#66);
#118=CIRCLE('',#119,1.E+05);
#119=AXIS2_PLACEMENT_2D('',#120,#65);
#120=CARTESIAN_POINT('',(8.500000000016E+05,1.515015595734E+06));
#121=ORIENTED_EDGE('',*,*,#122,.T.);
#122=EDGE_CURVE('',#110,#123,#125,.T.);
#123=VERTEX_POINT('',#124);
#124=CARTESIAN_POINT('',(7.500000000009E+05,1.075E+07,0.));
#125=SURFACE_CURVE('',#126,(#130),.PCURVE_S1.);
#126=LINE('',#127,#128);
#127=CARTESIAN_POINT('',(7.500000000019E+05,7.511144271469E+06,0.));
#128=VECTOR('',#129,1.);
#129=DIRECTION('',(8.501005700306E-15,1.,0.));
#130=PCURVE('',#58,#131);
#131=DEFINITIONAL_REPRESENTATION('',(#132),#66);
#132=LINE('',#133,#134);
#133=CARTESIAN_POINT('',(7.500000000016E+05,1.515015595734E+06));
#134=VECTOR('',#135,1.);
#135=DIRECTION('',(8.501005700306E-15,1.));
#136=ORIENTED_EDGE('',*,*,#137,.T.);
#137=EDGE_CURVE('',#123,#138,#140,.T.);
#138=VERTEX_POINT('',#139);
#139=CARTESIAN_POINT('',(-7.499999999986E+05,1.075E+07,0.));
#140=SURFACE_CURVE('',#141,(#145),.PCURVE_S1.);
#141=LINE('',#142,#143);
#142=CARTESIAN_POINT('',(1.5E+07,1.075E+07,0.));
#143=VECTOR('',#144,1.);
#144=DIRECTION('',(-1.,0.,0.));
#145=PCURVE('',#58,#146);
#146=DEFINITIONAL_REPRESENTATION('',(#147),#66);
#147=LINE('',#148,#149);
#148=CARTESIAN_POINT('',(1.5E+07,4.753871324264E+06));
#149=VECTOR('',#150,1.);
#150=DIRECTION('',(-1.,0.));
#151=ORIENTED_EDGE('',*,*,#152,.T.);
#152=EDGE_CURVE('',#138,#153,#155,.T.);
#153=VERTEX_POINT('',#154);
#154=CARTESIAN_POINT('',(-7.49999999999E+05,7.511144271469E+06,0.));
#155=SURFACE_CURVE('',#156,(#160),.PCURVE_S1.);
#156=LINE('',#157,#158);
#157=CARTESIAN_POINT('',(-7.499999999981E+05,1.075E+07,0.));
#158=VECTOR('',#159,1.);
#159=DIRECTION('',(-1.103759611088E-14,-1.,0.));
#160=PCURVE('',#58,#161);
#161=DEFINITIONAL_REPRESENTATION('',(#162),#66);
#162=LINE('',#163,#164);
#163=CARTESIAN_POINT('',(-7.499999999984E+05,4.753871324264E+06));
#164=VECTOR('',#165,1.);
#165=DIRECTION('',(-1.103759611088E-14,-1.));
#166=ORIENTED_EDGE('',*,*,#167,.F.);
#167=EDGE_CURVE('',#168,#153,#170,.T.);
#168=VERTEX_POINT('',#169);
#169=CARTESIAN_POINT('',(-8.49999999999E+05,7.411144271469E+06,0.));
#170=SURFACE_CURVE('',#171,(#174),.PCURVE_S1.);
#171=CIRCLE('',#172,1.E+05);
#172=AXIS2_PLACEMENT_3D('',#173,#13,#56);
#173=CARTESIAN_POINT('',(-8.499999999982E+05,7.511144271469E+06,0.));
#174=PCURVE('',#58,#175);
#175=DEFINITIONAL_REPRESENTATION('',(#176),#66);
#176=CIRCLE('',#177,1.E+05);
#177=AXIS2_PLACEMENT_2D('',#178,#65);
#178=CARTESIAN_POINT('',(-8.499999999984E+05,1.515015595734E+06));
#179=ORIENTED_EDGE('',*,*,#180,.T.);
#180=EDGE_CURVE('',#168,#181,#183,.T.);
#181=VERTEX_POINT('',#182);
#182=CARTESIAN_POINT('',(-1.025E+07,7.411144271469E+06,0.));
#183=SURFACE_CURVE('',#184,(#188),.PCURVE_S1.);
#184=LINE('',#185,#186);
#185=CARTESIAN_POINT('',(-8.499999999982E+05,7.411144271469E+06,0.));
#186=VECTOR('',#187,1.);
#187=DIRECTION('',(-1.,-1.700767186659E-15,0.));
#188=PCURVE('',#58,#189);
#189=DEFINITIONAL_REPRESENTATION('',(#190),#66);
#190=LINE('',#191,#192);
#191=CARTESIAN_POINT('',(-8.499999999984E+05,1.415015595734E+06));
#192=VECTOR('',#193,1.);
#193=DIRECTION('',(-1.,-1.700767186659E-15));
#194=ORIENTED_EDGE('',*,*,#195,.T.);
#195=EDGE_CURVE('',#181,#196,#198,.T.);
#196=VERTEX_POINT('',#197);
#197=CARTESIAN_POINT('',(-1.15E+07,6.161144271469E+06,0.));
#198=SURFACE_CURVE('',#199,(#202),.PCURVE_S1.);
#199=CIRCLE('',#200,1.25E+06);
#200=AXIS2_PLACEMENT_3D('',#201,#13,#56);
#201=CARTESIAN_POINT('',(-1.025E+07,6.161144271469E+06,0.));
#202=PCURVE('',#58,#203);
#203=DEFINITIONAL_REPRESENTATION('',(#204),#66);
#204=CIRCLE('',#205,1.25E+06);
#205=AXIS2_PLACEMENT_2D('',#206,#65);
#206=CARTESIAN_POINT('',(-1.025E+07,1.650155957339E+05));
#207=ORIENTED_EDGE('',*,*,#208,.T.);
#208=EDGE_CURVE('',#196,#209,#211,.T.);
#209=VERTEX_POINT('',#210);
#210=CARTESIAN_POINT('',(-1.15E+07,2.499999999999E+06,0.));
#211=SURFACE_CURVE('',#212,(#215),.PCURVE_S1.);
#212=LINE('',#197,#213);
#213=VECTOR('',#214,1.);
#214=DIRECTION('',(0.,-1.,0.));
#215=PCURVE('',#58,#216);
#216=DEFINITIONAL_REPRESENTATION('',(#217),#66);
#217=LINE('',#218,#219);
#218=CARTESIAN_POINT('',(-1.15E+07,1.650155957339E+05));
#219=VECTOR('',#220,1.);
#220=DIRECTION('',(0.,-1.));
#221=ORIENTED_EDGE('',*,*,#222,.T.);
#222=EDGE_CURVE('',#209,#223,#225,.T.);
#223=VERTEX_POINT('',#224);
#224=CARTESIAN_POINT('',(-1.025E+07,1.249999999999E+06,0.));
#225=SURFACE_CURVE('',#226,(#229),.PCURVE_S1.);
#226=CIRCLE('',#227,1.25E+06);
#227=AXIS2_PLACEMENT_3D('',#228,#13,#56);
#228=CARTESIAN_POINT('',(-1.025E+07,2.499999999999E+06,0.));
#229=PCURVE('',#58,#230);
#230=DEFINITIONAL_REPRESENTATION('',(#231),#66);
#231=CIRCLE('',#232,1.25E+06);
#232=AXIS2_PLACEMENT_2D('',#233,#65);
#233=CARTESIAN_POINT('',(-1.025E+07,-3.496128675736E+06));
#234=ORIENTED_EDGE('',*,*,#235,.T.);
#235=EDGE_CURVE('',#223,#236,#238,.T.);
#236=VERTEX_POINT('',#237);
#237=CARTESIAN_POINT('',(-1.7E+06,1.249999999999E+06,0.));
#238=SURFACE_CURVE('',#239,(#241),.PCURVE_S1.);
#239=LINE('',#224,#240);
#240=VECTOR('',#56,1.);
#241=PCURVE('',#58,#242);
#242=DEFINITIONAL_REPRESENTATION('',(#243),#66);
#243=LINE('',#244,#245);
#244=CARTESIAN_POINT('',(-1.025E+07,-4.746128675736E+06));
#245=VECTOR('',#65,1.);
#246=ORIENTED_EDGE('',*,*,#247,.T.);
#247=EDGE_CURVE('',#236,#248,#250,.T.);
#248=VERTEX_POINT('',#249);
#249=CARTESIAN_POINT('',(-1.5E+06,1.449999999999E+06,0.));
#250=SURFACE_CURVE('',#251,(#254),.PCURVE_S1.);
#251=CIRCLE('',#252,2.E+05);
#252=AXIS2_PLACEMENT_3D('',#253,#13,#56);
#253=CARTESIAN_POINT('',(-1.7E+06,1.449999999999E+06,0.));
#254=PCURVE('',#58,#255);
#255=DEFINITIONAL_REPRESENTATION('',(#256),#66);
#256=CIRCLE('',#257,2.E+05);
#257=AXIS2_PLACEMENT_2D('',#258,#65);
#258=CARTESIAN_POINT('',(-1.7E+06,-4.546128675736E+06));
#259=ORIENTED_EDGE('',*,*,#260,.F.);
#260=EDGE_CURVE('',#261,#248,#263,.T.);
#261=VERTEX_POINT('',#262);
#262=CARTESIAN_POINT('',(-1.5E+06,1.549999999999E+06,0.));
#263=SURFACE_CURVE('',#264,(#265),.PCURVE_S1.);
#264=LINE('',#262,#213);
#265=PCURVE('',#58,#266);
#266=DEFINITIONAL_REPRESENTATION('',(#267),#66);
#267=LINE('',#268,#219);
#268=CARTESIAN_POINT('',(-1.5E+06,-4.446128675736E+06));
#269=ORIENTED_EDGE('',*,*,#270,.T.);
#270=EDGE_CURVE('',#261,#271,#273,.T.);
#271=VERTEX_POINT('',#272);
#272=CARTESIAN_POINT('',(-1.7E+06,1.749999999999E+06,0.));
#273=SURFACE_CURVE('',#274,(#277),.PCURVE_S1.);
#274=CIRCLE('',#275,2.E+05);
#275=AXIS2_PLACEMENT_3D('',#276,#13,#56);
#276=CARTESIAN_POINT('',(-1.7E+06,1.549999999999E+06,0.));
#277=PCURVE('',#58,#278);
#278=DEFINITIONAL_REPRESENTATION('',(#279),#66);
#279=CIRCLE('',#280,2.E+05);
#280=AXIS2_PLACEMENT_2D('',#281,#65);
#281=CARTESIAN_POINT('',(-1.7E+06,-4.446128675736E+06));
#282=ORIENTED_EDGE('',*,*,#283,.F.);
#283=EDGE_CURVE('',#284,#271,#286,.T.);
#284=VERTEX_POINT('',#285);
#285=CARTESIAN_POINT('',(-1.025E+07,1.749999999999E+06,0.));
#286=SURFACE_CURVE('',#287,(#290),.PCURVE_S1.);
#287=LINE('',#285,#288);
#288=VECTOR('',#289,1.);
#289=DIRECTION('',(1.,9.349246523159E-16,0.));
#290=PCURVE('',#58,#291);
#291=DEFINITIONAL_REPRESENTATION('',(#292),#66);
#292=LINE('',#293,#294);
#293=CARTESIAN_POINT('',(-1.025E+07,-4.246128675736E+06));
#294=VECTOR('',#295,1.);
#295=DIRECTION('',(1.,9.349246523159E-16));
#296=ORIENTED_EDGE('',*,*,#297,.F.);
#297=EDGE_CURVE('',#298,#284,#300,.T.);
#298=VERTEX_POINT('',#299);
#299=CARTESIAN_POINT('',(-1.1E+07,2.499999999999E+06,0.));
#300=SURFACE_CURVE('',#301,(#302),.PCURVE_S1.);
#301=CIRCLE('',#227,7.5E+05);
#302=PCURVE('',#58,#303);
#303=DEFINITIONAL_REPRESENTATION('',(#304),#66);
#304=CIRCLE('',#232,7.5E+05);
#305=ORIENTED_EDGE('',*,*,#306,.F.);
#306=EDGE_CURVE('',#307,#298,#309,.T.);
#307=VERTEX_POINT('',#308);
#308=CARTESIAN_POINT('',(-1.1E+07,4.143072135734E+06,0.));
#309=SURFACE_CURVE('',#310,(#313),.PCURVE_S1.);
#310=LINE('',#308,#311);
#311=VECTOR('',#312,1.);
#312=DIRECTION('',(6.486715223634E-15,-1.,0.));
#313=PCURVE('',#58,#314);
#314=DEFINITIONAL_REPRESENTATION('',(#315),#66);
#315=LINE('',#316,#317);
#316=CARTESIAN_POINT('',(-1.1E+07,-1.853056540001E+06));
#317=VECTOR('',#318,1.);
#318=DIRECTION('',(6.486715223634E-15,-1.));
#319=ORIENTED_EDGE('',*,*,#320,.F.);
#320=EDGE_CURVE('',#321,#307,#323,.T.);
#321=VERTEX_POINT('',#322);
#322=CARTESIAN_POINT('',(-1.0875E+07,4.268072135734E+06,0.));
#323=SURFACE_CURVE('',#324,(#327),.PCURVE_S1.);
#324=CIRCLE('',#325,1.25E+05);
#325=AXIS2_PLACEMENT_3D('',#326,#13,#56);
#326=CARTESIAN_POINT('',(-1.0875E+07,4.143072135734E+06,0.));
#327=PCURVE('',#58,#328);
#328=DEFINITIONAL_REPRESENTATION('',(#329),#66);
#329=CIRCLE('',#330,1.25E+05);
#330=AXIS2_PLACEMENT_2D('',#331,#65);
#331=CARTESIAN_POINT('',(-1.0875E+07,-1.853056540001E+06));
#332=ORIENTED_EDGE('',*,*,#333,.F.);
#333=EDGE_CURVE('',#334,#321,#336,.T.);
#334=VERTEX_POINT('',#335);
#335=CARTESIAN_POINT('',(-1.075E+07,4.268072135734E+06,0.));
#336=SURFACE_CURVE('',#337,(#339),.PCURVE_S1.);
#337=LINE('',#338,#143);
#338=CARTESIAN_POINT('',(-2.643072135735E+06,4.268072135734E+06,0.));
#339=PCURVE('',#58,#340);
#340=DEFINITIONAL_REPRESENTATION('',(#341),#66);
#341=LINE('',#342,#149);
#342=CARTESIAN_POINT('',(-2.643072135735E+06,-1.728056540001E+06));
#343=ORIENTED_EDGE('',*,*,#344,.F.);
#344=EDGE_CURVE('',#345,#334,#347,.T.);
#345=VERTEX_POINT('',#346);
#346=CARTESIAN_POINT('',(-1.075E+07,4.393072135734E+06,0.));
#347=SURFACE_CURVE('',#348,(#350),.PCURVE_S1.);
#348=LINE('',#349,#213);
#349=CARTESIAN_POINT('',(-1.075E+07,6.161144271469E+06,0.));
#350=PCURVE('',#58,#351);
#351=DEFINITIONAL_REPRESENTATION('',(#352),#66);
#352=LINE('',#353,#219);
#353=CARTESIAN_POINT('',(-1.075E+07,1.650155957339E+05));
#354=ORIENTED_EDGE('',*,*,#355,.F.);
#355=EDGE_CURVE('',#356,#345,#358,.T.);
#356=VERTEX_POINT('',#357);
#357=CARTESIAN_POINT('',(-1.0875E+07,4.393072135734E+06,0.));
#358=SURFACE_CURVE('',#359,(#360),.PCURVE_S1.);
#359=LINE('',#357,#240);
#360=PCURVE('',#58,#361);
#361=DEFINITIONAL_REPRESENTATION('',(#362),#66);
#362=LINE('',#363,#245);
#363=CARTESIAN_POINT('',(-1.0875E+07,-1.603056540001E+06));
#364=ORIENTED_EDGE('',*,*,#365,.F.);
#365=EDGE_CURVE('',#366,#356,#368,.T.);
#366=VERTEX_POINT('',#367);
#367=CARTESIAN_POINT('',(-1.1E+07,4.518072135734E+06,0.));
#368=SURFACE_CURVE('',#369,(#372),.PCURVE_S1.);
#369=CIRCLE('',#370,1.25E+05);
#370=AXIS2_PLACEMENT_3D('',#371,#13,#56);
#371=CARTESIAN_POINT('',(-1.0875E+07,4.518072135734E+06,0.));
#372=PCURVE('',#58,#373);
#373=DEFINITIONAL_REPRESENTATION('',(#374),#66);
#374=CIRCLE('',#375,1.25E+05);
#375=AXIS2_PLACEMENT_2D('',#376,#65);
#376=CARTESIAN_POINT('',(-1.0875E+07,-1.478056540001E+06));
#377=ORIENTED_EDGE('',*,*,#378,.F.);
#378=EDGE_CURVE('',#379,#366,#381,.T.);
#379=VERTEX_POINT('',#380);
#380=CARTESIAN_POINT('',(-1.1E+07,6.161144271469E+06,0.));
#381=SURFACE_CURVE('',#382,(#383),.PCURVE_S1.);
#382=LINE('',#380,#311);
#383=PCURVE('',#58,#384);
#384=DEFINITIONAL_REPRESENTATION('',(#385),#66);
#385=LINE('',#386,#317);
#386=CARTESIAN_POINT('',(-1.1E+07,1.650155957339E+05));
#387=ORIENTED_EDGE('',*,*,#388,.F.);
#388=EDGE_CURVE('',#389,#379,#391,.T.);
#389=VERTEX_POINT('',#390);
#390=CARTESIAN_POINT('',(-1.025E+07,6.911144271469E+06,0.));
#391=SURFACE_CURVE('',#392,(#393),.PCURVE_S1.);
#392=CIRCLE('',#200,7.5E+05);
#393=PCURVE('',#58,#394);
#394=DEFINITIONAL_REPRESENTATION('',(#395),#66);
#395=CIRCLE('',#205,7.5E+05);
#396=ORIENTED_EDGE('',*,*,#397,.F.);
#397=EDGE_CURVE('',#398,#389,#400,.T.);
#398=VERTEX_POINT('',#399);
#399=CARTESIAN_POINT('',(-1.875E+05,6.911144271469E+06,0.));
#400=SURFACE_CURVE('',#401,(#404),.PCURVE_S1.);
#401=LINE('',#399,#402);
#402=VECTOR('',#403,1.);
#403=DIRECTION('',(-1.,-7.061294268423E-16,0.));
#404=PCURVE('',#58,#405);
#405=DEFINITIONAL_REPRESENTATION('',(#406),#66);
#406=LINE('',#407,#408);
#407=CARTESIAN_POINT('',(-1.875000000003E+05,9.150155957339E+05));
#408=VECTOR('',#409,1.);
#409=DIRECTION('',(-1.,-7.061294268423E-16));
#410=ORIENTED_EDGE('',*,*,#411,.F.);
#411=EDGE_CURVE('',#412,#398,#414,.T.);
#412=VERTEX_POINT('',#413);
#413=CARTESIAN_POINT('',(-6.250000000001E+04,6.786144271469E+06,0.));
#414=SURFACE_CURVE('',#415,(#418),.PCURVE_S1.);
#415=CIRCLE('',#416,1.25E+05);
#416=AXIS2_PLACEMENT_3D('',#417,#13,#56);
#417=CARTESIAN_POINT('',(-1.875E+05,6.786144271469E+06,0.));
#418=PCURVE('',#58,#419);
#419=DEFINITIONAL_REPRESENTATION('',(#420),#66);
#420=CIRCLE('',#421,1.25E+05);
#421=AXIS2_PLACEMENT_2D('',#422,#65);
#422=CARTESIAN_POINT('',(-1.875000000003E+05,7.900155957339E+05));
#423=ORIENTED_EDGE('',*,*,#424,.F.);
#424=EDGE_CURVE('',#425,#412,#427,.T.);
#425=VERTEX_POINT('',#426);
#426=CARTESIAN_POINT('',(-6.250000000001E+04,6.661144271469E+06,0.));
#427=SURFACE_CURVE('',#428,(#432),.PCURVE_S1.);
#428=LINE('',#429,#430);
#429=CARTESIAN_POINT('',(-6.25E+04,3.112499999999E+06,0.));
#430=VECTOR('',#431,1.);
#431=DIRECTION('',(-1.934163144968E-15,1.,0.));
#432=PCURVE('',#58,#433);
#433=DEFINITIONAL_REPRESENTATION('',(#434),#66);
#434=LINE('',#435,#436);
#435=CARTESIAN_POINT('',(-6.250000000026E+04,-2.883628675736E+06));
#436=VECTOR('',#437,1.);
#437=DIRECTION('',(-1.934163144968E-15,1.));
#438=ORIENTED_EDGE('',*,*,#439,.F.);
#439=EDGE_CURVE('',#440,#425,#442,.T.);
#440=VERTEX_POINT('',#441);
#441=CARTESIAN_POINT('',(6.249999999999E+04,6.661144271469E+06,0.));
#442=SURFACE_CURVE('',#443,(#445),.PCURVE_S1.);
#443=LINE('',#444,#143);
#444=CARTESIAN_POINT('',(1.025E+07,6.661144271469E+06,0.));
#445=PCURVE('',#58,#446);
#446=DEFINITIONAL_REPRESENTATION('',(#447),#66);
#447=LINE('',#448,#149);
#448=CARTESIAN_POINT('',(1.025E+07,6.650155957339E+05));
#449=ORIENTED_EDGE('',*,*,#450,.F.);
#450=EDGE_CURVE('',#451,#440,#453,.T.);
#451=VERTEX_POINT('',#452);
#452=CARTESIAN_POINT('',(6.249999999999E+04,6.786144271469E+06,0.));
#453=SURFACE_CURVE('',#454,(#457),.PCURVE_S1.);
#454=LINE('',#452,#455);
#455=VECTOR('',#456,1.);
#456=DIRECTION('',(1.932274313772E-15,-1.,0.));
#457=PCURVE('',#58,#458);
#458=DEFINITIONAL_REPRESENTATION('',(#459),#66);
#459=LINE('',#460,#461);
#460=CARTESIAN_POINT('',(6.249999999973E+04,7.900155957339E+05));
#461=VECTOR('',#462,1.);
#462=DIRECTION('',(1.932274313772E-15,-1.));
#463=ORIENTED_EDGE('',*,*,#464,.F.);
#464=EDGE_CURVE('',#465,#451,#467,.T.);
#465=VERTEX_POINT('',#466);
#466=CARTESIAN_POINT('',(1.875E+05,6.911144271469E+06,0.));
#467=SURFACE_CURVE('',#468,(#471),.PCURVE_S1.);
#468=CIRCLE('',#469,1.25E+05);
#469=AXIS2_PLACEMENT_3D('',#470,#13,#56);
#470=CARTESIAN_POINT('',(1.875E+05,6.786144271469E+06,0.));
#471=PCURVE('',#58,#472);
#472=DEFINITIONAL_REPRESENTATION('',(#473),#66);
#473=CIRCLE('',#474,1.25E+05);
#474=AXIS2_PLACEMENT_2D('',#475,#65);
#475=CARTESIAN_POINT('',(1.874999999997E+05,7.900155957339E+05));
#476=ORIENTED_EDGE('',*,*,#477,.F.);
#477=EDGE_CURVE('',#478,#465,#480,.T.);
#478=VERTEX_POINT('',#479);
#479=CARTESIAN_POINT('',(1.025E+07,6.911144271469E+06,0.));
#480=SURFACE_CURVE('',#481,(#482),.PCURVE_S1.);
#481=LINE('',#479,#402);
#482=PCURVE('',#58,#483);
#483=DEFINITIONAL_REPRESENTATION('',(#484),#66);
#484=LINE('',#485,#408);
#485=CARTESIAN_POINT('',(1.025E+07,9.150155957339E+05));
#486=ORIENTED_EDGE('',*,*,#487,.F.);
#487=EDGE_CURVE('',#488,#478,#490,.T.);
#488=VERTEX_POINT('',#489);
#489=CARTESIAN_POINT('',(1.1E+07,6.161144271469E+06,0.));
#490=SURFACE_CURVE('',#491,(#492),.PCURVE_S1.);
#491=CIRCLE('',#87,7.5E+05);
#492=PCURVE('',#58,#493);
#493=DEFINITIONAL_REPRESENTATION('',(#494),#66);
#494=CIRCLE('',#92,7.5E+05);
#495=ORIENTED_EDGE('',*,*,#496,.F.);
#496=EDGE_CURVE('',#497,#488,#499,.T.);
#497=VERTEX_POINT('',#498);
#498=CARTESIAN_POINT('',(1.1E+07,4.518072135734E+06,0.));
#499=SURFACE_CURVE('',#500,(#503),.PCURVE_S1.);
#500=LINE('',#498,#501);
#501=VECTOR('',#502,1.);
#502=DIRECTION('',(-6.486715223634E-15,1.,0.));
#503=PCURVE('',#58,#504);
#504=DEFINITIONAL_REPRESENTATION('',(#505),#66);
#505=LINE('',#506,#507);
#506=CARTESIAN_POINT('',(1.1E+07,-1.478056540001E+06));
#507=VECTOR('',#508,1.);
#508=DIRECTION('',(-6.486715223634E-15,1.));
#509=ORIENTED_EDGE('',*,*,#510,.F.);
#510=EDGE_CURVE('',#511,#497,#513,.T.);
#511=VERTEX_POINT('',#512);
#512=CARTESIAN_POINT('',(1.0875E+07,4.393072135734E+06,0.));
#513=SURFACE_CURVE('',#514,(#517),.PCURVE_S1.);
#514=CIRCLE('',#515,1.25E+05);
#515=AXIS2_PLACEMENT_3D('',#516,#13,#56);
#516=CARTESIAN_POINT('',(1.0875E+07,4.518072135734E+06,0.));
#517=PCURVE('',#58,#518);
#518=DEFINITIONAL_REPRESENTATION('',(#519),#66);
#519=CIRCLE('',#520,1.25E+05);
#520=AXIS2_PLACEMENT_2D('',#521,#65);
#521=CARTESIAN_POINT('',(1.0875E+07,-1.478056540001E+06));
#522=ORIENTED_EDGE('',*,*,#523,.F.);
#523=EDGE_CURVE('',#524,#511,#526,.T.);
#524=VERTEX_POINT('',#525);
#525=CARTESIAN_POINT('',(1.075E+07,4.393072135734E+06,0.));
#526=SURFACE_CURVE('',#527,(#529),.PCURVE_S1.);
#527=LINE('',#528,#240);
#528=CARTESIAN_POINT('',(2.643072135735E+06,4.393072135734E+06,0.));
#529=PCURVE('',#58,#530);
#530=DEFINITIONAL_REPRESENTATION('',(#531),#66);
#531=LINE('',#532,#245);
#532=CARTESIAN_POINT('',(2.643072135735E+06,-1.603056540001E+06));
#533=ORIENTED_EDGE('',*,*,#534,.F.);
#534=EDGE_CURVE('',#535,#524,#537,.T.);
#535=VERTEX_POINT('',#536);
#536=CARTESIAN_POINT('',(1.075E+07,4.268072135734E+06,0.));
#537=SURFACE_CURVE('',#538,(#540),.PCURVE_S1.);
#538=LINE('',#539,#73);
#539=CARTESIAN_POINT('',(1.075E+07,2.499999999999E+06,0.));
#540=PCURVE('',#58,#541);
#541=DEFINITIONAL_REPRESENTATION('',(#542),#66);
#542=LINE('',#543,#79);
#543=CARTESIAN_POINT('',(1.075E+07,-3.496128675736E+06));
#544=ORIENTED_EDGE('',*,*,#545,.F.);
#545=EDGE_CURVE('',#546,#535,#548,.T.);
#546=VERTEX_POINT('',#547);
#547=CARTESIAN_POINT('',(1.0875E+07,4.268072135734E+06,0.));
#548=SURFACE_CURVE('',#549,(#550),.PCURVE_S1.);
#549=LINE('',#547,#143);
#550=PCURVE('',#58,#551);
#551=DEFINITIONAL_REPRESENTATION('',(#552),#66);
#552=LINE('',#553,#149);
#553=CARTESIAN_POINT('',(1.0875E+07,-1.728056540001E+06));
#554=ORIENTED_EDGE('',*,*,#555,.F.);
#555=EDGE_CURVE('',#556,#546,#558,.T.);
#556=VERTEX_POINT('',#557);
#557=CARTESIAN_POINT('',(1.1E+07,4.143072135734E+06,0.));
#558=SURFACE_CURVE('',#559,(#562),.PCURVE_S1.);
#559=CIRCLE('',#560,1.25E+05);
#560=AXIS2_PLACEMENT_3D('',#561,#13,#56);
#561=CARTESIAN_POINT('',(1.0875E+07,4.143072135734E+06,0.));
#562=PCURVE('',#58,#563);
#563=DEFINITIONAL_REPRESENTATION('',(#564),#66);
#564=CIRCLE('',#565,1.25E+05);
#565=AXIS2_PLACEMENT_2D('',#566,#65);
#566=CARTESIAN_POINT('',(1.0875E+07,-1.853056540001E+06));
#567=ORIENTED_EDGE('',*,*,#568,.F.);
#568=EDGE_CURVE('',#569,#556,#571,.T.);
#569=VERTEX_POINT('',#570);
#570=CARTESIAN_POINT('',(1.1E+07,2.499999999999E+06,0.));
#571=SURFACE_CURVE('',#572,(#573),.PCURVE_S1.);
#572=LINE('',#570,#501);
#573=PCURVE('',#58,#574);
#574=DEFINITIONAL_REPRESENTATION('',(#575),#66);
#575=LINE('',#576,#507);
#576=CARTESIAN_POINT('',(1.1E+07,-3.496128675736E+06));
#577=ORIENTED_EDGE('',*,*,#578,.F.);
#578=EDGE_CURVE('',#579,#569,#581,.T.);
#579=VERTEX_POINT('',#580);
#580=CARTESIAN_POINT('',(1.025E+07,1.749999999999E+06,0.));
#581=SURFACE_CURVE('',#582,(#583),.PCURVE_S1.);
#582=CIRCLE('',#54,7.5E+05);
#583=PCURVE('',#58,#584);
#584=DEFINITIONAL_REPRESENTATION('',(#585),#66);
#585=CIRCLE('',#63,7.5E+05);
#586=ORIENTED_EDGE('',*,*,#587,.F.);
#587=EDGE_CURVE('',#588,#579,#590,.T.);
#588=VERTEX_POINT('',#589);
#589=CARTESIAN_POINT('',(1.7E+06,1.749999999999E+06,0.));
#590=SURFACE_CURVE('',#591,(#594),.PCURVE_S1.);
#591=LINE('',#589,#592);
#592=VECTOR('',#593,1.);
#593=DIRECTION('',(1.,1.03880516924E-15,0.));
#594=PCURVE('',#58,#595);
#595=DEFINITIONAL_REPRESENTATION('',(#596),#66);
#596=LINE('',#597,#598);
#597=CARTESIAN_POINT('',(1.7E+06,-4.246128675736E+06));
#598=VECTOR('',#599,1.);
#599=DIRECTION('',(1.,1.03880516924E-15));
#600=ORIENTED_EDGE('',*,*,#601,.T.);
#601=EDGE_CURVE('',#588,#602,#604,.T.);
#602=VERTEX_POINT('',#603);
#603=CARTESIAN_POINT('',(1.5E+06,1.549999999999E+06,0.));
#604=SURFACE_CURVE('',#605,(#608),.PCURVE_S1.);
#605=CIRCLE('',#606,2.E+05);
#606=AXIS2_PLACEMENT_3D('',#607,#13,#56);
#607=CARTESIAN_POINT('',(1.7E+06,1.549999999999E+06,0.));
#608=PCURVE('',#58,#609);
#609=DEFINITIONAL_REPRESENTATION('',(#610),#66);
#610=CIRCLE('',#611,2.E+05);
#611=AXIS2_PLACEMENT_2D('',#612,#65);
#612=CARTESIAN_POINT('',(1.7E+06,-4.446128675736E+06));
#613=ORIENTED_EDGE('',*,*,#614,.F.);
#614=EDGE_CURVE('',#615,#602,#617,.T.);
#615=VERTEX_POINT('',#616);
#616=CARTESIAN_POINT('',(1.5E+06,1.449999999999E+06,0.));
#617=SURFACE_CURVE('',#618,(#619),.PCURVE_S1.);
#618=LINE('',#616,#73);
#619=PCURVE('',#58,#620);
#620=DEFINITIONAL_REPRESENTATION('',(#621),#66);
#621=LINE('',#622,#79);
#622=CARTESIAN_POINT('',(1.5E+06,-4.546128675736E+06));
#623=ORIENTED_EDGE('',*,*,#624,.T.);
#624=EDGE_CURVE('',#615,#625,#627,.T.);
#625=VERTEX_POINT('',#626);
#626=CARTESIAN_POINT('',(1.7E+06,1.249999999999E+06,0.));
#627=SURFACE_CURVE('',#628,(#631),.PCURVE_S1.);
#628=CIRCLE('',#629,2.E+05);
#629=AXIS2_PLACEMENT_3D('',#630,#13,#56);
#630=CARTESIAN_POINT('',(1.7E+06,1.449999999999E+06,0.));
#631=PCURVE('',#58,#632);
#632=DEFINITIONAL_REPRESENTATION('',(#633),#66);
#633=CIRCLE('',#634,2.E+05);
#634=AXIS2_PLACEMENT_2D('',#635,#65);
#635=CARTESIAN_POINT('',(1.7E+06,-4.546128675736E+06));
#636=ORIENTED_EDGE('',*,*,#637,.T.);
#637=EDGE_CURVE('',#625,#48,#238,.T.);
#638=SHELL_BASED_SURFACE_MODEL('',(#639));
#639=OPEN_SHELL('',(#640));
#640=ADVANCED_FACE('',(#641),#58,.T.);
#641=FACE_BOUND('',#642,.T.);
#642=EDGE_LOOP('',(#643,#645,#646,#647,#648,#649,#650,#651,#652,#653    ,#656,#665,#675,#684,#686,#687,#688,#689,#690,#691,#692,    #693));
#643=ORIENTED_EDGE('',*,*,#644,.T.);
#644=EDGE_CURVE('',#236,#625,#238,.T.);
#645=ORIENTED_EDGE('',*,*,#624,.F.);
#646=ORIENTED_EDGE('',*,*,#614,.T.);
#647=ORIENTED_EDGE('',*,*,#601,.F.);
#648=ORIENTED_EDGE('',*,*,#587,.T.);
#649=ORIENTED_EDGE('',*,*,#578,.T.);
#650=ORIENTED_EDGE('',*,*,#568,.T.);
#651=ORIENTED_EDGE('',*,*,#555,.T.);
#652=ORIENTED_EDGE('',*,*,#545,.T.);
#653=ORIENTED_EDGE('',*,*,#654,.F.);
#654=EDGE_CURVE('',#655,#535,#537,.T.);
#655=VERTEX_POINT('',#539);
#656=ORIENTED_EDGE('',*,*,#657,.F.);
#657=EDGE_CURVE('',#658,#655,#660,.T.);
#658=VERTEX_POINT('',#659);
#659=CARTESIAN_POINT('',(1.025E+07,1.999999999999E+06,0.));
#660=SURFACE_CURVE('',#661,(#662),.PCURVE_S1.);
#661=CIRCLE('',#54,5.E+05);
#662=PCURVE('',#58,#663);
#663=DEFINITIONAL_REPRESENTATION('',(#664),#66);
#664=CIRCLE('',#63,5.E+05);
#665=ORIENTED_EDGE('',*,*,#666,.F.);
#666=EDGE_CURVE('',#667,#658,#669,.T.);
#667=VERTEX_POINT('',#668);
#668=CARTESIAN_POINT('',(-1.025E+07,1.999999999999E+06,0.));
#669=SURFACE_CURVE('',#670,(#671),.PCURVE_S1.);
#670=LINE('',#668,#240);
#671=PCURVE('',#58,#672);
#672=DEFINITIONAL_REPRESENTATION('',(#673),#66);
#673=LINE('',#674,#245);
#674=CARTESIAN_POINT('',(-1.025E+07,-3.996128675736E+06));
#675=ORIENTED_EDGE('',*,*,#676,.F.);
#676=EDGE_CURVE('',#677,#667,#679,.T.);
#677=VERTEX_POINT('',#678);
#678=CARTESIAN_POINT('',(-1.075E+07,2.499999999999E+06,0.));
#679=SURFACE_CURVE('',#680,(#681),.PCURVE_S1.);
#680=CIRCLE('',#227,5.E+05);
#681=PCURVE('',#58,#682);
#682=DEFINITIONAL_REPRESENTATION('',(#683),#66);
#683=CIRCLE('',#232,5.E+05);
#684=ORIENTED_EDGE('',*,*,#685,.F.);
#685=EDGE_CURVE('',#334,#677,#347,.T.);
#686=ORIENTED_EDGE('',*,*,#333,.T.);
#687=ORIENTED_EDGE('',*,*,#320,.T.);
#688=ORIENTED_EDGE('',*,*,#306,.T.);
#689=ORIENTED_EDGE('',*,*,#297,.T.);
#690=ORIENTED_EDGE('',*,*,#283,.T.);
#691=ORIENTED_EDGE('',*,*,#270,.F.);
#692=ORIENTED_EDGE('',*,*,#260,.T.);
#693=ORIENTED_EDGE('',*,*,#247,.F.);
#694=SHELL_BASED_SURFACE_MODEL('',(#695));
#695=OPEN_SHELL('',(#696));
#696=ADVANCED_FACE('',(#697),#58,.T.);
#697=FACE_BOUND('',#698,.T.);
#698=EDGE_LOOP('',(#699,#703,#704,#707));
#699=ORIENTED_EDGE('',*,*,#700,.F.);
#700=EDGE_CURVE('',#535,#701,#548,.T.);
#701=VERTEX_POINT('',#702);
#702=CARTESIAN_POINT('',(2.643072135735E+06,4.268072135734E+06,0.));
#703=ORIENTED_EDGE('',*,*,#534,.T.);
#704=ORIENTED_EDGE('',*,*,#705,.F.);
#705=EDGE_CURVE('',#706,#524,#526,.T.);
#706=VERTEX_POINT('',#528);
#707=ORIENTED_EDGE('',*,*,#708,.T.);
#708=EDGE_CURVE('',#706,#701,#709,.T.);
#709=SURFACE_CURVE('',#710,(#713),.PCURVE_S1.);
#710=CIRCLE('',#711,6.25E+04);
#711=AXIS2_PLACEMENT_3D('',#712,#13,#56);
#712=CARTESIAN_POINT('',(2.643072135735E+06,4.330572135734E+06,0.));
#713=PCURVE('',#58,#714);
#714=DEFINITIONAL_REPRESENTATION('',(#715),#66);
#715=CIRCLE('',#716,6.25E+04);
#716=AXIS2_PLACEMENT_2D('',#717,#65);
#717=CARTESIAN_POINT('',(2.643072135735E+06,-1.665556540001E+06));
#718=SHELL_BASED_SURFACE_MODEL('',(#719));
#719=OPEN_SHELL('',(#720));
#720=ADVANCED_FACE('',(#721),#58,.T.);
#721=FACE_BOUND('',#722,.T.);
#722=EDGE_LOOP('',(#723,#724,#725,#726,#727,#731,#739,#741,    #745,#757,#759,#763,#771,#773,#777,#789,#791,#792,#793,    #794));
#723=ORIENTED_EDGE('',*,*,#654,.T.);
#724=ORIENTED_EDGE('',*,*,#700,.T.);
#725=ORIENTED_EDGE('',*,*,#708,.F.);
#726=ORIENTED_EDGE('',*,*,#705,.T.);
#727=ORIENTED_EDGE('',*,*,#728,.T.);
#728=EDGE_CURVE('',#524,#729,#537,.T.);
#729=VERTEX_POINT('',#730);
#730=CARTESIAN_POINT('',(1.075E+07,6.161144271469E+06,0.));
#731=ORIENTED_EDGE('',*,*,#732,.T.);
#732=EDGE_CURVE('',#729,#733,#734,.T.);
#733=VERTEX_POINT('',#444);
#734=SURFACE_CURVE('',#735,(#736),.PCURVE_S1.);
#735=CIRCLE('',#87,5.E+05);
#736=PCURVE('',#58,#737);
#737=DEFINITIONAL_REPRESENTATION('',(#738),#66);
#738=CIRCLE('',#92,5.E+05);
#739=ORIENTED_EDGE('',*,*,#740,.T.);
#740=EDGE_CURVE('',#733,#440,#442,.T.);
#741=ORIENTED_EDGE('',*,*,#742,.T.);
#742=EDGE_CURVE('',#440,#743,#453,.T.);
#743=VERTEX_POINT('',#744);
#744=CARTESIAN_POINT('',(6.25E+04,3.112499999999E+06,0.));
#745=ORIENTED_EDGE('',*,*,#746,.F.);
#746=EDGE_CURVE('',#747,#743,#748,.T.);
#747=VERTEX_POINT('',#429);
#748=SURFACE_CURVE('',#749,(#752),.PCURVE_S1.);
#749=CIRCLE('',#750,6.25E+04);
#750=AXIS2_PLACEMENT_3D('',#751,#13,#56);
#751=CARTESIAN_POINT('',(0.,3.112499999999E+06,0.));
#752=PCURVE('',#58,#753);
#753=DEFINITIONAL_REPRESENTATION('',(#754),#66);
#754=CIRCLE('',#755,6.25E+04);
#755=AXIS2_PLACEMENT_2D('',#756,#65);
#756=CARTESIAN_POINT('',(-2.604363504942E-07,-2.883628675736E+06));
#757=ORIENTED_EDGE('',*,*,#758,.T.);
#758=EDGE_CURVE('',#747,#425,#427,.T.);
#759=ORIENTED_EDGE('',*,*,#760,.T.);
#760=EDGE_CURVE('',#425,#761,#442,.T.);
#761=VERTEX_POINT('',#762);
#762=CARTESIAN_POINT('',(-1.025E+07,6.661144271469E+06,0.));
#763=ORIENTED_EDGE('',*,*,#764,.T.);
#764=EDGE_CURVE('',#761,#765,#766,.T.);
#765=VERTEX_POINT('',#349);
#766=SURFACE_CURVE('',#767,(#768),.PCURVE_S1.);
#767=CIRCLE('',#200,5.E+05);
#768=PCURVE('',#58,#769);
#769=DEFINITIONAL_REPRESENTATION('',(#770),#66);
#770=CIRCLE('',#205,5.E+05);
#771=ORIENTED_EDGE('',*,*,#772,.T.);
#772=EDGE_CURVE('',#765,#345,#347,.T.);
#773=ORIENTED_EDGE('',*,*,#774,.T.);
#774=EDGE_CURVE('',#345,#775,#358,.T.);
#775=VERTEX_POINT('',#776);
#776=CARTESIAN_POINT('',(-2.643072135735E+06,4.393072135734E+06,0.));
#777=ORIENTED_EDGE('',*,*,#778,.F.);
#778=EDGE_CURVE('',#779,#775,#780,.T.);
#779=VERTEX_POINT('',#338);
#780=SURFACE_CURVE('',#781,(#784),.PCURVE_S1.);
#781=CIRCLE('',#782,6.25E+04);
#782=AXIS2_PLACEMENT_3D('',#783,#13,#56);
#783=CARTESIAN_POINT('',(-2.643072135735E+06,4.330572135734E+06,0.));
#784=PCURVE('',#58,#785);
#785=DEFINITIONAL_REPRESENTATION('',(#786),#66);
#786=CIRCLE('',#787,6.25E+04);
#787=AXIS2_PLACEMENT_2D('',#788,#65);
#788=CARTESIAN_POINT('',(-2.643072135735E+06,-1.665556540001E+06));
#789=ORIENTED_EDGE('',*,*,#790,.T.);
#790=EDGE_CURVE('',#779,#334,#336,.T.);
#791=ORIENTED_EDGE('',*,*,#685,.T.);
#792=ORIENTED_EDGE('',*,*,#676,.T.);
#793=ORIENTED_EDGE('',*,*,#666,.T.);
#794=ORIENTED_EDGE('',*,*,#657,.T.);
#795=SHELL_BASED_SURFACE_MODEL('',(#796));
#796=OPEN_SHELL('',(#797));
#797=ADVANCED_FACE('',(#798),#58,.T.);
#798=FACE_BOUND('',#799,.T.);
#799=EDGE_LOOP('',(#800,#801,#802,#803));
#800=ORIENTED_EDGE('',*,*,#344,.T.);
#801=ORIENTED_EDGE('',*,*,#790,.F.);
#802=ORIENTED_EDGE('',*,*,#778,.T.);
#803=ORIENTED_EDGE('',*,*,#774,.F.);
#804=SHELL_BASED_SURFACE_MODEL('',(#805));
#805=OPEN_SHELL('',(#806));
#806=ADVANCED_FACE('',(#807),#58,.T.);
#807=FACE_BOUND('',#808,.T.);
#808=EDGE_LOOP('',(#809,#810,#811,#812,#813,#814,#815,#816,    #817,#818));
#809=ORIENTED_EDGE('',*,*,#728,.F.);
#810=ORIENTED_EDGE('',*,*,#523,.T.);
#811=ORIENTED_EDGE('',*,*,#510,.T.);
#812=ORIENTED_EDGE('',*,*,#496,.T.);
#813=ORIENTED_EDGE('',*,*,#487,.T.);
#814=ORIENTED_EDGE('',*,*,#477,.T.);
#815=ORIENTED_EDGE('',*,*,#464,.T.);
#816=ORIENTED_EDGE('',*,*,#450,.T.);
#817=ORIENTED_EDGE('',*,*,#740,.F.);
#818=ORIENTED_EDGE('',*,*,#732,.F.);
#819=SHELL_BASED_SURFACE_MODEL('',(#820));
#820=OPEN_SHELL('',(#821));
#821=ADVANCED_FACE('',(#822),#58,.T.);
#822=FACE_BOUND('',#823,.T.);
#823=EDGE_LOOP('',(#824,#825,#826,#827,#828,#829,#830,#831,    #832,#833));
#824=ORIENTED_EDGE('',*,*,#355,.T.);
#825=ORIENTED_EDGE('',*,*,#772,.F.);
#826=ORIENTED_EDGE('',*,*,#764,.F.);
#827=ORIENTED_EDGE('',*,*,#760,.F.);
#828=ORIENTED_EDGE('',*,*,#424,.T.);
#829=ORIENTED_EDGE('',*,*,#411,.T.);
#830=ORIENTED_EDGE('',*,*,#397,.T.);
#831=ORIENTED_EDGE('',*,*,#388,.T.);
#832=ORIENTED_EDGE('',*,*,#378,.T.);
#833=ORIENTED_EDGE('',*,*,#365,.T.);
#834=SHELL_BASED_SURFACE_MODEL('',(#835));
#835=OPEN_SHELL('',(#836));
#836=ADVANCED_FACE('',(#837),#58,.T.);
#837=FACE_BOUND('',#838,.T.);
#838=EDGE_LOOP('',(#839,#840,#841,#842));
#839=ORIENTED_EDGE('',*,*,#742,.F.);
#840=ORIENTED_EDGE('',*,*,#439,.T.);
#841=ORIENTED_EDGE('',*,*,#758,.F.);
#842=ORIENTED_EDGE('',*,*,#746,.T.);
#843=( GEOMETRIC_REPRESENTATION_CONTEXT(3) GLOBAL_UNCERTAINTY_ASSIGNED_CONTEXT((#19)) GLOBAL_UNIT_ASSIGNED_CONTEXT((#16,#17,#18)) REPRESENTATION_CONTEXT('Context #1','3D Context with UNIT and UNCERTAINTY') );
#844=CONTEXT_DEPENDENT_SHAPE_REPRESENTATION(#845,#846);
#845=( REPRESENTATION_RELATIONSHIP('','',#40,#27) REPRESENTATION_RELATIONSHIP_WITH_TRANSFORMATION(#30) SHAPE_REPRESENTATION_RELATIONSHIP() );
#846=PRODUCT_DEFINITION_SHAPE('Placement','Placement of an item',  #847);
#847=NEXT_ASSEMBLY_USAGE_OCCURRENCE('13','','',#23,#36,$);
#848=PRODUCT_RELATED_PRODUCT_CATEGORY('part',$,(#38));
#849=SHAPE_DEFINITION_REPRESENTATION(#850,#855);
#850=PRODUCT_DEFINITION_SHAPE('','',#851);
#851=PRODUCT_DEFINITION('design','',#852,#854);
#852=PRODUCT_DEFINITION_FORMATION('','',#853);
#853=PRODUCT('contact_cutter','contact_cutter','',(#8));
#854=PRODUCT_DEFINITION_CONTEXT('part definition',#2,'design');   
#855=SHAPE_REPRESENTATION('',(#11),#856);
#856=( GEOMETRIC_REPRESENTATION_CONTEXT(3) GLOBAL_UNCERTAINTY_ASSIGNED_CONTEXT((#857)) GLOBAL_UNIT_ASSIGNED_CONTEXT((#16,#17,#18)) REPRESENTATION_CONTEXT('Context #1','3D Context with UNIT and UNCERTAINTY') );
#857=UNCERTAINTY_MEASURE_WITH_UNIT(LENGTH_MEASURE(1.E-07),#16,  'distance_accuracy_value','confusion accuracy');
#858=CONTEXT_DEPENDENT_SHAPE_REPRESENTATION(#859,#860);
#859=( REPRESENTATION_RELATIONSHIP('','',#855,#10) REPRESENTATION_RELATIONSHIP_WITH_TRANSFORMATION(#30) SHAPE_REPRESENTATION_RELATIONSHIP() );
#860=PRODUCT_DEFINITION_SHAPE('Placement','Placement of an item',  #861);
#861=NEXT_ASSEMBLY_USAGE_OCCURRENCE('15','','',#5,#851,$);
#862=PRODUCT_RELATED_PRODUCT_CATEGORY('part',$,(#853));
#863=MECHANICAL_DESIGN_GEOMETRIC_PRESENTATION_REPRESENTATION('',(    #864,#872,#873,#874,#875,#876,#877,#878),#843);
#864=STYLED_ITEM('color',(#865),#43);
#865=PRESENTATION_STYLE_ASSIGNMENT((#866));
#866=SURFACE_STYLE_USAGE(.BOTH.,#867);
#867=SURFACE_SIDE_STYLE('',(#868));
#868=SURFACE_STYLE_FILL_AREA(#869);
#869=FILL_AREA_STYLE('',(#870));
#870=FILL_AREA_STYLE_COLOUR('',#871);
#871=DRAUGHTING_PRE_DEFINED_COLOUR('red');
#872=STYLED_ITEM('color',(#865),#640);
#873=STYLED_ITEM('color',(#865),#696);
#874=STYLED_ITEM('color',(#865),#720);
#875=STYLED_ITEM('color',(#865),#797);
#876=STYLED_ITEM('color',(#865),#806);
#877=STYLED_ITEM('color',(#865),#821);
#878=STYLED_ITEM('color',(#865),#836);
ENDSEC;
END-ISO-10303-21;

