<?xml version="1.0" encoding="utf-8" standalone="no"?>
<!DOCTYPE svg PUBLIC "-//W3C//DTD SVG 1.1//EN"
  "http://www.w3.org/Graphics/SVG/1.1/DTD/svg11.dtd">
<svg xmlns:xlink="http://www.w3.org/1999/xlink" width="460.8pt" height="345.6pt" viewBox="0 0 460.8 345.6" xmlns="http://www.w3.org/2000/svg" version="1.1">
 <metadata>
  <rdf:RDF xmlns:dc="http://purl.org/dc/elements/1.1/" xmlns:cc="http://creativecommons.org/ns#" xmlns:rdf="http://www.w3.org/1999/02/22-rdf-syntax-ns#">
   <cc:Work>
    <dc:type rdf:resource="http://purl.org/dc/dcmitype/StillImage"/>
    <dc:date>2024-07-11T16:33:28.207063</dc:date>
    <dc:format>image/svg+xml</dc:format>
    <dc:creator>
     <cc:Agent>
      <dc:title>Matplotlib v3.8.4, https://matplotlib.org/</dc:title>
     </cc:Agent>
    </dc:creator>
   </cc:Work>
  </rdf:RDF>
 </metadata>
 <defs>
  <style type="text/css">*{stroke-linejoin: round; stroke-linecap: butt}</style>
 </defs>
 <g id="figure_1">
  <g id="patch_1">
   <path d="M 0 345.6 
L 460.8 345.6 
L 460.8 0 
L 0 0 
z
" style="fill: #ffffff"/>
  </g>
  <g id="axes_1">
   <g id="patch_2">
    <path d="M 47.81 303.64 
L 437.22 303.64 
L 437.22 10.8 
L 47.81 10.8 
z
" style="fill: #ffffff"/>
   </g>
   <g id="matplotlib.axis_1">
    <g id="xtick_1">
     <g id="line2d_1">
      <defs>
       <path id="mfece4d0410" d="M 0 0 
L 0 3.5 
" style="stroke: #000000; stroke-width: 0.8"/>
      </defs>
      <g>
       <use xlink:href="#mfece4d0410" x="47.81" y="303.64" style="stroke: #000000; stroke-width: 0.8"/>
      </g>
     </g>
     <g id="text_1">
      <!-- 300 -->
      <g transform="translate(38.26625 318.238437) scale(0.1 -0.1)">
       <defs>
        <path id="DejaVuSans-33" d="M 2597 2516 
Q 3050 2419 3304 2112 
Q 3559 1806 3559 1356 
Q 3559 666 3084 287 
Q 2609 -91 1734 -91 
Q 1441 -91 1130 -33 
Q 819 25 488 141 
L 488 750 
Q 750 597 1062 519 
Q 1375 441 1716 441 
Q 2309 441 2620 675 
Q 2931 909 2931 1356 
Q 2931 1769 2642 2001 
Q 2353 2234 1838 2234 
L 1294 2234 
L 1294 2753 
L 1863 2753 
Q 2328 2753 2575 2939 
Q 2822 3125 2822 3475 
Q 2822 3834 2567 4026 
Q 2313 4219 1838 4219 
Q 1578 4219 1281 4162 
Q 984 4106 628 3988 
L 628 4550 
Q 988 4650 1302 4700 
Q 1616 4750 1894 4750 
Q 2613 4750 3031 4423 
Q 3450 4097 3450 3541 
Q 3450 3153 3228 2886 
Q 3006 2619 2597 2516 
z
" transform="scale(0.015625)"/>
        <path id="DejaVuSans-30" d="M 2034 4250 
Q 1547 4250 1301 3770 
Q 1056 3291 1056 2328 
Q 1056 1369 1301 889 
Q 1547 409 2034 409 
Q 2525 409 2770 889 
Q 3016 1369 3016 2328 
Q 3016 3291 2770 3770 
Q 2525 4250 2034 4250 
z
M 2034 4750 
Q 2819 4750 3233 4129 
Q 3647 3509 3647 2328 
Q 3647 1150 3233 529 
Q 2819 -91 2034 -91 
Q 1250 -91 836 529 
Q 422 1150 422 2328 
Q 422 3509 836 4129 
Q 1250 4750 2034 4750 
z
" transform="scale(0.015625)"/>
       </defs>
       <use xlink:href="#DejaVuSans-33"/>
       <use xlink:href="#DejaVuSans-30" x="63.623047"/>
       <use xlink:href="#DejaVuSans-30" x="127.246094"/>
      </g>
     </g>
    </g>
    <g id="xtick_2">
     <g id="line2d_2">
      <g>
       <use xlink:href="#mfece4d0410" x="96.48625" y="303.64" style="stroke: #000000; stroke-width: 0.8"/>
      </g>
     </g>
     <g id="text_2">
      <!-- 400 -->
      <g transform="translate(86.9425 318.238437) scale(0.1 -0.1)">
       <defs>
        <path id="DejaVuSans-34" d="M 2419 4116 
L 825 1625 
L 2419 1625 
L 2419 4116 
z
M 2253 4666 
L 3047 4666 
L 3047 1625 
L 3713 1625 
L 3713 1100 
L 3047 1100 
L 3047 0 
L 2419 0 
L 2419 1100 
L 313 1100 
L 313 1709 
L 2253 4666 
z
" transform="scale(0.015625)"/>
       </defs>
       <use xlink:href="#DejaVuSans-34"/>
       <use xlink:href="#DejaVuSans-30" x="63.623047"/>
       <use xlink:href="#DejaVuSans-30" x="127.246094"/>
      </g>
     </g>
    </g>
    <g id="xtick_3">
     <g id="line2d_3">
      <g>
       <use xlink:href="#mfece4d0410" x="145.1625" y="303.64" style="stroke: #000000; stroke-width: 0.8"/>
      </g>
     </g>
     <g id="text_3">
      <!-- 500 -->
      <g transform="translate(135.61875 318.238437) scale(0.1 -0.1)">
       <defs>
        <path id="DejaVuSans-35" d="M 691 4666 
L 3169 4666 
L 3169 4134 
L 1269 4134 
L 1269 2991 
Q 1406 3038 1543 3061 
Q 1681 3084 1819 3084 
Q 2600 3084 3056 2656 
Q 3513 2228 3513 1497 
Q 3513 744 3044 326 
Q 2575 -91 1722 -91 
Q 1428 -91 1123 -41 
Q 819 9 494 109 
L 494 744 
Q 775 591 1075 516 
Q 1375 441 1709 441 
Q 2250 441 2565 725 
Q 2881 1009 2881 1497 
Q 2881 1984 2565 2268 
Q 2250 2553 1709 2553 
Q 1456 2553 1204 2497 
Q 953 2441 691 2322 
L 691 4666 
z
" transform="scale(0.015625)"/>
       </defs>
       <use xlink:href="#DejaVuSans-35"/>
       <use xlink:href="#DejaVuSans-30" x="63.623047"/>
       <use xlink:href="#DejaVuSans-30" x="127.246094"/>
      </g>
     </g>
    </g>
    <g id="xtick_4">
     <g id="line2d_4">
      <g>
       <use xlink:href="#mfece4d0410" x="193.83875" y="303.64" style="stroke: #000000; stroke-width: 0.8"/>
      </g>
     </g>
     <g id="text_4">
      <!-- 600 -->
      <g transform="translate(184.295 318.238437) scale(0.1 -0.1)">
       <defs>
        <path id="DejaVuSans-36" d="M 2113 2584 
Q 1688 2584 1439 2293 
Q 1191 2003 1191 1497 
Q 1191 994 1439 701 
Q 1688 409 2113 409 
Q 2538 409 2786 701 
Q 3034 994 3034 1497 
Q 3034 2003 2786 2293 
Q 2538 2584 2113 2584 
z
M 3366 4563 
L 3366 3988 
Q 3128 4100 2886 4159 
Q 2644 4219 2406 4219 
Q 1781 4219 1451 3797 
Q 1122 3375 1075 2522 
Q 1259 2794 1537 2939 
Q 1816 3084 2150 3084 
Q 2853 3084 3261 2657 
Q 3669 2231 3669 1497 
Q 3669 778 3244 343 
Q 2819 -91 2113 -91 
Q 1303 -91 875 529 
Q 447 1150 447 2328 
Q 447 3434 972 4092 
Q 1497 4750 2381 4750 
Q 2619 4750 2861 4703 
Q 3103 4656 3366 4563 
z
" transform="scale(0.015625)"/>
       </defs>
       <use xlink:href="#DejaVuSans-36"/>
       <use xlink:href="#DejaVuSans-30" x="63.623047"/>
       <use xlink:href="#DejaVuSans-30" x="127.246094"/>
      </g>
     </g>
    </g>
    <g id="xtick_5">
     <g id="line2d_5">
      <g>
       <use xlink:href="#mfece4d0410" x="242.515" y="303.64" style="stroke: #000000; stroke-width: 0.8"/>
      </g>
     </g>
     <g id="text_5">
      <!-- 700 -->
      <g transform="translate(232.97125 318.238437) scale(0.1 -0.1)">
       <defs>
        <path id="DejaVuSans-37" d="M 525 4666 
L 3525 4666 
L 3525 4397 
L 1831 0 
L 1172 0 
L 2766 4134 
L 525 4134 
L 525 4666 
z
" transform="scale(0.015625)"/>
       </defs>
       <use xlink:href="#DejaVuSans-37"/>
       <use xlink:href="#DejaVuSans-30" x="63.623047"/>
       <use xlink:href="#DejaVuSans-30" x="127.246094"/>
      </g>
     </g>
    </g>
    <g id="xtick_6">
     <g id="line2d_6">
      <g>
       <use xlink:href="#mfece4d0410" x="291.19125" y="303.64" style="stroke: #000000; stroke-width: 0.8"/>
      </g>
     </g>
     <g id="text_6">
      <!-- 800 -->
      <g transform="translate(281.6475 318.238437) scale(0.1 -0.1)">
       <defs>
        <path id="DejaVuSans-38" d="M 2034 2216 
Q 1584 2216 1326 1975 
Q 1069 1734 1069 1313 
Q 1069 891 1326 650 
Q 1584 409 2034 409 
Q 2484 409 2743 651 
Q 3003 894 3003 1313 
Q 3003 1734 2745 1975 
Q 2488 2216 2034 2216 
z
M 1403 2484 
Q 997 2584 770 2862 
Q 544 3141 544 3541 
Q 544 4100 942 4425 
Q 1341 4750 2034 4750 
Q 2731 4750 3128 4425 
Q 3525 4100 3525 3541 
Q 3525 3141 3298 2862 
Q 3072 2584 2669 2484 
Q 3125 2378 3379 2068 
Q 3634 1759 3634 1313 
Q 3634 634 3220 271 
Q 2806 -91 2034 -91 
Q 1263 -91 848 271 
Q 434 634 434 1313 
Q 434 1759 690 2068 
Q 947 2378 1403 2484 
z
M 1172 3481 
Q 1172 3119 1398 2916 
Q 1625 2713 2034 2713 
Q 2441 2713 2670 2916 
Q 2900 3119 2900 3481 
Q 2900 3844 2670 4047 
Q 2441 4250 2034 4250 
Q 1625 4250 1398 4047 
Q 1172 3844 1172 3481 
z
" transform="scale(0.015625)"/>
       </defs>
       <use xlink:href="#DejaVuSans-38"/>
       <use xlink:href="#DejaVuSans-30" x="63.623047"/>
       <use xlink:href="#DejaVuSans-30" x="127.246094"/>
      </g>
     </g>
    </g>
    <g id="xtick_7">
     <g id="line2d_7">
      <g>
       <use xlink:href="#mfece4d0410" x="339.8675" y="303.64" style="stroke: #000000; stroke-width: 0.8"/>
      </g>
     </g>
     <g id="text_7">
      <!-- 900 -->
      <g transform="translate(330.32375 318.238437) scale(0.1 -0.1)">
       <defs>
        <path id="DejaVuSans-39" d="M 703 97 
L 703 672 
Q 941 559 1184 500 
Q 1428 441 1663 441 
Q 2288 441 2617 861 
Q 2947 1281 2994 2138 
Q 2813 1869 2534 1725 
Q 2256 1581 1919 1581 
Q 1219 1581 811 2004 
Q 403 2428 403 3163 
Q 403 3881 828 4315 
Q 1253 4750 1959 4750 
Q 2769 4750 3195 4129 
Q 3622 3509 3622 2328 
Q 3622 1225 3098 567 
Q 2575 -91 1691 -91 
Q 1453 -91 1209 -44 
Q 966 3 703 97 
z
M 1959 2075 
Q 2384 2075 2632 2365 
Q 2881 2656 2881 3163 
Q 2881 3666 2632 3958 
Q 2384 4250 1959 4250 
Q 1534 4250 1286 3958 
Q 1038 3666 1038 3163 
Q 1038 2656 1286 2365 
Q 1534 2075 1959 2075 
z
" transform="scale(0.015625)"/>
       </defs>
       <use xlink:href="#DejaVuSans-39"/>
       <use xlink:href="#DejaVuSans-30" x="63.623047"/>
       <use xlink:href="#DejaVuSans-30" x="127.246094"/>
      </g>
     </g>
    </g>
    <g id="xtick_8">
     <g id="line2d_8">
      <g>
       <use xlink:href="#mfece4d0410" x="388.54375" y="303.64" style="stroke: #000000; stroke-width: 0.8"/>
      </g>
     </g>
     <g id="text_8">
      <!-- 1000 -->
      <g transform="translate(375.81875 318.238437) scale(0.1 -0.1)">
       <defs>
        <path id="DejaVuSans-31" d="M 794 531 
L 1825 531 
L 1825 4091 
L 703 3866 
L 703 4441 
L 1819 4666 
L 2450 4666 
L 2450 531 
L 3481 531 
L 3481 0 
L 794 0 
L 794 531 
z
" transform="scale(0.015625)"/>
       </defs>
       <use xlink:href="#DejaVuSans-31"/>
       <use xlink:href="#DejaVuSans-30" x="63.623047"/>
       <use xlink:href="#DejaVuSans-30" x="127.246094"/>
       <use xlink:href="#DejaVuSans-30" x="190.869141"/>
      </g>
     </g>
    </g>
    <g id="xtick_9">
     <g id="line2d_9">
      <g>
       <use xlink:href="#mfece4d0410" x="437.22" y="303.64" style="stroke: #000000; stroke-width: 0.8"/>
      </g>
     </g>
     <g id="text_9">
      <!-- 1100 -->
      <g transform="translate(424.495 318.238437) scale(0.1 -0.1)">
       <use xlink:href="#DejaVuSans-31"/>
       <use xlink:href="#DejaVuSans-31" x="63.623047"/>
       <use xlink:href="#DejaVuSans-30" x="127.246094"/>
       <use xlink:href="#DejaVuSans-30" x="190.869141"/>
      </g>
     </g>
    </g>
    <g id="text_10">
     <!-- wavelength (nm) -->
     <g transform="translate(199.85875 331.916562) scale(0.1 -0.1)">
      <defs>
       <path id="DejaVuSans-77" d="M 269 3500 
L 844 3500 
L 1563 769 
L 2278 3500 
L 2956 3500 
L 3675 769 
L 4391 3500 
L 4966 3500 
L 4050 0 
L 3372 0 
L 2619 2869 
L 1863 0 
L 1184 0 
L 269 3500 
z
" transform="scale(0.015625)"/>
       <path id="DejaVuSans-61" d="M 2194 1759 
Q 1497 1759 1228 1600 
Q 959 1441 959 1056 
Q 959 750 1161 570 
Q 1363 391 1709 391 
Q 2188 391 2477 730 
Q 2766 1069 2766 1631 
L 2766 1759 
L 2194 1759 
z
M 3341 1997 
L 3341 0 
L 2766 0 
L 2766 531 
Q 2569 213 2275 61 
Q 1981 -91 1556 -91 
Q 1019 -91 701 211 
Q 384 513 384 1019 
Q 384 1609 779 1909 
Q 1175 2209 1959 2209 
L 2766 2209 
L 2766 2266 
Q 2766 2663 2505 2880 
Q 2244 3097 1772 3097 
Q 1472 3097 1187 3025 
Q 903 2953 641 2809 
L 641 3341 
Q 956 3463 1253 3523 
Q 1550 3584 1831 3584 
Q 2591 3584 2966 3190 
Q 3341 2797 3341 1997 
z
" transform="scale(0.015625)"/>
       <path id="DejaVuSans-76" d="M 191 3500 
L 800 3500 
L 1894 563 
L 2988 3500 
L 3597 3500 
L 2284 0 
L 1503 0 
L 191 3500 
z
" transform="scale(0.015625)"/>
       <path id="DejaVuSans-65" d="M 3597 1894 
L 3597 1613 
L 953 1613 
Q 991 1019 1311 708 
Q 1631 397 2203 397 
Q 2534 397 2845 478 
Q 3156 559 3463 722 
L 3463 178 
Q 3153 47 2828 -22 
Q 2503 -91 2169 -91 
Q 1331 -91 842 396 
Q 353 884 353 1716 
Q 353 2575 817 3079 
Q 1281 3584 2069 3584 
Q 2775 3584 3186 3129 
Q 3597 2675 3597 1894 
z
M 3022 2063 
Q 3016 2534 2758 2815 
Q 2500 3097 2075 3097 
Q 1594 3097 1305 2825 
Q 1016 2553 972 2059 
L 3022 2063 
z
" transform="scale(0.015625)"/>
       <path id="DejaVuSans-6c" d="M 603 4863 
L 1178 4863 
L 1178 0 
L 603 0 
L 603 4863 
z
" transform="scale(0.015625)"/>
       <path id="DejaVuSans-6e" d="M 3513 2113 
L 3513 0 
L 2938 0 
L 2938 2094 
Q 2938 2591 2744 2837 
Q 2550 3084 2163 3084 
Q 1697 3084 1428 2787 
Q 1159 2491 1159 1978 
L 1159 0 
L 581 0 
L 581 3500 
L 1159 3500 
L 1159 2956 
Q 1366 3272 1645 3428 
Q 1925 3584 2291 3584 
Q 2894 3584 3203 3211 
Q 3513 2838 3513 2113 
z
" transform="scale(0.015625)"/>
       <path id="DejaVuSans-67" d="M 2906 1791 
Q 2906 2416 2648 2759 
Q 2391 3103 1925 3103 
Q 1463 3103 1205 2759 
Q 947 2416 947 1791 
Q 947 1169 1205 825 
Q 1463 481 1925 481 
Q 2391 481 2648 825 
Q 2906 1169 2906 1791 
z
M 3481 434 
Q 3481 -459 3084 -895 
Q 2688 -1331 1869 -1331 
Q 1566 -1331 1297 -1286 
Q 1028 -1241 775 -1147 
L 775 -588 
Q 1028 -725 1275 -790 
Q 1522 -856 1778 -856 
Q 2344 -856 2625 -561 
Q 2906 -266 2906 331 
L 2906 616 
Q 2728 306 2450 153 
Q 2172 0 1784 0 
Q 1141 0 747 490 
Q 353 981 353 1791 
Q 353 2603 747 3093 
Q 1141 3584 1784 3584 
Q 2172 3584 2450 3431 
Q 2728 3278 2906 2969 
L 2906 3500 
L 3481 3500 
L 3481 434 
z
" transform="scale(0.015625)"/>
       <path id="DejaVuSans-74" d="M 1172 4494 
L 1172 3500 
L 2356 3500 
L 2356 3053 
L 1172 3053 
L 1172 1153 
Q 1172 725 1289 603 
Q 1406 481 1766 481 
L 2356 481 
L 2356 0 
L 1766 0 
Q 1100 0 847 248 
Q 594 497 594 1153 
L 594 3053 
L 172 3053 
L 172 3500 
L 594 3500 
L 594 4494 
L 1172 4494 
z
" transform="scale(0.015625)"/>
       <path id="DejaVuSans-68" d="M 3513 2113 
L 3513 0 
L 2938 0 
L 2938 2094 
Q 2938 2591 2744 2837 
Q 2550 3084 2163 3084 
Q 1697 3084 1428 2787 
Q 1159 2491 1159 1978 
L 1159 0 
L 581 0 
L 581 4863 
L 1159 4863 
L 1159 2956 
Q 1366 3272 1645 3428 
Q 1925 3584 2291 3584 
Q 2894 3584 3203 3211 
Q 3513 2838 3513 2113 
z
" transform="scale(0.015625)"/>
       <path id="DejaVuSans-20" transform="scale(0.015625)"/>
       <path id="DejaVuSans-28" d="M 1984 4856 
Q 1566 4138 1362 3434 
Q 1159 2731 1159 2009 
Q 1159 1288 1364 580 
Q 1569 -128 1984 -844 
L 1484 -844 
Q 1016 -109 783 600 
Q 550 1309 550 2009 
Q 550 2706 781 3412 
Q 1013 4119 1484 4856 
L 1984 4856 
z
" transform="scale(0.015625)"/>
       <path id="DejaVuSans-6d" d="M 3328 2828 
Q 3544 3216 3844 3400 
Q 4144 3584 4550 3584 
Q 5097 3584 5394 3201 
Q 5691 2819 5691 2113 
L 5691 0 
L 5113 0 
L 5113 2094 
Q 5113 2597 4934 2840 
Q 4756 3084 4391 3084 
Q 3944 3084 3684 2787 
Q 3425 2491 3425 1978 
L 3425 0 
L 2847 0 
L 2847 2094 
Q 2847 2600 2669 2842 
Q 2491 3084 2119 3084 
Q 1678 3084 1418 2786 
Q 1159 2488 1159 1978 
L 1159 0 
L 581 0 
L 581 3500 
L 1159 3500 
L 1159 2956 
Q 1356 3278 1631 3431 
Q 1906 3584 2284 3584 
Q 2666 3584 2933 3390 
Q 3200 3197 3328 2828 
z
" transform="scale(0.015625)"/>
       <path id="DejaVuSans-29" d="M 513 4856 
L 1013 4856 
Q 1481 4119 1714 3412 
Q 1947 2706 1947 2009 
Q 1947 1309 1714 600 
Q 1481 -109 1013 -844 
L 513 -844 
Q 928 -128 1133 580 
Q 1338 1288 1338 2009 
Q 1338 2731 1133 3434 
Q 928 4138 513 4856 
z
" transform="scale(0.015625)"/>
      </defs>
      <use xlink:href="#DejaVuSans-77"/>
      <use xlink:href="#DejaVuSans-61" x="81.787109"/>
      <use xlink:href="#DejaVuSans-76" x="143.066406"/>
      <use xlink:href="#DejaVuSans-65" x="202.246094"/>
      <use xlink:href="#DejaVuSans-6c" x="263.769531"/>
      <use xlink:href="#DejaVuSans-65" x="291.552734"/>
      <use xlink:href="#DejaVuSans-6e" x="353.076172"/>
      <use xlink:href="#DejaVuSans-67" x="416.455078"/>
      <use xlink:href="#DejaVuSans-74" x="479.931641"/>
      <use xlink:href="#DejaVuSans-68" x="519.140625"/>
      <use xlink:href="#DejaVuSans-20" x="582.519531"/>
      <use xlink:href="#DejaVuSans-28" x="614.306641"/>
      <use xlink:href="#DejaVuSans-6e" x="653.320312"/>
      <use xlink:href="#DejaVuSans-6d" x="716.699219"/>
      <use xlink:href="#DejaVuSans-29" x="814.111328"/>
     </g>
    </g>
   </g>
   <g id="matplotlib.axis_2">
    <g id="ytick_1">
     <g id="line2d_10">
      <defs>
       <path id="mf46a159b10" d="M 0 0 
L -3.5 0 
" style="stroke: #000000; stroke-width: 0.8"/>
      </defs>
      <g>
       <use xlink:href="#mf46a159b10" x="47.81" y="303.64" style="stroke: #000000; stroke-width: 0.8"/>
      </g>
     </g>
     <g id="text_11">
      <!-- 0.0 -->
      <g transform="translate(24.906875 307.439219) scale(0.1 -0.1)">
       <defs>
        <path id="DejaVuSans-2e" d="M 684 794 
L 1344 794 
L 1344 0 
L 684 0 
L 684 794 
z
" transform="scale(0.015625)"/>
       </defs>
       <use xlink:href="#DejaVuSans-30"/>
       <use xlink:href="#DejaVuSans-2e" x="63.623047"/>
       <use xlink:href="#DejaVuSans-30" x="95.410156"/>
      </g>
     </g>
    </g>
    <g id="ytick_2">
     <g id="line2d_11">
      <g>
       <use xlink:href="#mf46a159b10" x="47.81" y="244.20492" style="stroke: #000000; stroke-width: 0.8"/>
      </g>
     </g>
     <g id="text_12">
      <!-- 0.5 -->
      <g transform="translate(24.906875 248.004139) scale(0.1 -0.1)">
       <use xlink:href="#DejaVuSans-30"/>
       <use xlink:href="#DejaVuSans-2e" x="63.623047"/>
       <use xlink:href="#DejaVuSans-35" x="95.410156"/>
      </g>
     </g>
    </g>
    <g id="ytick_3">
     <g id="line2d_12">
      <g>
       <use xlink:href="#mf46a159b10" x="47.81" y="184.76984" style="stroke: #000000; stroke-width: 0.8"/>
      </g>
     </g>
     <g id="text_13">
      <!-- 1.0 -->
      <g transform="translate(24.906875 188.569058) scale(0.1 -0.1)">
       <use xlink:href="#DejaVuSans-31"/>
       <use xlink:href="#DejaVuSans-2e" x="63.623047"/>
       <use xlink:href="#DejaVuSans-30" x="95.410156"/>
      </g>
     </g>
    </g>
    <g id="ytick_4">
     <g id="line2d_13">
      <g>
       <use xlink:href="#mf46a159b10" x="47.81" y="125.33476" style="stroke: #000000; stroke-width: 0.8"/>
      </g>
     </g>
     <g id="text_14">
      <!-- 1.5 -->
      <g transform="translate(24.906875 129.133978) scale(0.1 -0.1)">
       <use xlink:href="#DejaVuSans-31"/>
       <use xlink:href="#DejaVuSans-2e" x="63.623047"/>
       <use xlink:href="#DejaVuSans-35" x="95.410156"/>
      </g>
     </g>
    </g>
    <g id="ytick_5">
     <g id="line2d_14">
      <g>
       <use xlink:href="#mf46a159b10" x="47.81" y="65.899679" style="stroke: #000000; stroke-width: 0.8"/>
      </g>
     </g>
     <g id="text_15">
      <!-- 2.0 -->
      <g transform="translate(24.906875 69.698898) scale(0.1 -0.1)">
       <defs>
        <path id="DejaVuSans-32" d="M 1228 531 
L 3431 531 
L 3431 0 
L 469 0 
L 469 531 
Q 828 903 1448 1529 
Q 2069 2156 2228 2338 
Q 2531 2678 2651 2914 
Q 2772 3150 2772 3378 
Q 2772 3750 2511 3984 
Q 2250 4219 1831 4219 
Q 1534 4219 1204 4116 
Q 875 4013 500 3803 
L 500 4441 
Q 881 4594 1212 4672 
Q 1544 4750 1819 4750 
Q 2544 4750 2975 4387 
Q 3406 4025 3406 3419 
Q 3406 3131 3298 2873 
Q 3191 2616 2906 2266 
Q 2828 2175 2409 1742 
Q 1991 1309 1228 531 
z
" transform="scale(0.015625)"/>
       </defs>
       <use xlink:href="#DejaVuSans-32"/>
       <use xlink:href="#DejaVuSans-2e" x="63.623047"/>
       <use xlink:href="#DejaVuSans-30" x="95.410156"/>
      </g>
     </g>
    </g>
    <g id="text_16">
     <!-- normalised intensity (a.u.) -->
     <g transform="translate(18.827188 223.15125) rotate(-90) scale(0.1 -0.1)">
      <defs>
       <path id="DejaVuSans-6f" d="M 1959 3097 
Q 1497 3097 1228 2736 
Q 959 2375 959 1747 
Q 959 1119 1226 758 
Q 1494 397 1959 397 
Q 2419 397 2687 759 
Q 2956 1122 2956 1747 
Q 2956 2369 2687 2733 
Q 2419 3097 1959 3097 
z
M 1959 3584 
Q 2709 3584 3137 3096 
Q 3566 2609 3566 1747 
Q 3566 888 3137 398 
Q 2709 -91 1959 -91 
Q 1206 -91 779 398 
Q 353 888 353 1747 
Q 353 2609 779 3096 
Q 1206 3584 1959 3584 
z
" transform="scale(0.015625)"/>
       <path id="DejaVuSans-72" d="M 2631 2963 
Q 2534 3019 2420 3045 
Q 2306 3072 2169 3072 
Q 1681 3072 1420 2755 
Q 1159 2438 1159 1844 
L 1159 0 
L 581 0 
L 581 3500 
L 1159 3500 
L 1159 2956 
Q 1341 3275 1631 3429 
Q 1922 3584 2338 3584 
Q 2397 3584 2469 3576 
Q 2541 3569 2628 3553 
L 2631 2963 
z
" transform="scale(0.015625)"/>
       <path id="DejaVuSans-69" d="M 603 3500 
L 1178 3500 
L 1178 0 
L 603 0 
L 603 3500 
z
M 603 4863 
L 1178 4863 
L 1178 4134 
L 603 4134 
L 603 4863 
z
" transform="scale(0.015625)"/>
       <path id="DejaVuSans-73" d="M 2834 3397 
L 2834 2853 
Q 2591 2978 2328 3040 
Q 2066 3103 1784 3103 
Q 1356 3103 1142 2972 
Q 928 2841 928 2578 
Q 928 2378 1081 2264 
Q 1234 2150 1697 2047 
L 1894 2003 
Q 2506 1872 2764 1633 
Q 3022 1394 3022 966 
Q 3022 478 2636 193 
Q 2250 -91 1575 -91 
Q 1294 -91 989 -36 
Q 684 19 347 128 
L 347 722 
Q 666 556 975 473 
Q 1284 391 1588 391 
Q 1994 391 2212 530 
Q 2431 669 2431 922 
Q 2431 1156 2273 1281 
Q 2116 1406 1581 1522 
L 1381 1569 
Q 847 1681 609 1914 
Q 372 2147 372 2553 
Q 372 3047 722 3315 
Q 1072 3584 1716 3584 
Q 2034 3584 2315 3537 
Q 2597 3491 2834 3397 
z
" transform="scale(0.015625)"/>
       <path id="DejaVuSans-64" d="M 2906 2969 
L 2906 4863 
L 3481 4863 
L 3481 0 
L 2906 0 
L 2906 525 
Q 2725 213 2448 61 
Q 2172 -91 1784 -91 
Q 1150 -91 751 415 
Q 353 922 353 1747 
Q 353 2572 751 3078 
Q 1150 3584 1784 3584 
Q 2172 3584 2448 3432 
Q 2725 3281 2906 2969 
z
M 947 1747 
Q 947 1113 1208 752 
Q 1469 391 1925 391 
Q 2381 391 2643 752 
Q 2906 1113 2906 1747 
Q 2906 2381 2643 2742 
Q 2381 3103 1925 3103 
Q 1469 3103 1208 2742 
Q 947 2381 947 1747 
z
" transform="scale(0.015625)"/>
       <path id="DejaVuSans-79" d="M 2059 -325 
Q 1816 -950 1584 -1140 
Q 1353 -1331 966 -1331 
L 506 -1331 
L 506 -850 
L 844 -850 
Q 1081 -850 1212 -737 
Q 1344 -625 1503 -206 
L 1606 56 
L 191 3500 
L 800 3500 
L 1894 763 
L 2988 3500 
L 3597 3500 
L 2059 -325 
z
" transform="scale(0.015625)"/>
       <path id="DejaVuSans-75" d="M 544 1381 
L 544 3500 
L 1119 3500 
L 1119 1403 
Q 1119 906 1312 657 
Q 1506 409 1894 409 
Q 2359 409 2629 706 
Q 2900 1003 2900 1516 
L 2900 3500 
L 3475 3500 
L 3475 0 
L 2900 0 
L 2900 538 
Q 2691 219 2414 64 
Q 2138 -91 1772 -91 
Q 1169 -91 856 284 
Q 544 659 544 1381 
z
M 1991 3584 
L 1991 3584 
z
" transform="scale(0.015625)"/>
      </defs>
      <use xlink:href="#DejaVuSans-6e"/>
      <use xlink:href="#DejaVuSans-6f" x="63.378906"/>
      <use xlink:href="#DejaVuSans-72" x="124.560547"/>
      <use xlink:href="#DejaVuSans-6d" x="163.923828"/>
      <use xlink:href="#DejaVuSans-61" x="261.335938"/>
      <use xlink:href="#DejaVuSans-6c" x="322.615234"/>
      <use xlink:href="#DejaVuSans-69" x="350.398438"/>
      <use xlink:href="#DejaVuSans-73" x="378.181641"/>
      <use xlink:href="#DejaVuSans-65" x="430.28125"/>
      <use xlink:href="#DejaVuSans-64" x="491.804688"/>
      <use xlink:href="#DejaVuSans-20" x="555.28125"/>
      <use xlink:href="#DejaVuSans-69" x="587.068359"/>
      <use xlink:href="#DejaVuSans-6e" x="614.851562"/>
      <use xlink:href="#DejaVuSans-74" x="678.230469"/>
      <use xlink:href="#DejaVuSans-65" x="717.439453"/>
      <use xlink:href="#DejaVuSans-6e" x="778.962891"/>
      <use xlink:href="#DejaVuSans-73" x="842.341797"/>
      <use xlink:href="#DejaVuSans-69" x="894.441406"/>
      <use xlink:href="#DejaVuSans-74" x="922.224609"/>
      <use xlink:href="#DejaVuSans-79" x="961.433594"/>
      <use xlink:href="#DejaVuSans-20" x="1020.613281"/>
      <use xlink:href="#DejaVuSans-28" x="1052.400391"/>
      <use xlink:href="#DejaVuSans-61" x="1091.414062"/>
      <use xlink:href="#DejaVuSans-2e" x="1152.693359"/>
      <use xlink:href="#DejaVuSans-75" x="1184.480469"/>
      <use xlink:href="#DejaVuSans-2e" x="1247.859375"/>
      <use xlink:href="#DejaVuSans-29" x="1279.646484"/>
     </g>
    </g>
   </g>
   <g id="line2d_15">
    <path d="M 47.566619 303.537691 
L 48.296762 303.410581 
L 49.026906 303.13076 
L 49.513669 302.572605 
L 49.75705 302.514288 
L 50.000431 302.219145 
L 50.487194 301.414869 
L 50.730575 301.431749 
L 50.973956 301.130889 
L 51.460719 299.404062 
L 51.7041 299.14231 
L 51.947481 298.715209 
L 52.190863 298.821717 
L 52.434244 298.492209 
L 52.677625 297.584873 
L 53.164388 293.783049 
L 53.407769 293.645397 
L 53.894531 291.873756 
L 54.137912 290.881666 
L 54.381294 290.853137 
L 54.868056 288.115557 
L 55.111437 287.443941 
L 55.354819 289.56815 
L 55.5982 288.961913 
L 56.084962 283.244258 
L 56.328344 281.952139 
L 56.571725 282.725984 
L 56.815106 281.540848 
L 57.058488 279.307278 
L 57.301869 280.354524 
L 57.54525 279.239522 
L 57.788631 274.487093 
L 58.032013 273.893931 
L 58.762156 277.834477 
L 59.005538 278.40862 
L 59.4923 270.906724 
L 59.735681 269.974782 
L 59.979062 270.482357 
L 60.709206 255.233693 
L 61.195969 257.916593 
L 61.43935 261.897554 
L 61.682731 259.463094 
L 62.169494 247.916046 
L 62.412875 247.605795 
L 62.899638 255.780496 
L 63.3864 251.78527 
L 63.629781 251.433414 
L 63.873163 252.592398 
L 64.116544 255.231316 
L 64.359925 254.31245 
L 64.846688 248.49851 
L 65.090069 249.776364 
L 65.576831 258.214957 
L 65.820212 259.206334 
L 66.550356 249.521982 
L 67.037119 247.240864 
L 67.2805 243.990954 
L 67.523881 244.120522 
L 67.767263 247.605795 
L 68.010644 247.84829 
L 68.497406 243.293186 
L 68.740788 242.434943 
L 68.984169 245.858404 
L 69.22755 253.901159 
L 69.470931 255.727004 
L 69.714313 249.080974 
L 69.957694 245.474453 
L 70.201075 246.846215 
L 70.687838 244.913386 
L 70.931219 246.96984 
L 71.1746 247.163598 
L 71.417981 246.182919 
L 71.661362 248.289299 
L 71.904744 246.81412 
L 72.391506 236.191882 
L 73.12165 242.075955 
L 73.365031 245.438792 
L 73.608413 241.779969 
L 74.095175 231.72593 
L 74.338556 230.943765 
L 74.581938 230.962784 
L 74.825319 233.473322 
L 75.312081 241.896461 
L 75.555463 249.348432 
L 75.798844 248.704155 
L 76.285606 256.1799 
L 77.01575 232.535436 
L 77.745894 243.068521 
L 77.989275 240.13956 
L 78.232656 234.089069 
L 78.476038 232.090862 
L 78.719419 234.052219 
L 78.9628 231.571399 
L 79.206181 232.248959 
L 79.449563 229.513757 
L 79.936325 216.232394 
L 80.179706 216.082617 
L 80.666469 219.344415 
L 80.90985 224.28347 
L 81.153231 224.817197 
L 81.396613 221.245148 
L 81.639994 215.11858 
L 81.883375 213.884708 
L 82.126756 222.49804 
L 82.370137 221.217808 
L 82.613519 217.992861 
L 83.100281 227.262356 
L 83.343663 230.076013 
L 83.587044 237.327092 
L 83.830425 237.500643 
L 84.073806 237.991577 
L 84.317188 233.589815 
L 84.560569 226.181826 
L 84.80395 223.426416 
L 85.047331 224.722101 
L 85.290713 218.974728 
L 85.777475 201.893086 
L 86.020856 204.48089 
L 86.507619 224.373811 
L 86.751 220.339358 
L 86.994381 214.398227 
L 87.237763 212.843405 
L 88.211287 249.555266 
L 88.454669 251.278883 
L 88.69805 243.054257 
L 89.184813 223.575004 
L 89.671575 229.82163 
L 89.914956 226.885537 
L 90.158338 226.199657 
L 90.6451 228.059975 
L 90.888481 228.590136 
L 91.618625 208.901671 
L 91.862006 208.102863 
L 92.105388 202.436323 
L 92.348769 201.002749 
L 92.59215 209.146543 
L 93.322294 258.288656 
L 93.565675 244.719628 
L 94.052437 207.626194 
L 94.295819 201.366491 
L 94.5392 213.70878 
L 95.025963 252.978726 
L 95.756106 183.949636 
L 95.999488 176.532138 
L 96.242869 172.633196 
L 96.48625 171.206754 
L 97.459775 160.2707 
L 97.946538 165.596083 
L 98.4333 163.361324 
L 99.406825 170.184471 
L 99.893588 172.573761 
L 100.38035 166.772897 
L 100.867113 157.44159 
L 101.353875 179.004637 
L 101.840638 164.110206 
L 102.3274 155.313814 
L 102.814163 161.340531 
L 103.300925 162.873956 
L 104.27445 153.57831 
L 104.761212 157.287059 
L 105.247975 163.646612 
L 105.734738 157.928957 
L 106.2215 170.125036 
L 106.708263 151.997336 
L 107.195025 154.065677 
L 107.681788 158.808597 
L 108.16855 159.605027 
L 108.655313 155.194944 
L 109.628838 164.276624 
L 110.1156 162.909617 
L 110.602363 173.322643 
L 111.089125 199.67378 
L 111.575888 209.264225 
L 112.06265 146.648179 
L 113.036175 168.698594 
L 114.0097 141.275248 
L 114.496463 137.899335 
L 114.983225 158.166698 
L 115.469988 163.670386 
L 115.95675 143.177171 
L 116.443513 145.388156 
L 116.930275 134.250022 
L 117.417038 131.836957 
L 117.9038 136.223266 
L 118.390563 129.863713 
L 118.877325 147.824994 
L 119.364088 126.4878 
L 119.85085 124.371911 
L 120.337613 124.799844 
L 121.311138 111.39129 
L 121.7979 119.605218 
L 122.284663 133.691332 
L 122.771425 121.352609 
L 123.258188 122.672068 
L 123.74495 116.72856 
L 124.231713 115.183248 
L 124.718475 119.224833 
L 125.692 121.875638 
L 126.178763 115.504197 
L 126.665525 113.744919 
L 127.152288 113.079246 
L 127.63905 118.868223 
L 128.125813 121.174304 
L 128.612575 117.334798 
L 129.099338 125.655709 
L 129.5861 117.976697 
L 130.072863 117.227815 
L 130.559625 124.419459 
L 131.046388 121.400157 
L 131.53315 111.949979 
L 132.019913 119.403139 
L 132.506675 117.358572 
L 132.993438 111.248646 
L 133.4802 117.834052 
L 133.966963 116.72856 
L 134.453725 110.71373 
L 134.940488 114.446253 
L 135.42725 111.296194 
L 135.914013 111.343742 
L 136.400775 110.642408 
L 136.887538 112.996037 
L 137.3743 116.60969 
L 137.861063 117.215928 
L 138.347825 152.484704 
L 138.834588 134.357005 
L 139.32135 120.425422 
L 139.808113 131.052414 
L 140.294875 110.785052 
L 141.2684 126.891959 
L 141.755163 114.600784 
L 142.241925 119.094076 
L 142.728688 107.682541 
L 143.21545 117.299137 
L 143.702213 114.113416 
L 144.188975 119.284268 
L 144.675738 119.308042 
L 145.1625 119.973715 
L 145.649263 125.596274 
L 146.136025 125.738918 
L 146.622788 117.572538 
L 147.10955 130.244097 
L 147.596313 117.786504 
L 148.083075 110.309571 
L 148.569838 118.678031 
L 149.0566 123.373402 
L 149.543363 114.719654 
L 150.030125 119.617105 
L 150.516888 116.193644 
L 151.00365 111.236758 
L 151.490413 122.886034 
L 151.977175 126.701766 
L 152.463938 121.602236 
L 152.9507 119.926167 
L 153.437463 153.93492 
L 153.924225 132.431308 
L 154.410988 137.732917 
L 154.89775 122.529424 
L 155.384513 121.221852 
L 155.871275 117.132718 
L 156.358038 127.84292 
L 156.8448 114.57701 
L 157.331563 116.051 
L 157.818325 121.281287 
L 158.305088 144.151906 
L 158.79185 121.091095 
L 159.278613 112.603765 
L 159.765375 120.03315 
L 160.252138 109.976735 
L 160.7389 113.471518 
L 161.225663 133.822089 
L 161.712425 121.744881 
L 162.199188 118.975206 
L 162.68595 111.082227 
L 163.172713 125.465517 
L 163.659475 116.562142 
L 164.146238 121.15053 
L 165.119763 134.238135 
L 165.606525 119.260494 
L 166.093288 122.291683 
L 166.58005 115.920243 
L 167.066812 120.163908 
L 167.553575 121.875638 
L 168.040338 119.510122 
L 168.5271 124.752296 
L 169.013863 119.153511 
L 169.500625 120.59184 
L 169.987388 120.793919 
L 170.47415 117.049509 
L 170.960913 122.363005 
L 171.447675 118.808788 
L 171.934438 117.798391 
L 172.4212 120.984112 
L 172.907963 125.477404 
L 173.394725 121.649785 
L 173.881488 131.480347 
L 174.36825 128.425384 
L 174.855013 118.261985 
L 175.341775 127.153473 
L 175.828538 120.484857 
L 176.3153 124.074736 
L 176.802063 122.945469 
L 177.288825 132.776032 
L 177.775588 121.530914 
L 178.26235 123.195097 
L 178.749113 127.628954 
L 179.235875 127.52197 
L 179.722638 133.287173 
L 180.2094 123.741899 
L 180.696163 122.98113 
L 181.182925 123.920205 
L 181.669688 127.985564 
L 182.15645 129.447667 
L 182.643213 125.061358 
L 183.129975 130.565047 
L 184.1035 125.097019 
L 184.590263 124.276815 
L 185.077025 121.530914 
L 185.563788 119.640879 
L 186.05055 120.009376 
L 186.537313 121.483366 
L 187.024075 125.893449 
L 187.510838 121.994508 
L 187.9976 126.119303 
L 188.484363 150.368815 
L 189.457888 129.352571 
L 189.94465 133.013772 
L 190.431413 130.55316 
L 190.918175 131.385251 
L 191.404938 133.560575 
L 191.8917 128.365949 
L 192.378463 127.854807 
L 192.865225 130.006357 
L 193.351988 130.018244 
L 193.83875 128.270852 
L 194.325513 130.339193 
L 194.812275 132.94245 
L 195.7858 126.273834 
L 196.272563 126.582896 
L 196.759325 127.450648 
L 197.246088 126.392704 
L 197.73285 126.975168 
L 198.219613 128.318401 
L 199.193138 129.958809 
L 199.6799 127.343665 
L 200.166663 129.839939 
L 200.653425 135.129661 
L 201.140188 128.936525 
L 201.62695 133.536801 
L 202.113713 135.700237 
L 202.600475 129.328797 
L 203.087238 128.508593 
L 203.574 128.437271 
L 204.060763 127.688389 
L 204.547525 134.024168 
L 205.034288 135.260418 
L 205.52105 135.819108 
L 206.007813 136.912713 
L 206.494575 137.079131 
L 206.981338 132.26489 
L 207.4681 141.608084 
L 207.954863 135.866656 
L 208.441625 138.125189 
L 208.928388 135.307966 
L 209.41515 141.524875 
L 209.901913 131.183171 
L 210.388675 133.845863 
L 210.875438 131.777522 
L 211.3622 135.700237 
L 211.848963 129.970696 
L 212.335725 128.817655 
L 212.822488 129.542763 
L 213.30925 133.18019 
L 213.796013 133.085094 
L 214.282775 132.752258 
L 214.769538 130.981092 
L 215.2563 131.729974 
L 215.743063 130.481837 
L 216.229825 135.438723 
L 216.716588 136.199492 
L 217.20335 137.792352 
L 217.690113 142.93943 
L 218.176875 142.047904 
L 218.663638 131.908279 
L 219.1504 138.755201 
L 219.637163 133.524914 
L 220.123925 135.403062 
L 220.610688 143.177171 
L 221.09745 162.766973 
L 221.584213 156.32421 
L 222.070975 138.945393 
L 222.557738 138.351042 
L 223.0445 137.316872 
L 223.531263 138.018206 
L 224.018025 139.373325 
L 224.504788 139.07615 
L 224.99155 137.614047 
L 225.478313 134.677954 
L 225.965075 134.808711 
L 226.451838 136.0093 
L 226.9386 135.438723 
L 227.425363 132.538291 
L 227.912125 134.89192 
L 228.398888 135.21287 
L 228.88565 137.554612 
L 229.372413 136.104396 
L 229.859175 136.342136 
L 230.345938 137.72103 
L 230.8327 135.795334 
L 231.319463 137.328759 
L 231.806225 136.437232 
L 232.292988 137.851787 
L 232.77975 137.590273 
L 233.266513 138.232172 
L 233.753275 137.447629 
L 234.240038 139.242568 
L 234.7268 140.324287 
L 235.213563 140.217304 
L 235.700325 143.902279 
L 236.187088 188.545156 
L 236.67385 170.434098 
L 237.160613 169.578233 
L 238.134138 157.037431 
L 238.6209 152.805654 
L 239.107663 153.756615 
L 239.594425 155.480232 
L 240.081188 152.508478 
L 240.56795 152.865089 
L 241.054713 144.318324 
L 241.541475 146.826484 
L 242.028238 150.083527 
L 242.515 151.212793 
L 243.001763 153.162264 
L 243.488525 152.983959 
L 243.975288 152.116207 
L 244.46205 148.181604 
L 244.948813 146.56497 
L 245.922338 148.03896 
L 246.4091 148.538215 
L 246.895863 147.979525 
L 247.382625 147.028564 
L 247.869388 147.266304 
L 248.35615 148.264813 
L 248.842913 150.083527 
L 249.329675 148.764068 
L 249.816438 154.018129 
L 250.3032 152.484704 
L 250.789963 172.038845 
L 251.276725 181.251283 
L 251.763488 193.901445 
L 252.25025 186.493457 
L 252.737013 174.535119 
L 253.223775 156.157792 
L 254.1973 178.172546 
L 254.684063 180.252774 
L 255.170825 175.105696 
L 255.657588 174.665876 
L 256.14435 180.015033 
L 256.631113 179.23049 
L 257.117875 169.495024 
L 257.604638 176.413267 
L 258.0914 166.535157 
L 259.064925 156.752143 
L 259.551688 158.879919 
L 260.03845 160.294474 
L 260.525213 160.532214 
L 261.011975 157.7982 
L 261.498738 162.125074 
L 261.9855 158.677839 
L 262.472263 159.236529 
L 262.959025 159.177094 
L 263.445788 156.181566 
L 263.93255 155.016639 
L 264.419313 155.087961 
L 264.906075 155.40891 
L 265.392838 155.325701 
L 265.8796 156.229114 
L 266.366363 156.752143 
L 266.853125 156.942335 
L 267.339888 157.596121 
L 267.82665 157.073092 
L 268.313413 157.833861 
L 268.800175 156.003261 
L 269.286938 156.44308 
L 269.7737 158.23802 
L 270.260463 158.368777 
L 270.747225 157.489138 
L 271.233988 161.649593 
L 271.72075 272.015783 
L 272.207513 285.33875 
L 272.694275 221.897746 
L 273.181038 258.526397 
L 274.154562 222.093881 
L 274.641325 206.807179 
L 275.61485 171.242415 
L 276.101613 169.578233 
L 276.588375 165.655518 
L 277.5619 163.634725 
L 278.535425 163.717934 
L 279.022188 163.717934 
L 279.50895 163.396985 
L 279.995713 164.240963 
L 280.482475 164.407381 
L 280.969238 163.789256 
L 281.456 165.322681 
L 281.942763 165.667405 
L 282.429525 165.013619 
L 282.916288 165.584196 
L 283.40305 166.511383 
L 283.889813 165.917032 
L 284.376575 165.84571 
L 285.3501 169.257284 
L 285.836863 169.827861 
L 286.323625 173.952655 
L 286.810388 172.193377 
L 287.29715 173.441513 
L 287.783913 174.368701 
L 288.270675 173.21566 
L 288.757438 173.691141 
L 289.2442 175.949674 
L 290.217725 171.444495 
L 291.19125 176.151753 
L 291.678013 174.749085 
L 292.164775 174.594554 
L 292.651538 176.96007 
L 293.1383 175.474193 
L 293.625063 178.291416 
L 294.111825 173.191886 
L 294.598588 174.558893 
L 295.08535 175.0106 
L 295.572113 178.255755 
L 296.058875 178.124998 
L 296.545637 178.43406 
L 297.0324 181.584119 
L 297.519163 183.747556 
L 298.005925 196.233678 
L 298.492688 197.223866 
L 298.97945 204.721007 
L 299.466213 202.382831 
L 299.952975 205.858595 
L 300.439738 196.03992 
L 300.9265 201.188186 
L 301.413263 185.050373 
L 301.900025 190.526722 
L 302.386788 223.674854 
L 302.87355 192.489268 
L 303.360313 188.41321 
L 303.847075 192.637856 
L 304.333838 186.594497 
L 304.8206 202.625326 
L 305.307363 193.17396 
L 305.794125 194.753744 
L 306.280888 193.813481 
L 306.76765 197.33917 
L 307.254413 189.940692 
L 307.741175 192.601006 
L 308.227938 184.389455 
L 308.7147 188.057788 
L 309.201463 183.676234 
L 309.688225 184.887521 
L 310.174988 184.615308 
L 310.66175 182.903578 
L 311.148513 183.569251 
L 311.635275 185.122884 
L 312.122038 184.139828 
L 312.6088 186.397172 
L 313.095563 182.808482 
L 313.582325 182.546968 
L 314.069088 185.756462 
L 314.55585 185.700593 
L 315.042613 186.438777 
L 315.529375 197.40336 
L 316.016138 187.749915 
L 316.989663 188.946937 
L 317.476425 202.467229 
L 318.44995 187.959126 
L 318.936712 185.761217 
L 319.910238 185.755273 
L 320.397 186.177262 
L 320.883763 186.340114 
L 321.857288 184.710405 
L 322.34405 187.247094 
L 322.830813 189.139507 
L 323.317575 202.719234 
L 323.804338 194.819123 
L 324.2911 189.619742 
L 324.777863 190.765651 
L 325.264625 188.627176 
L 325.751388 190.25332 
L 326.23815 188.709197 
L 326.724913 189.856294 
L 327.698438 193.462814 
L 328.1852 190.384077 
L 328.671963 189.982296 
L 329.158725 190.431625 
L 329.645488 192.310963 
L 330.13225 191.953163 
L 330.619013 195.633384 
L 331.105775 192.799519 
L 331.592538 193.177526 
L 332.0793 192.728197 
L 332.566063 191.399229 
L 333.052825 195.762952 
L 333.539588 195.394455 
L 334.513113 192.549892 
L 334.999875 193.812293 
L 335.486638 193.585251 
L 335.9734 195.60961 
L 336.460163 199.834255 
L 336.946925 202.445833 
L 337.433688 206.930804 
L 337.92045 212.997937 
L 338.407213 224.512889 
L 338.893975 218.314999 
L 339.380738 238.414754 
L 339.8675 215.367019 
L 340.354263 232.397547 
L 340.841025 224.245431 
L 341.327788 221.751535 
L 341.81455 203.245829 
L 342.301313 206.512381 
L 342.788075 211.446681 
L 343.274838 227.736648 
L 343.7616 226.116448 
L 344.248363 219.918557 
L 344.735125 229.385377 
L 345.221888 224.225223 
L 345.70865 221.74678 
L 346.195413 228.949123 
L 346.682175 229.169033 
L 347.168938 223.003238 
L 347.6557 235.116107 
L 348.142463 216.844575 
L 348.629225 233.184467 
L 349.115988 215.822292 
L 349.60275 215.183959 
L 350.089513 210.863029 
L 350.576275 220.399982 
L 351.063038 215.076976 
L 351.5498 217.875179 
L 352.036563 219.111429 
L 352.523325 220.037428 
L 353.010088 210.039258 
L 353.49685 233.544644 
L 353.983613 238.110447 
L 354.470375 252.276204 
L 354.957138 254.997142 
L 355.4439 267.876724 
L 355.930663 274.111463 
L 356.417425 286.546471 
L 356.904188 273.822609 
L 357.39095 284.451979 
L 357.877713 284.218993 
L 358.364475 279.797023 
L 358.851238 256.226259 
L 359.338 247.55587 
L 359.824763 259.426244 
L 360.311525 255.459547 
L 360.798288 270.55368 
L 361.28505 269.668097 
L 361.771813 259.870818 
L 362.258575 280.506678 
L 362.745338 259.524906 
L 363.2321 271.042236 
L 363.718863 244.922896 
L 364.205625 286.13518 
L 364.692388 246.132994 
L 365.17915 271.674625 
L 366.152675 253.225976 
L 366.639438 263.085067 
L 367.1262 264.625625 
L 367.612963 271.465414 
L 368.099725 248.839667 
L 368.586488 259.200391 
L 369.560013 248.817082 
L 370.046775 251.130295 
L 370.533538 243.607003 
L 371.0203 249.126144 
L 371.507063 243.760345 
L 372.480588 243.919631 
L 372.96735 226.124768 
L 373.454113 222.068919 
L 373.940875 228.203808 
L 374.427638 218.770272 
L 374.9144 221.898934 
L 375.401163 231.547625 
L 375.887925 235.255185 
L 376.374688 233.522059 
L 376.86145 235.656967 
L 377.348213 227.724761 
L 377.834975 230.524153 
L 378.321738 227.783007 
L 378.8085 231.761591 
L 379.295263 218.840405 
L 380.268788 224.157467 
L 380.75555 215.994653 
L 381.242313 221.837122 
L 381.729075 214.388718 
L 382.215838 215.761668 
L 382.7026 216.315603 
L 383.189363 214.599118 
L 383.676125 216.594948 
L 384.162888 214.061825 
L 384.64965 214.366132 
L 385.136413 215.999408 
L 385.623175 214.000012 
L 386.5967 214.625269 
L 387.083463 215.710554 
L 388.056988 215.846066 
L 388.54375 216.232394 
L 389.030513 215.150675 
L 389.517275 217.09658 
L 390.004038 216.339377 
L 390.4908 217.654081 
L 390.977563 222.601457 
L 391.464325 218.942633 
L 391.951088 217.158392 
L 392.43785 217.239224 
L 392.924613 218.086768 
L 393.411375 218.155713 
L 393.898138 217.723026 
L 394.3849 218.199695 
L 394.871663 218.337584 
L 395.358425 217.972653 
L 395.845188 219.459719 
L 396.33195 219.088844 
L 396.818713 220.030295 
L 397.305475 218.740554 
L 397.792238 221.764611 
L 398.279 220.554513 
L 398.765763 220.222865 
L 399.252525 221.65525 
L 399.739288 221.015729 
L 400.22605 221.550645 
L 400.712813 220.724497 
L 401.199575 220.863575 
L 401.686338 221.257035 
L 402.1731 221.161939 
L 402.659863 222.061786 
L 403.146625 221.554211 
L 403.633388 221.933407 
L 404.12015 221.872783 
L 404.606913 223.268318 
L 405.093675 222.79046 
L 405.580438 222.530135 
L 406.0672 222.568173 
L 406.553963 223.406208 
L 407.040725 223.792536 
L 407.527488 223.240978 
L 408.01425 223.794913 
L 408.987775 223.759252 
L 409.474538 224.561626 
L 409.9613 224.195506 
L 410.448063 224.648401 
L 410.934825 226.714364 
L 411.421588 225.549437 
L 411.90835 224.85999 
L 412.881875 225.824027 
L 413.368638 225.755082 
L 413.8554 226.234129 
L 414.828925 226.795196 
L 415.315688 226.556267 
L 416.289213 226.990143 
L 416.775975 227.779441 
L 417.262738 230.089088 
L 417.7495 228.056409 
L 418.236263 229.796668 
L 418.723025 228.435604 
L 419.209788 229.656401 
L 419.69655 228.518813 
L 420.183313 228.855216 
L 420.670075 230.281658 
L 421.156838 229.902462 
L 421.6436 230.007068 
L 422.130363 233.95118 
L 422.617125 231.760403 
L 423.103888 230.34347 
L 423.59065 230.492058 
L 424.077413 231.886405 
L 424.564175 229.752686 
L 425.050938 233.207053 
L 425.5377 230.569324 
L 426.024463 231.802007 
L 426.511225 231.936331 
L 426.997988 231.754459 
L 427.48475 232.648363 
L 427.971513 234.596645 
L 428.945038 232.539002 
L 429.4318 234.871235 
L 429.918563 233.114334 
L 430.405325 237.774044 
L 430.892088 236.244185 
L 431.37885 233.129787 
L 431.865613 234.791592 
L 432.352375 237.580286 
L 432.839138 233.702741 
L 433.3259 234.547908 
L 433.812663 242.947274 
L 434.299425 239.491718 
L 435.27295 243.820969 
L 435.759713 234.871235 
L 436.246475 243.859008 
L 436.733238 243.287242 
L 437.22 245.896442 
L 437.706763 244.566285 
L 437.706763 244.566285 
" clip-path="url(#pe4f064382b)" style="fill: none; stroke: #1f77b4; stroke-width: 1.5; stroke-linecap: square"/>
   </g>
   <g id="line2d_16">
    <path d="M 72.148125 302.341267 
L 72.634888 302.4718 
L 73.12165 302.253475 
L 74.095175 302.071948 
L 75.0687 300.854421 
L 75.555463 299.661519 
L 76.528987 295.794552 
L 77.01575 291.921288 
L 77.502512 287.096693 
L 77.989275 278.214109 
L 78.476038 271.452209 
L 78.9628 261.946755 
L 80.423088 227.357546 
L 80.90985 222.292867 
L 81.396613 215.222384 
L 81.883375 210.203482 
L 82.370137 212.831447 
L 82.8569 216.598119 
L 83.343663 225.170584 
L 83.830425 225.854358 
L 84.317188 229.492891 
L 84.80395 234.809587 
L 85.290713 238.678146 
L 85.777475 240.033243 
L 86.264238 245.045007 
L 87.237763 242.60407 
L 87.724525 237.329309 
L 88.211287 234.732242 
L 88.69805 227.112934 
L 89.184813 217.732901 
L 89.671575 202.439633 
L 90.158338 191.458784 
L 91.618625 134.744319 
L 92.59215 105.115043 
L 93.078913 102.875657 
L 93.565675 103.984056 
L 94.052437 110.56072 
L 95.512725 140.560216 
L 95.999488 159.652431 
L 96.48625 168.716405 
L 96.973013 180.910613 
L 97.946538 191.979659 
L 98.4333 196.300269 
L 98.920063 198.839853 
L 99.406825 199.898164 
L 99.893588 197.041035 
L 100.38035 197.836389 
L 100.867113 195.962526 
L 102.3274 182.924021 
L 103.300925 164.26453 
L 103.787688 159.057493 
L 104.761212 140.507082 
L 105.247975 134.162757 
L 105.734738 123.368247 
L 106.2215 119.2699 
L 106.708263 111.856039 
L 107.195025 109.748417 
L 107.681788 110.616771 
L 108.16855 112.367746 
L 108.655313 112.866663 
L 109.142075 122.055678 
L 109.628838 126.156339 
L 110.1156 131.259033 
L 110.602363 133.128321 
L 111.089125 140.210359 
L 111.575888 142.914846 
L 112.06265 143.406756 
L 112.549413 143.246659 
L 113.036175 142.437885 
L 114.0097 134.454616 
L 114.983225 123.242719 
L 115.469988 113.917759 
L 116.443513 105.62863 
L 116.930275 106.127858 
L 117.417038 105.644916 
L 117.9038 110.320859 
L 118.877325 124.838463 
L 119.364088 136.682615 
L 120.337613 151.384451 
L 120.824375 158.010864 
L 121.311138 161.724091 
L 121.7979 162.610343 
L 122.284663 160.719406 
L 122.771425 160.095676 
L 123.74495 146.625783 
L 124.718475 127.598097 
L 125.692 105.291903 
L 126.178763 94.559504 
L 127.152288 67.149865 
L 128.612575 34.523031 
L 129.099338 29.176777 
L 129.5861 25.889475 
L 130.072863 24.744762 
L 130.559625 27.67714 
L 131.046388 31.798508 
L 132.506675 58.118797 
L 132.993438 66.993179 
L 134.453725 99.683403 
L 135.914013 120.676144 
L 136.400775 126.601427 
L 137.3743 132.891471 
L 137.861063 135.702421 
L 138.347825 136.48527 
L 138.834588 139.131897 
L 139.32135 137.838157 
L 139.808113 138.332973 
L 140.294875 136.843293 
L 140.781638 136.728093 
L 141.2684 135.475786 
L 141.755163 133.829207 
L 142.728688 128.51232 
L 143.21545 127.261184 
L 143.702213 123.711594 
L 144.188975 123.00658 
L 144.675738 120.198443 
L 145.1625 116.414 
L 146.136025 113.708592 
L 147.10955 108.792678 
L 147.596313 108.58218 
L 148.083075 106.12858 
L 148.569838 106.672904 
L 149.0566 104.456723 
L 149.543363 104.062268 
L 150.030125 104.162472 
L 150.516888 102.195113 
L 151.977175 102.716858 
L 152.463938 102.086029 
L 153.437463 103.333165 
L 153.924225 102.618819 
L 154.410988 102.960899 
L 155.384513 102.503845 
L 155.871275 102.550552 
L 156.8448 102.999324 
L 157.331563 102.760564 
L 157.818325 103.799273 
L 158.305088 104.11124 
L 158.79185 102.983967 
L 159.765375 103.767454 
L 160.252138 103.476821 
L 160.7389 103.014 
L 161.225663 104.078228 
L 161.712425 102.956414 
L 162.199188 103.844191 
L 162.68595 102.937837 
L 163.172713 102.57626 
L 163.659475 102.955885 
L 164.146238 103.118295 
L 164.633 102.244742 
L 165.606525 103.297246 
L 166.093288 104.195688 
L 166.58005 104.414071 
L 167.066812 103.86249 
L 167.553575 105.165248 
L 168.040338 105.064066 
L 169.013863 106.079715 
L 169.500625 106.634304 
L 169.987388 106.254676 
L 170.47415 107.615483 
L 170.960913 107.558998 
L 171.447675 108.954025 
L 171.934438 109.986301 
L 172.4212 110.71521 
L 172.907963 110.906011 
L 173.881488 113.415415 
L 174.855013 114.613088 
L 175.828538 118.253726 
L 176.3153 118.506096 
L 176.802063 119.141452 
L 177.775588 122.412719 
L 178.26235 122.577778 
L 178.749113 123.455142 
L 179.235875 124.674402 
L 179.722638 125.543835 
L 180.2094 127.032301 
L 180.696163 127.476469 
L 181.182925 128.325027 
L 181.669688 128.713484 
L 182.643213 131.941329 
L 183.616738 132.357941 
L 184.1035 133.948496 
L 184.590263 134.154405 
L 185.077025 134.160146 
L 185.563788 135.275896 
L 186.05055 135.777873 
L 187.024075 136.216808 
L 187.510838 136.480341 
L 187.9976 137.040976 
L 188.971125 136.610161 
L 189.94465 137.538529 
L 190.431413 137.309028 
L 190.918175 137.665315 
L 191.404938 137.143806 
L 191.8917 137.09244 
L 192.378463 137.86882 
L 192.865225 137.202305 
L 193.351988 137.326435 
L 193.83875 137.142118 
L 194.325513 137.106374 
L 194.812275 137.25212 
L 195.299038 136.512554 
L 195.7858 136.38976 
L 196.272563 136.563086 
L 196.759325 136.129651 
L 197.246088 136.081377 
L 198.219613 136.487407 
L 198.706375 135.425715 
L 200.166663 134.938719 
L 200.653425 135.040936 
L 201.62695 134.418344 
L 202.113713 134.383374 
L 202.600475 133.667899 
L 203.087238 134.057371 
L 203.574 133.756707 
L 204.060763 133.060924 
L 204.547525 133.097237 
L 205.034288 133.546429 
L 205.52105 132.402963 
L 206.007813 133.112682 
L 206.494575 132.97027 
L 206.981338 132.440027 
L 207.4681 132.599318 
L 207.954863 131.895321 
L 208.928388 131.389409 
L 209.901913 131.446795 
L 210.388675 131.73649 
L 210.875438 131.187562 
L 211.3622 131.973174 
L 212.822488 131.916688 
L 213.30925 132.092123 
L 214.282775 133.24713 
L 215.2563 134.127314 
L 215.743063 134.394227 
L 216.716588 136.418537 
L 217.20335 136.313125 
L 217.690113 137.884001 
L 218.176875 138.298102 
L 219.1504 140.634187 
L 220.123925 142.623372 
L 220.610688 144.432071 
L 221.09745 145.402217 
L 221.584213 145.795792 
L 222.557738 147.96424 
L 223.0445 149.628339 
L 223.531263 150.339455 
L 224.018025 151.677399 
L 224.504788 152.181971 
L 224.99155 152.875462 
L 225.965075 153.679468 
L 226.451838 154.678782 
L 226.9386 154.157038 
L 227.425363 154.368002 
L 227.912125 153.928375 
L 228.398888 154.20858 
L 228.88565 153.360518 
L 229.372413 153.474085 
L 229.859175 152.963098 
L 230.345938 152.943614 
L 230.8327 152.757877 
L 231.319463 152.314943 
L 231.806225 152.9688 
L 232.292988 153.261979 
L 232.77975 153.256214 
L 233.753275 155.311105 
L 234.240038 157.483437 
L 234.7268 158.606989 
L 236.187088 163.826465 
L 237.160613 166.874234 
L 238.134138 169.660465 
L 239.107663 170.858862 
L 240.081188 169.863881 
L 241.054713 167.732125 
L 242.028238 164.572144 
L 242.515 162.075875 
L 243.001763 158.866428 
L 243.488525 156.588668 
L 244.46205 151.484809 
L 245.435575 147.194484 
L 245.922338 146.089867 
L 246.4091 144.703869 
L 246.895863 144.293877 
L 247.382625 144.189398 
L 247.869388 144.837022 
L 248.35615 145.125496 
L 249.329675 147.900713 
L 249.816438 149.71951 
L 250.789963 152.254112 
L 251.276725 153.901985 
L 252.25025 155.86072 
L 253.223775 156.833479 
L 253.710538 157.065567 
L 254.1973 156.63122 
L 254.684063 155.9763 
L 255.170825 155.552421 
L 255.657588 154.155345 
L 256.14435 153.419856 
L 256.631113 152.105966 
L 258.0914 150.323848 
L 258.578163 149.997468 
L 259.064925 150.389826 
L 260.03845 153.403732 
L 261.011975 157.721074 
L 262.472263 168.116483 
L 264.906075 186.023713 
L 265.8796 191.412325 
L 266.366363 193.224466 
L 266.853125 194.601344 
L 267.339888 195.400001 
L 267.82665 195.231402 
L 268.313413 194.287615 
L 268.800175 192.957515 
L 269.286938 191.041241 
L 270.260463 184.574007 
L 271.233988 176.255459 
L 273.181038 151.267327 
L 275.128087 123.819983 
L 275.61485 119.182834 
L 276.101613 116.3561 
L 276.588375 115.942404 
L 277.075138 117.734215 
L 277.5619 121.627646 
L 278.048663 128.101333 
L 280.969238 177.464632 
L 281.942763 186.509279 
L 282.429525 189.732321 
L 282.916288 191.642497 
L 283.40305 192.902897 
L 283.889813 193.419502 
L 284.376575 193.416499 
L 285.3501 190.841594 
L 286.323625 187.155335 
L 287.783913 179.291424 
L 289.730963 163.608752 
L 291.19125 146.338609 
L 292.164775 134.318452 
L 292.651538 129.376498 
L 293.625063 122.269218 
L 294.111825 121.139873 
L 294.598588 122.32612 
L 295.08535 125.907389 
L 295.572113 131.13815 
L 296.545637 148.404533 
L 298.492688 186.458989 
L 299.466213 201.446911 
L 300.439738 212.766339 
L 301.413263 220.871375 
L 302.386788 227.137875 
L 303.847075 232.69849 
L 304.8206 235.390676 
L 305.307363 236.131888 
L 305.794125 236.422534 
L 306.280888 236.365203 
L 306.76765 236.62707 
L 307.254413 236.272297 
L 307.741175 236.07198 
L 308.7147 234.05066 
L 310.174988 229.44214 
L 311.635275 222.124057 
L 312.6088 216.627034 
L 315.042613 196.787142 
L 316.5029 181.666166 
L 319.423475 146.780042 
L 320.883763 134.648265 
L 321.370525 132.298963 
L 321.857288 131.283424 
L 322.34405 131.628891 
L 322.830813 132.641999 
L 323.317575 135.685947 
L 324.2911 143.904946 
L 327.211675 173.148959 
L 328.1852 178.707528 
L 328.671963 180.870656 
L 329.158725 182.331524 
L 329.645488 184.413197 
L 330.619013 186.20893 
L 331.105775 186.853796 
L 331.592538 186.724096 
L 332.0793 186.816375 
L 332.566063 187.268702 
L 333.539588 187.775726 
L 334.02635 188.028468 
L 335.486638 190.858787 
L 335.9734 192.085665 
L 336.946925 195.399026 
L 339.380738 209.145023 
L 343.7616 238.512505 
L 345.70865 250.112704 
L 346.682175 255.642525 
L 347.168938 257.852231 
L 347.6557 260.639748 
L 351.063038 274.538662 
L 353.49685 281.049846 
L 354.470375 282.744628 
L 355.4439 284.018655 
L 355.930663 284.449502 
L 356.904188 284.853591 
L 357.39095 284.968706 
L 358.364475 284.706258 
L 359.338 283.72416 
L 360.798288 281.529855 
L 361.771813 279.66834 
L 364.692388 271.684241 
L 366.639438 265.262314 
L 367.612963 261.495747 
L 370.046775 252.459286 
L 371.0203 248.640443 
L 372.480588 243.596843 
L 372.96735 242.008908 
L 373.454113 240.01951 
L 373.940875 239.217157 
L 374.9144 236.04831 
L 375.887925 233.703483 
L 376.374688 232.871207 
L 376.86145 231.743987 
L 378.8085 228.567521 
L 379.295263 228.232734 
L 380.268788 227.048012 
L 380.75555 227.146697 
L 381.242313 226.314303 
L 381.729075 225.773933 
L 382.215838 226.101902 
L 382.7026 225.674935 
L 383.189363 224.912562 
L 383.676125 224.383622 
L 384.162888 224.252531 
L 385.136413 223.364167 
L 385.623175 223.305488 
L 386.109938 221.963207 
L 387.083463 220.985894 
L 387.570225 220.272192 
L 388.056988 219.080749 
L 389.030513 217.664197 
L 390.004038 214.891381 
L 390.4908 213.837638 
L 390.977563 211.863163 
L 391.464325 210.746741 
L 392.43785 207.200516 
L 393.411375 202.354545 
L 393.898138 200.905731 
L 394.3849 198.79003 
L 397.305475 182.698684 
L 397.792238 181.01713 
L 398.279 177.245635 
L 399.252525 172.542644 
L 399.739288 169.57913 
L 400.22605 167.700247 
L 400.712813 163.348621 
L 401.199575 161.492662 
L 401.686338 158.72698 
L 402.659863 154.458365 
L 403.146625 152.945345 
L 403.633388 150.26577 
L 404.12015 146.964378 
L 404.606913 147.081203 
L 405.093675 145.382364 
L 405.580438 145.559526 
L 406.0672 145.353726 
L 406.553963 142.778516 
L 407.527488 144.972278 
L 408.01425 143.802162 
L 408.501013 143.936683 
L 408.987775 146.059664 
L 409.474538 145.069708 
L 410.448063 145.364599 
L 410.934825 146.532249 
L 411.421588 146.785156 
L 411.90835 147.167406 
L 412.395113 147.323418 
L 412.881875 148.700429 
L 413.368638 150.565683 
L 413.8554 149.30916 
L 414.342163 149.543233 
L 414.828925 149.376045 
L 415.315688 150.183556 
L 415.80245 149.75838 
L 416.289213 150.253518 
L 416.775975 151.024806 
L 417.262738 150.285665 
L 417.7495 150.479257 
L 418.236263 151.813167 
L 418.723025 151.426995 
L 419.209788 153.65763 
L 419.69655 153.148252 
L 420.183313 152.959871 
L 420.670075 154.015819 
L 421.156838 151.768934 
L 421.6436 153.70879 
L 422.130363 157.463874 
L 422.617125 153.654037 
L 423.103888 155.973398 
L 423.59065 157.55567 
L 424.077413 155.346543 
L 424.564175 157.217266 
L 425.050938 158.337758 
L 425.050938 158.337758 
" clip-path="url(#pe4f064382b)" style="fill: none; stroke: #ff7f0e; stroke-width: 1.5; stroke-linecap: square"/>
   </g>
   <g id="patch_3">
    <path d="M 47.81 303.64 
L 47.81 10.8 
" style="fill: none; stroke: #000000; stroke-width: 0.8; stroke-linejoin: miter; stroke-linecap: square"/>
   </g>
   <g id="patch_4">
    <path d="M 437.22 303.64 
L 437.22 10.8 
" style="fill: none; stroke: #000000; stroke-width: 0.8; stroke-linejoin: miter; stroke-linecap: square"/>
   </g>
   <g id="patch_5">
    <path d="M 47.81 303.64 
L 437.22 303.64 
" style="fill: none; stroke: #000000; stroke-width: 0.8; stroke-linejoin: miter; stroke-linecap: square"/>
   </g>
   <g id="patch_6">
    <path d="M 47.81 10.8 
L 437.22 10.8 
" style="fill: none; stroke: #000000; stroke-width: 0.8; stroke-linejoin: miter; stroke-linecap: square"/>
   </g>
   <g id="legend_1">
    <g id="patch_7">
     <path d="M 351.377813 48.15625 
L 430.22 48.15625 
Q 432.22 48.15625 432.22 46.15625 
L 432.22 17.8 
Q 432.22 15.8 430.22 15.8 
L 351.377813 15.8 
Q 349.377813 15.8 349.377813 17.8 
L 349.377813 46.15625 
Q 349.377813 48.15625 351.377813 48.15625 
z
" style="fill: #ffffff; opacity: 0.8; stroke: #cccccc; stroke-linejoin: miter"/>
    </g>
    <g id="line2d_17">
     <path d="M 353.377813 23.898438 
L 363.377813 23.898438 
L 373.377813 23.898438 
" style="fill: none; stroke: #1f77b4; stroke-width: 1.5; stroke-linecap: square"/>
    </g>
    <g id="text_17">
     <!-- AM1.5G -->
     <g transform="translate(381.377813 27.398438) scale(0.1 -0.1)">
      <defs>
       <path id="DejaVuSans-41" d="M 2188 4044 
L 1331 1722 
L 3047 1722 
L 2188 4044 
z
M 1831 4666 
L 2547 4666 
L 4325 0 
L 3669 0 
L 3244 1197 
L 1141 1197 
L 716 0 
L 50 0 
L 1831 4666 
z
" transform="scale(0.015625)"/>
       <path id="DejaVuSans-4d" d="M 628 4666 
L 1569 4666 
L 2759 1491 
L 3956 4666 
L 4897 4666 
L 4897 0 
L 4281 0 
L 4281 4097 
L 3078 897 
L 2444 897 
L 1241 4097 
L 1241 0 
L 628 0 
L 628 4666 
z
" transform="scale(0.015625)"/>
       <path id="DejaVuSans-47" d="M 3809 666 
L 3809 1919 
L 2778 1919 
L 2778 2438 
L 4434 2438 
L 4434 434 
Q 4069 175 3628 42 
Q 3188 -91 2688 -91 
Q 1594 -91 976 548 
Q 359 1188 359 2328 
Q 359 3472 976 4111 
Q 1594 4750 2688 4750 
Q 3144 4750 3555 4637 
Q 3966 4525 4313 4306 
L 4313 3634 
Q 3963 3931 3569 4081 
Q 3175 4231 2741 4231 
Q 1884 4231 1454 3753 
Q 1025 3275 1025 2328 
Q 1025 1384 1454 906 
Q 1884 428 2741 428 
Q 3075 428 3337 486 
Q 3600 544 3809 666 
z
" transform="scale(0.015625)"/>
      </defs>
      <use xlink:href="#DejaVuSans-41"/>
      <use xlink:href="#DejaVuSans-4d" x="68.408203"/>
      <use xlink:href="#DejaVuSans-31" x="154.6875"/>
      <use xlink:href="#DejaVuSans-2e" x="218.310547"/>
      <use xlink:href="#DejaVuSans-35" x="250.097656"/>
      <use xlink:href="#DejaVuSans-47" x="313.720703"/>
     </g>
    </g>
    <g id="line2d_18">
     <path d="M 353.377813 38.576563 
L 363.377813 38.576563 
L 373.377813 38.576563 
" style="fill: none; stroke: #ff7f0e; stroke-width: 1.5; stroke-linecap: square"/>
    </g>
    <g id="text_18">
     <!-- wavelabs -->
     <g transform="translate(381.377813 42.076563) scale(0.1 -0.1)">
      <defs>
       <path id="DejaVuSans-62" d="M 3116 1747 
Q 3116 2381 2855 2742 
Q 2594 3103 2138 3103 
Q 1681 3103 1420 2742 
Q 1159 2381 1159 1747 
Q 1159 1113 1420 752 
Q 1681 391 2138 391 
Q 2594 391 2855 752 
Q 3116 1113 3116 1747 
z
M 1159 2969 
Q 1341 3281 1617 3432 
Q 1894 3584 2278 3584 
Q 2916 3584 3314 3078 
Q 3713 2572 3713 1747 
Q 3713 922 3314 415 
Q 2916 -91 2278 -91 
Q 1894 -91 1617 61 
Q 1341 213 1159 525 
L 1159 0 
L 581 0 
L 581 4863 
L 1159 4863 
L 1159 2969 
z
" transform="scale(0.015625)"/>
      </defs>
      <use xlink:href="#DejaVuSans-77"/>
      <use xlink:href="#DejaVuSans-61" x="81.787109"/>
      <use xlink:href="#DejaVuSans-76" x="143.066406"/>
      <use xlink:href="#DejaVuSans-65" x="202.246094"/>
      <use xlink:href="#DejaVuSans-6c" x="263.769531"/>
      <use xlink:href="#DejaVuSans-61" x="291.552734"/>
      <use xlink:href="#DejaVuSans-62" x="352.832031"/>
      <use xlink:href="#DejaVuSans-73" x="416.308594"/>
     </g>
    </g>
   </g>
  </g>
 </g>
 <defs>
  <clipPath id="pe4f064382b">
   <rect x="47.81" y="10.8" width="389.41" height="292.84"/>
  </clipPath>
 </defs>
</svg>
