wavelength (nm)	normalised intensity (a.u.)
3.500000e+02	4.656704e-03
3.510000e+02	4.188668e-03
3.520000e+02	4.971490e-03
3.530000e+02	5.147588e-03
3.540000e+02	5.622370e-03
3.550000e+02	7.852244e-03
3.560000e+02	9.987904e-03
3.570000e+02	1.426514e-02
3.580000e+02	2.140848e-02
3.590000e+02	2.813045e-02
3.600000e+02	4.201833e-02
3.610000e+02	5.931728e-02
3.620000e+02	9.116646e-02
3.630000e+02	1.154118e-01
3.640000e+02	1.494943e-01
3.650000e+02	1.941686e-01
3.660000e+02	2.310631e-01
3.670000e+02	2.735165e-01
3.680000e+02	2.916763e-01
3.690000e+02	3.170281e-01
3.700000e+02	3.350237e-01
3.710000e+02	3.256009e-01
3.720000e+02	3.120953e-01
3.730000e+02	2.813580e-01
3.740000e+02	2.789063e-01
3.750000e+02	2.658601e-01
3.760000e+02	2.467967e-01
3.770000e+02	2.329256e-01
3.780000e+02	2.280668e-01
3.790000e+02	2.100968e-01
3.800000e+02	2.146770e-01
3.810000e+02	2.188489e-01
3.820000e+02	2.377620e-01
3.830000e+02	2.470740e-01
3.840000e+02	2.743936e-01
3.850000e+02	3.080264e-01
3.860000e+02	3.628616e-01
3.870000e+02	4.022342e-01
3.880000e+02	4.750709e-01
3.890000e+02	5.400736e-01
3.900000e+02	6.055883e-01
3.910000e+02	6.535946e-01
3.920000e+02	7.118263e-01
3.930000e+02	7.198558e-01
3.940000e+02	7.158815e-01
3.950000e+02	6.923004e-01
3.960000e+02	6.536446e-01
3.970000e+02	6.222829e-01
3.980000e+02	5.847349e-01
3.990000e+02	5.162783e-01
4.000000e+02	4.837788e-01
4.010000e+02	4.400555e-01
4.020000e+02	4.193678e-01
4.030000e+02	4.003666e-01
4.040000e+02	3.848747e-01
4.050000e+02	3.757689e-01
4.060000e+02	3.719742e-01
4.070000e+02	3.822187e-01
4.080000e+02	3.793669e-01
4.090000e+02	3.860857e-01
4.100000e+02	4.015481e-01
4.110000e+02	4.204781e-01
4.120000e+02	4.328363e-01
4.130000e+02	4.690599e-01
4.140000e+02	4.997413e-01
4.150000e+02	5.184115e-01
4.160000e+02	5.507492e-01
4.170000e+02	5.849254e-01
4.180000e+02	6.076735e-01
4.190000e+02	6.463780e-01
4.200000e+02	6.610730e-01
4.210000e+02	6.876559e-01
4.220000e+02	6.952130e-01
4.230000e+02	6.920994e-01
4.240000e+02	6.858212e-01
4.250000e+02	6.840322e-01
4.260000e+02	6.510843e-01
4.270000e+02	6.363811e-01
4.280000e+02	6.180850e-01
4.290000e+02	6.113825e-01
4.300000e+02	5.859894e-01
4.310000e+02	5.762922e-01
4.320000e+02	5.745284e-01
4.330000e+02	5.751025e-01
4.340000e+02	5.780024e-01
4.350000e+02	5.916331e-01
4.360000e+02	6.066270e-01
4.370000e+02	6.283300e-01
4.380000e+02	6.468281e-01
4.390000e+02	6.802635e-01
4.400000e+02	6.948793e-01
4.410000e+02	7.099848e-01
4.420000e+02	7.081947e-01
4.430000e+02	7.099264e-01
4.440000e+02	6.931604e-01
4.450000e+02	6.639845e-01
4.460000e+02	6.411065e-01
4.470000e+02	5.986384e-01
4.480000e+02	5.691377e-01
4.490000e+02	5.459238e-01
4.500000e+02	5.221643e-01
4.510000e+02	5.088502e-01
4.520000e+02	5.056725e-01
4.530000e+02	5.124526e-01
4.540000e+02	5.146890e-01
4.550000e+02	5.363877e-01
4.560000e+02	5.629864e-01
4.570000e+02	5.948469e-01
4.580000e+02	6.312116e-01
4.590000e+02	6.672269e-01
4.600000e+02	7.111921e-01
4.610000e+02	7.496740e-01
4.620000e+02	8.015689e-01
4.630000e+02	8.479533e-01
4.640000e+02	8.881095e-01
4.650000e+02	9.305178e-01
4.660000e+02	9.649393e-01
4.670000e+02	9.841087e-01
4.680000e+02	9.958955e-01
4.690000e+02	1.000000e+00
4.700000e+02	9.894857e-01
4.710000e+02	9.747083e-01
4.720000e+02	9.449757e-01
4.730000e+02	9.173519e-01
4.740000e+02	8.803349e-01
4.750000e+02	8.485151e-01
4.760000e+02	8.077999e-01
4.770000e+02	7.653783e-01
4.780000e+02	7.313018e-01
4.790000e+02	7.045060e-01
4.800000e+02	6.747553e-01
4.810000e+02	6.560308e-01
4.820000e+02	6.347852e-01
4.830000e+02	6.221062e-01
4.840000e+02	6.122318e-01
4.850000e+02	6.021529e-01
4.860000e+02	5.993459e-01
4.870000e+02	5.898563e-01
4.880000e+02	5.944951e-01
4.890000e+02	5.927209e-01
4.900000e+02	5.980622e-01
4.910000e+02	5.984753e-01
4.920000e+02	6.029655e-01
4.930000e+02	6.088695e-01
4.940000e+02	6.178269e-01
4.950000e+02	6.279336e-01
4.960000e+02	6.324196e-01
4.970000e+02	6.451469e-01
4.980000e+02	6.476748e-01
4.990000e+02	6.577436e-01
5.000000e+02	6.713130e-01
5.010000e+02	6.756710e-01
5.020000e+02	6.810134e-01
5.030000e+02	6.898143e-01
5.040000e+02	6.986398e-01
5.050000e+02	6.993946e-01
5.060000e+02	7.081922e-01
5.070000e+02	7.062404e-01
5.080000e+02	7.141867e-01
5.090000e+02	7.156011e-01
5.100000e+02	7.152418e-01
5.110000e+02	7.222959e-01
5.120000e+02	7.217470e-01
5.130000e+02	7.212646e-01
5.140000e+02	7.204251e-01
5.150000e+02	7.226870e-01
5.160000e+02	7.207271e-01
5.170000e+02	7.182153e-01
5.180000e+02	7.207767e-01
5.190000e+02	7.195501e-01
5.200000e+02	7.203419e-01
5.210000e+02	7.211889e-01
5.220000e+02	7.210214e-01
5.230000e+02	7.202818e-01
5.240000e+02	7.194123e-01
5.250000e+02	7.202684e-01
5.260000e+02	7.165441e-01
5.270000e+02	7.154255e-01
5.280000e+02	7.194674e-01
5.290000e+02	7.182104e-01
5.300000e+02	7.166582e-01
5.310000e+02	7.177002e-01
5.320000e+02	7.193597e-01
5.330000e+02	7.155438e-01
5.340000e+02	7.195662e-01
5.350000e+02	7.163830e-01
5.360000e+02	7.196328e-01
5.370000e+02	7.209293e-01
5.380000e+02	7.195681e-01
5.390000e+02	7.189858e-01
5.400000e+02	7.221180e-01
5.410000e+02	7.202350e-01
5.420000e+02	7.183441e-01
5.430000e+02	7.151227e-01
5.440000e+02	7.143397e-01
5.450000e+02	7.163174e-01
5.460000e+02	7.116463e-01
5.470000e+02	7.120091e-01
5.480000e+02	7.103462e-01
5.490000e+02	7.083674e-01
5.500000e+02	7.063788e-01
5.510000e+02	7.077400e-01
5.520000e+02	7.028608e-01
5.530000e+02	7.030633e-01
5.540000e+02	6.980613e-01
5.550000e+02	6.943600e-01
5.560000e+02	6.917464e-01
5.570000e+02	6.910623e-01
5.580000e+02	6.867801e-01
5.590000e+02	6.820647e-01
5.600000e+02	6.800533e-01
5.610000e+02	6.777703e-01
5.620000e+02	6.714752e-01
5.630000e+02	6.647165e-01
5.640000e+02	6.638116e-01
5.650000e+02	6.615335e-01
5.660000e+02	6.558395e-01
5.670000e+02	6.498041e-01
5.680000e+02	6.492123e-01
5.690000e+02	6.460665e-01
5.700000e+02	6.416947e-01
5.710000e+02	6.385773e-01
5.720000e+02	6.332403e-01
5.730000e+02	6.316477e-01
5.740000e+02	6.286051e-01
5.750000e+02	6.272123e-01
5.760000e+02	6.207931e-01
5.770000e+02	6.156386e-01
5.780000e+02	6.149187e-01
5.790000e+02	6.141448e-01
5.800000e+02	6.084417e-01
5.810000e+02	6.077034e-01
5.820000e+02	6.076829e-01
5.830000e+02	6.036822e-01
5.840000e+02	6.018824e-01
5.850000e+02	6.012845e-01
5.860000e+02	6.003085e-01
5.870000e+02	5.993636e-01
5.880000e+02	5.973534e-01
5.890000e+02	5.981200e-01
5.900000e+02	5.988981e-01
5.910000e+02	5.973633e-01
5.920000e+02	5.955694e-01
5.930000e+02	5.963923e-01
5.940000e+02	5.951148e-01
5.950000e+02	5.969847e-01
5.960000e+02	5.971689e-01
5.970000e+02	5.943851e-01
5.980000e+02	5.967750e-01
5.990000e+02	5.963299e-01
6.000000e+02	5.969908e-01
6.010000e+02	5.971189e-01
6.020000e+02	5.965963e-01
6.030000e+02	5.992481e-01
6.040000e+02	5.996884e-01
6.050000e+02	5.990669e-01
6.060000e+02	6.006210e-01
6.070000e+02	6.007941e-01
6.080000e+02	5.999418e-01
6.090000e+02	5.993383e-01
6.100000e+02	6.031451e-01
6.110000e+02	6.038399e-01
6.120000e+02	6.047220e-01
6.130000e+02	6.048912e-01
6.140000e+02	6.045247e-01
6.150000e+02	6.054882e-01
6.160000e+02	6.067571e-01
6.170000e+02	6.068825e-01
6.180000e+02	6.094478e-01
6.190000e+02	6.080514e-01
6.200000e+02	6.091294e-01
6.210000e+02	6.116242e-01
6.220000e+02	6.114940e-01
6.230000e+02	6.098834e-01
6.240000e+02	6.139834e-01
6.250000e+02	6.114386e-01
6.260000e+02	6.119492e-01
6.270000e+02	6.138505e-01
6.280000e+02	6.132793e-01
6.290000e+02	6.158036e-01
6.300000e+02	6.166470e-01
6.310000e+02	6.176175e-01
6.320000e+02	6.173442e-01
6.330000e+02	6.174118e-01
6.340000e+02	6.163731e-01
6.350000e+02	6.183413e-01
6.360000e+02	6.155244e-01
6.370000e+02	6.157093e-01
6.380000e+02	6.160346e-01
6.390000e+02	6.157269e-01
6.400000e+02	6.150979e-01
6.410000e+02	6.127456e-01
6.420000e+02	6.109565e-01
6.430000e+02	6.093771e-01
6.440000e+02	6.078006e-01
6.450000e+02	6.068435e-01
6.460000e+02	6.035128e-01
6.470000e+02	5.995852e-01
6.480000e+02	5.999632e-01
6.490000e+02	5.943307e-01
6.500000e+02	5.928459e-01
6.510000e+02	5.884707e-01
6.520000e+02	5.844697e-01
6.530000e+02	5.809788e-01
6.540000e+02	5.773373e-01
6.550000e+02	5.708521e-01
6.560000e+02	5.673736e-01
6.570000e+02	5.659624e-01
6.580000e+02	5.619515e-01
6.590000e+02	5.581872e-01
6.600000e+02	5.522205e-01
6.610000e+02	5.496707e-01
6.620000e+02	5.448734e-01
6.630000e+02	5.430642e-01
6.640000e+02	5.405777e-01
6.650000e+02	5.389420e-01
6.660000e+02	5.376948e-01
6.670000e+02	5.341117e-01
6.680000e+02	5.359825e-01
6.690000e+02	5.352261e-01
6.700000e+02	5.368024e-01
6.710000e+02	5.357977e-01
6.720000e+02	5.388385e-01
6.730000e+02	5.384313e-01
6.740000e+02	5.402634e-01
6.750000e+02	5.403333e-01
6.760000e+02	5.409993e-01
6.770000e+02	5.425875e-01
6.780000e+02	5.402430e-01
6.790000e+02	5.391918e-01
6.800000e+02	5.392125e-01
6.810000e+02	5.355918e-01
6.820000e+02	5.318445e-01
6.830000e+02	5.240554e-01
6.840000e+02	5.200268e-01
6.850000e+02	5.133087e-01
6.860000e+02	5.073223e-01
6.870000e+02	5.013120e-01
6.880000e+02	4.955970e-01
6.890000e+02	4.903840e-01
6.900000e+02	4.855672e-01
6.910000e+02	4.803938e-01
6.920000e+02	4.785077e-01
6.930000e+02	4.760968e-01
6.940000e+02	4.779874e-01
6.950000e+02	4.796644e-01
6.960000e+02	4.832075e-01
6.970000e+02	4.873080e-01
6.980000e+02	4.929102e-01
6.990000e+02	4.986383e-01
7.000000e+02	5.075889e-01
7.010000e+02	5.190966e-01
7.020000e+02	5.272637e-01
7.030000e+02	5.374243e-01
7.040000e+02	5.455640e-01
7.050000e+02	5.532121e-01
7.060000e+02	5.609472e-01
7.070000e+02	5.649079e-01
7.080000e+02	5.698775e-01
7.090000e+02	5.713476e-01
7.100000e+02	5.717222e-01
7.110000e+02	5.694001e-01
7.120000e+02	5.683658e-01
7.130000e+02	5.635138e-01
7.140000e+02	5.584150e-01
7.150000e+02	5.518936e-01
7.160000e+02	5.473682e-01
7.170000e+02	5.428056e-01
7.180000e+02	5.368970e-01
7.190000e+02	5.334769e-01
7.200000e+02	5.298738e-01
7.210000e+02	5.278714e-01
7.220000e+02	5.263859e-01
7.230000e+02	5.255537e-01
7.240000e+02	5.271111e-01
7.250000e+02	5.294594e-01
7.260000e+02	5.309792e-01
7.270000e+02	5.359886e-01
7.280000e+02	5.386257e-01
7.290000e+02	5.433368e-01
7.300000e+02	5.456197e-01
7.310000e+02	5.484787e-01
7.320000e+02	5.497267e-01
7.330000e+02	5.508969e-01
7.340000e+02	5.494901e-01
7.350000e+02	5.444422e-01
7.360000e+02	5.386835e-01
7.370000e+02	5.316156e-01
7.380000e+02	5.232034e-01
7.390000e+02	5.114932e-01
7.400000e+02	4.985581e-01
7.410000e+02	4.859298e-01
7.420000e+02	4.729281e-01
7.430000e+02	4.601055e-01
7.440000e+02	4.460370e-01
7.450000e+02	4.330897e-01
7.460000e+02	4.217221e-01
7.470000e+02	4.117581e-01
7.480000e+02	4.024008e-01
7.490000e+02	3.959033e-01
7.500000e+02	3.909664e-01
7.510000e+02	3.881027e-01
7.520000e+02	3.887072e-01
7.530000e+02	3.920913e-01
7.540000e+02	3.968604e-01
7.550000e+02	4.037314e-01
7.560000e+02	4.152209e-01
7.570000e+02	4.269201e-01
7.580000e+02	4.416587e-01
7.590000e+02	4.567469e-01
7.600000e+02	4.780004e-01
7.610000e+02	4.989135e-01
7.620000e+02	5.207975e-01
7.630000e+02	5.463438e-01
7.640000e+02	5.711827e-01
7.650000e+02	5.968014e-01
7.660000e+02	6.208705e-01
7.670000e+02	6.447583e-01
7.680000e+02	6.613851e-01
7.690000e+02	6.715206e-01
7.700000e+02	6.730039e-01
7.710000e+02	6.665793e-01
7.720000e+02	6.526191e-01
7.730000e+02	6.294072e-01
7.740000e+02	5.993329e-01
7.750000e+02	5.660743e-01
7.760000e+02	5.350934e-01
7.770000e+02	5.034488e-01
7.780000e+02	4.749999e-01
7.790000e+02	4.524113e-01
7.800000e+02	4.361320e-01
7.810000e+02	4.199811e-01
7.820000e+02	4.084246e-01
7.830000e+02	4.015755e-01
7.840000e+02	3.970563e-01
7.850000e+02	3.952039e-01
7.860000e+02	3.952147e-01
7.870000e+02	3.994550e-01
7.880000e+02	4.044472e-01
7.890000e+02	4.106829e-01
7.900000e+02	4.176646e-01
7.910000e+02	4.270251e-01
7.920000e+02	4.343932e-01
7.930000e+02	4.458612e-01
7.940000e+02	4.600801e-01
7.950000e+02	4.712751e-01
7.960000e+02	4.853279e-01
7.970000e+02	5.020926e-01
7.980000e+02	5.218868e-01
7.990000e+02	5.415441e-01
8.000000e+02	5.640161e-01
8.010000e+02	5.861259e-01
8.020000e+02	6.071152e-01
8.030000e+02	6.248350e-01
8.040000e+02	6.381907e-01
8.050000e+02	6.503187e-01
8.060000e+02	6.543680e-01
8.070000e+02	6.501146e-01
8.080000e+02	6.372737e-01
8.090000e+02	6.185185e-01
8.100000e+02	5.898784e-01
8.110000e+02	5.566085e-01
8.120000e+02	5.206780e-01
8.130000e+02	4.855104e-01
8.140000e+02	4.525163e-01
8.150000e+02	4.201614e-01
8.160000e+02	3.925377e-01
8.170000e+02	3.664211e-01
8.180000e+02	3.454439e-01
8.190000e+02	3.258344e-01
8.200000e+02	3.101096e-01
8.210000e+02	2.967732e-01
8.220000e+02	2.848301e-01
8.230000e+02	2.743042e-01
8.240000e+02	2.672377e-01
8.250000e+02	2.588569e-01
8.260000e+02	2.543662e-01
8.270000e+02	2.491721e-01
8.280000e+02	2.447131e-01
8.290000e+02	2.420554e-01
8.300000e+02	2.410133e-01
8.310000e+02	2.412189e-01
8.320000e+02	2.402799e-01
8.330000e+02	2.415520e-01
8.340000e+02	2.422703e-01
8.350000e+02	2.458710e-01
8.360000e+02	2.495178e-01
8.370000e+02	2.553136e-01
8.380000e+02	2.598691e-01
8.390000e+02	2.660420e-01
8.400000e+02	2.744640e-01
8.410000e+02	2.818704e-01
8.420000e+02	2.922816e-01
8.430000e+02	3.018577e-01
8.440000e+02	3.119916e-01
8.450000e+02	3.259315e-01
8.460000e+02	3.378276e-01
8.470000e+02	3.513688e-01
8.480000e+02	3.668462e-01
8.490000e+02	3.831290e-01
8.500000e+02	4.007066e-01
8.510000e+02	4.181585e-01
8.520000e+02	4.373464e-01
8.530000e+02	4.581227e-01
8.540000e+02	4.770762e-01
8.550000e+02	5.011973e-01
8.560000e+02	5.211757e-01
8.570000e+02	5.418886e-01
8.580000e+02	5.624333e-01
8.590000e+02	5.776130e-01
8.600000e+02	5.957942e-01
8.610000e+02	6.059327e-01
8.620000e+02	6.143563e-01
8.630000e+02	6.179976e-01
8.640000e+02	6.167589e-01
8.650000e+02	6.131263e-01
8.660000e+02	6.022120e-01
8.670000e+02	5.878444e-01
8.680000e+02	5.727421e-01
8.690000e+02	5.552405e-01
8.700000e+02	5.350550e-01
8.710000e+02	5.173251e-01
8.720000e+02	5.000773e-01
8.730000e+02	4.834675e-01
8.740000e+02	4.678855e-01
8.750000e+02	4.572310e-01
8.760000e+02	4.479548e-01
8.770000e+02	4.401988e-01
8.780000e+02	4.349607e-01
8.790000e+02	4.274967e-01
8.800000e+02	4.239404e-01
8.810000e+02	4.210580e-01
8.820000e+02	4.187458e-01
8.830000e+02	4.192108e-01
8.840000e+02	4.188800e-01
8.850000e+02	4.172581e-01
8.860000e+02	4.165459e-01
8.870000e+02	4.154401e-01
8.880000e+02	4.145339e-01
8.890000e+02	4.113214e-01
8.900000e+02	4.081530e-01
8.910000e+02	4.043856e-01
8.920000e+02	3.999865e-01
8.930000e+02	3.935228e-01
8.940000e+02	3.881062e-01
8.950000e+02	3.785766e-01
8.960000e+02	3.685626e-01
8.970000e+02	3.605400e-01
8.980000e+02	3.499460e-01
8.990000e+02	3.388189e-01
9.000000e+02	3.268986e-01
9.010000e+02	3.154049e-01
9.020000e+02	3.041267e-01
9.030000e+02	2.921145e-01
9.040000e+02	2.783358e-01
9.050000e+02	2.682380e-01
9.060000e+02	2.554161e-01
9.070000e+02	2.454817e-01
9.080000e+02	2.335196e-01
9.090000e+02	2.236292e-01
9.100000e+02	2.117020e-01
9.110000e+02	2.017907e-01
9.120000e+02	1.919262e-01
9.130000e+02	1.817622e-01
9.140000e+02	1.720986e-01
9.150000e+02	1.641755e-01
9.160000e+02	1.541807e-01
9.170000e+02	1.470021e-01
9.180000e+02	1.390281e-01
9.190000e+02	1.310087e-01
9.200000e+02	1.241360e-01
9.210000e+02	1.180059e-01
9.220000e+02	1.112238e-01
9.230000e+02	1.043451e-01
9.240000e+02	9.945588e-02
9.250000e+02	9.424361e-02
9.260000e+02	8.880935e-02
9.270000e+02	8.500184e-02
9.280000e+02	8.099871e-02
9.290000e+02	7.790010e-02
9.300000e+02	7.492194e-02
9.310000e+02	7.252856e-02
9.320000e+02	7.035382e-02
9.330000e+02	6.880899e-02
9.340000e+02	6.790553e-02
9.350000e+02	6.736009e-02
9.360000e+02	6.694734e-02
9.370000e+02	6.727809e-02
9.380000e+02	6.788837e-02
9.390000e+02	6.963366e-02
9.400000e+02	7.140975e-02
9.410000e+02	7.384999e-02
9.420000e+02	7.678796e-02
9.430000e+02	7.927760e-02
9.440000e+02	8.262944e-02
9.450000e+02	8.595220e-02
9.460000e+02	9.058562e-02
9.470000e+02	9.470698e-02
9.480000e+02	9.999689e-02
9.490000e+02	1.035204e-01
9.500000e+02	1.085087e-01
9.510000e+02	1.145798e-01
9.520000e+02	1.203943e-01
9.530000e+02	1.252771e-01
9.540000e+02	1.315583e-01
9.550000e+02	1.376061e-01
9.560000e+02	1.451220e-01
9.570000e+02	1.511114e-01
9.580000e+02	1.573130e-01
9.590000e+02	1.639233e-01
9.600000e+02	1.709155e-01
9.610000e+02	1.771661e-01
9.620000e+02	1.835123e-01
9.630000e+02	1.910801e-01
9.640000e+02	1.972051e-01
9.650000e+02	2.035809e-01
9.660000e+02	2.097713e-01
9.670000e+02	2.152893e-01
9.680000e+02	2.209829e-01
9.690000e+02	2.281161e-01
9.700000e+02	2.309930e-01
9.710000e+02	2.374133e-01
9.720000e+02	2.423551e-01
9.730000e+02	2.470779e-01
9.740000e+02	2.507627e-01
9.750000e+02	2.537469e-01
9.760000e+02	2.577886e-01
9.770000e+02	2.607095e-01
9.780000e+02	2.637046e-01
9.790000e+02	2.658996e-01
9.800000e+02	2.691781e-01
9.810000e+02	2.703785e-01
9.820000e+02	2.727563e-01
9.830000e+02	2.746264e-01
9.840000e+02	2.742725e-01
9.850000e+02	2.772571e-01
9.860000e+02	2.791947e-01
9.870000e+02	2.780187e-01
9.880000e+02	2.795496e-01
9.890000e+02	2.822832e-01
9.900000e+02	2.841797e-01
9.910000e+02	2.846498e-01
9.920000e+02	2.864004e-01
9.930000e+02	2.878351e-01
9.940000e+02	2.880455e-01
9.950000e+02	2.928583e-01
9.960000e+02	2.946697e-01
9.970000e+02	2.963626e-01
9.980000e+02	2.989216e-01
9.990000e+02	3.031936e-01
1.000000e+03	3.059930e-01
1.001000e+03	3.082728e-01
1.002000e+03	3.135127e-01
1.003000e+03	3.182149e-01
1.004000e+03	3.219932e-01
1.005000e+03	3.290728e-01
1.006000e+03	3.330758e-01
1.007000e+03	3.392727e-01
1.008000e+03	3.457911e-01
1.009000e+03	3.555677e-01
1.010000e+03	3.631667e-01
1.011000e+03	3.683615e-01
1.012000e+03	3.759475e-01
1.013000e+03	3.855351e-01
1.014000e+03	3.968890e-01
1.015000e+03	4.041831e-01
1.016000e+03	4.125664e-01
1.017000e+03	4.219446e-01
1.018000e+03	4.336443e-01
1.019000e+03	4.396736e-01
1.020000e+03	4.531966e-01
1.021000e+03	4.607515e-01
1.022000e+03	4.700595e-01
1.023000e+03	4.806854e-01
1.024000e+03	4.874223e-01
1.025000e+03	5.030254e-01
1.026000e+03	5.096800e-01
1.027000e+03	5.195966e-01
1.028000e+03	5.271777e-01
1.029000e+03	5.349021e-01
1.030000e+03	5.403271e-01
1.031000e+03	5.499349e-01
1.032000e+03	5.617723e-01
1.033000e+03	5.613534e-01
1.034000e+03	5.674447e-01
1.035000e+03	5.668095e-01
1.036000e+03	5.675474e-01
1.037000e+03	5.767810e-01
1.038000e+03	5.724794e-01
1.039000e+03	5.689151e-01
1.040000e+03	5.731107e-01
1.041000e+03	5.726283e-01
1.042000e+03	5.650162e-01
1.043000e+03	5.685658e-01
1.044000e+03	5.682333e-01
1.045000e+03	5.675084e-01
1.046000e+03	5.633217e-01
1.047000e+03	5.624149e-01
1.048000e+03	5.610443e-01
1.049000e+03	5.604849e-01
1.050000e+03	5.555476e-01
1.051000e+03	5.488596e-01
1.052000e+03	5.533649e-01
1.053000e+03	5.525256e-01
1.054000e+03	5.531251e-01
1.055000e+03	5.502297e-01
1.056000e+03	5.517542e-01
1.057000e+03	5.499789e-01
1.058000e+03	5.472133e-01
1.059000e+03	5.498636e-01
1.060000e+03	5.491694e-01
1.061000e+03	5.443866e-01
1.062000e+03	5.457713e-01
1.063000e+03	5.377731e-01
1.064000e+03	5.395996e-01
1.065000e+03	5.402750e-01
1.066000e+03	5.364888e-01
1.067000e+03	5.445452e-01
1.068000e+03	5.375897e-01
1.069000e+03	5.241256e-01
1.070000e+03	5.377860e-01
1.071000e+03	5.294698e-01
1.072000e+03	5.237964e-01
1.073000e+03	5.317174e-01
1.074000e+03	5.250098e-01
1.075000e+03	5.209922e-01
