350.00	4.59310E-01
360.00	6.54125E-01
370.00	8.80771E-01
380.00	1.14645E00
390.00	1.46498E00
400.00	1.83899E00
420.00	2.76710E00
440.00	3.97599E00
460.00	5.50123E00
480.00	7.33541E00
500.00	9.43062E00
525.00	1.23154E01
550.00	1.55353E01
575.00	1.89993E01
600.00	2.25836E01
650.00	2.97019E01
700.00	3.66565E01
750.00	4.50527E01
800.00	5.24419E01
850.00	5.90418E01
900.00	6.80562E01
950.00	7.67993E01
1000.00	8.42280E01
1050.00	8.70570E01
1100.00	7.86594E01
