<?xml version="1.0" encoding="utf-8" standalone="no"?>
<!DOCTYPE svg PUBLIC "-//W3C//DTD SVG 1.1//EN"
  "http://www.w3.org/Graphics/SVG/1.1/DTD/svg11.dtd">
<svg xmlns:xlink="http://www.w3.org/1999/xlink" width="425.748125pt" height="310.86825pt" viewBox="0 0 425.748125 310.86825" xmlns="http://www.w3.org/2000/svg" version="1.1">
 <metadata>
  <rdf:RDF xmlns:dc="http://purl.org/dc/elements/1.1/" xmlns:cc="http://creativecommons.org/ns#" xmlns:rdf="http://www.w3.org/1999/02/22-rdf-syntax-ns#">
   <cc:Work>
    <dc:type rdf:resource="http://purl.org/dc/dcmitype/StillImage"/>
    <dc:date>2024-09-23T00:48:48.914444</dc:date>
    <dc:format>image/svg+xml</dc:format>
    <dc:creator>
     <cc:Agent>
      <dc:title>Matplotlib v3.9.2, https://matplotlib.org/</dc:title>
     </cc:Agent>
    </dc:creator>
   </cc:Work>
  </rdf:RDF>
 </metadata>
 <defs>
  <style type="text/css">*{stroke-linejoin: round; stroke-linecap: butt}</style>
 </defs>
 <g id="figure_1">
  <g id="patch_1">
   <path d="M 0 310.86825 
L 425.748125 310.86825 
L 425.748125 0 
L 0 0 
z
" style="fill: #ffffff"/>
  </g>
  <g id="axes_1">
   <g id="patch_2">
    <path d="M 48.703125 273.312 
L 405.823125 273.312 
L 405.823125 7.2 
L 48.703125 7.2 
z
" style="fill: #ffffff"/>
   </g>
   <g id="matplotlib.axis_1">
    <g id="xtick_1">
     <g id="line2d_1">
      <path d="M 48.703125 273.312 
L 48.703125 7.2 
" clip-path="url(#paab997709e)" style="fill: none; stroke: #b0b0b0; stroke-width: 0.8; stroke-linecap: square"/>
     </g>
     <g id="line2d_2">
      <defs>
       <path id="me571836fda" d="M 0 0 
L 0 3.5 
" style="stroke: #000000; stroke-width: 0.8"/>
      </defs>
      <g>
       <use xlink:href="#me571836fda" x="48.703125" y="273.312" style="stroke: #000000; stroke-width: 0.8"/>
      </g>
     </g>
     <g id="text_1">
      <!-- 200 -->
      <g transform="translate(39.159375 287.910437) scale(0.1 -0.1)">
       <defs>
        <path id="DejaVuSans-32" d="M 1228 531 
L 3431 531 
L 3431 0 
L 469 0 
L 469 531 
Q 828 903 1448 1529 
Q 2069 2156 2228 2338 
Q 2531 2678 2651 2914 
Q 2772 3150 2772 3378 
Q 2772 3750 2511 3984 
Q 2250 4219 1831 4219 
Q 1534 4219 1204 4116 
Q 875 4013 500 3803 
L 500 4441 
Q 881 4594 1212 4672 
Q 1544 4750 1819 4750 
Q 2544 4750 2975 4387 
Q 3406 4025 3406 3419 
Q 3406 3131 3298 2873 
Q 3191 2616 2906 2266 
Q 2828 2175 2409 1742 
Q 1991 1309 1228 531 
z
" transform="scale(0.015625)"/>
        <path id="DejaVuSans-30" d="M 2034 4250 
Q 1547 4250 1301 3770 
Q 1056 3291 1056 2328 
Q 1056 1369 1301 889 
Q 1547 409 2034 409 
Q 2525 409 2770 889 
Q 3016 1369 3016 2328 
Q 3016 3291 2770 3770 
Q 2525 4250 2034 4250 
z
M 2034 4750 
Q 2819 4750 3233 4129 
Q 3647 3509 3647 2328 
Q 3647 1150 3233 529 
Q 2819 -91 2034 -91 
Q 1250 -91 836 529 
Q 422 1150 422 2328 
Q 422 3509 836 4129 
Q 1250 4750 2034 4750 
z
" transform="scale(0.015625)"/>
       </defs>
       <use xlink:href="#DejaVuSans-32"/>
       <use xlink:href="#DejaVuSans-30" x="63.623047"/>
       <use xlink:href="#DejaVuSans-30" x="127.246094"/>
      </g>
     </g>
    </g>
    <g id="xtick_2">
     <g id="line2d_3">
      <path d="M 88.383125 273.312 
L 88.383125 7.2 
" clip-path="url(#paab997709e)" style="fill: none; stroke: #b0b0b0; stroke-width: 0.8; stroke-linecap: square"/>
     </g>
     <g id="line2d_4">
      <g>
       <use xlink:href="#me571836fda" x="88.383125" y="273.312" style="stroke: #000000; stroke-width: 0.8"/>
      </g>
     </g>
     <g id="text_2">
      <!-- 300 -->
      <g transform="translate(78.839375 287.910437) scale(0.1 -0.1)">
       <defs>
        <path id="DejaVuSans-33" d="M 2597 2516 
Q 3050 2419 3304 2112 
Q 3559 1806 3559 1356 
Q 3559 666 3084 287 
Q 2609 -91 1734 -91 
Q 1441 -91 1130 -33 
Q 819 25 488 141 
L 488 750 
Q 750 597 1062 519 
Q 1375 441 1716 441 
Q 2309 441 2620 675 
Q 2931 909 2931 1356 
Q 2931 1769 2642 2001 
Q 2353 2234 1838 2234 
L 1294 2234 
L 1294 2753 
L 1863 2753 
Q 2328 2753 2575 2939 
Q 2822 3125 2822 3475 
Q 2822 3834 2567 4026 
Q 2313 4219 1838 4219 
Q 1578 4219 1281 4162 
Q 984 4106 628 3988 
L 628 4550 
Q 988 4650 1302 4700 
Q 1616 4750 1894 4750 
Q 2613 4750 3031 4423 
Q 3450 4097 3450 3541 
Q 3450 3153 3228 2886 
Q 3006 2619 2597 2516 
z
" transform="scale(0.015625)"/>
       </defs>
       <use xlink:href="#DejaVuSans-33"/>
       <use xlink:href="#DejaVuSans-30" x="63.623047"/>
       <use xlink:href="#DejaVuSans-30" x="127.246094"/>
      </g>
     </g>
    </g>
    <g id="xtick_3">
     <g id="line2d_5">
      <path d="M 128.063125 273.312 
L 128.063125 7.2 
" clip-path="url(#paab997709e)" style="fill: none; stroke: #b0b0b0; stroke-width: 0.8; stroke-linecap: square"/>
     </g>
     <g id="line2d_6">
      <g>
       <use xlink:href="#me571836fda" x="128.063125" y="273.312" style="stroke: #000000; stroke-width: 0.8"/>
      </g>
     </g>
     <g id="text_3">
      <!-- 400 -->
      <g transform="translate(118.519375 287.910437) scale(0.1 -0.1)">
       <defs>
        <path id="DejaVuSans-34" d="M 2419 4116 
L 825 1625 
L 2419 1625 
L 2419 4116 
z
M 2253 4666 
L 3047 4666 
L 3047 1625 
L 3713 1625 
L 3713 1100 
L 3047 1100 
L 3047 0 
L 2419 0 
L 2419 1100 
L 313 1100 
L 313 1709 
L 2253 4666 
z
" transform="scale(0.015625)"/>
       </defs>
       <use xlink:href="#DejaVuSans-34"/>
       <use xlink:href="#DejaVuSans-30" x="63.623047"/>
       <use xlink:href="#DejaVuSans-30" x="127.246094"/>
      </g>
     </g>
    </g>
    <g id="xtick_4">
     <g id="line2d_7">
      <path d="M 167.743125 273.312 
L 167.743125 7.2 
" clip-path="url(#paab997709e)" style="fill: none; stroke: #b0b0b0; stroke-width: 0.8; stroke-linecap: square"/>
     </g>
     <g id="line2d_8">
      <g>
       <use xlink:href="#me571836fda" x="167.743125" y="273.312" style="stroke: #000000; stroke-width: 0.8"/>
      </g>
     </g>
     <g id="text_4">
      <!-- 500 -->
      <g transform="translate(158.199375 287.910437) scale(0.1 -0.1)">
       <defs>
        <path id="DejaVuSans-35" d="M 691 4666 
L 3169 4666 
L 3169 4134 
L 1269 4134 
L 1269 2991 
Q 1406 3038 1543 3061 
Q 1681 3084 1819 3084 
Q 2600 3084 3056 2656 
Q 3513 2228 3513 1497 
Q 3513 744 3044 326 
Q 2575 -91 1722 -91 
Q 1428 -91 1123 -41 
Q 819 9 494 109 
L 494 744 
Q 775 591 1075 516 
Q 1375 441 1709 441 
Q 2250 441 2565 725 
Q 2881 1009 2881 1497 
Q 2881 1984 2565 2268 
Q 2250 2553 1709 2553 
Q 1456 2553 1204 2497 
Q 953 2441 691 2322 
L 691 4666 
z
" transform="scale(0.015625)"/>
       </defs>
       <use xlink:href="#DejaVuSans-35"/>
       <use xlink:href="#DejaVuSans-30" x="63.623047"/>
       <use xlink:href="#DejaVuSans-30" x="127.246094"/>
      </g>
     </g>
    </g>
    <g id="xtick_5">
     <g id="line2d_9">
      <path d="M 207.423125 273.312 
L 207.423125 7.2 
" clip-path="url(#paab997709e)" style="fill: none; stroke: #b0b0b0; stroke-width: 0.8; stroke-linecap: square"/>
     </g>
     <g id="line2d_10">
      <g>
       <use xlink:href="#me571836fda" x="207.423125" y="273.312" style="stroke: #000000; stroke-width: 0.8"/>
      </g>
     </g>
     <g id="text_5">
      <!-- 600 -->
      <g transform="translate(197.879375 287.910437) scale(0.1 -0.1)">
       <defs>
        <path id="DejaVuSans-36" d="M 2113 2584 
Q 1688 2584 1439 2293 
Q 1191 2003 1191 1497 
Q 1191 994 1439 701 
Q 1688 409 2113 409 
Q 2538 409 2786 701 
Q 3034 994 3034 1497 
Q 3034 2003 2786 2293 
Q 2538 2584 2113 2584 
z
M 3366 4563 
L 3366 3988 
Q 3128 4100 2886 4159 
Q 2644 4219 2406 4219 
Q 1781 4219 1451 3797 
Q 1122 3375 1075 2522 
Q 1259 2794 1537 2939 
Q 1816 3084 2150 3084 
Q 2853 3084 3261 2657 
Q 3669 2231 3669 1497 
Q 3669 778 3244 343 
Q 2819 -91 2113 -91 
Q 1303 -91 875 529 
Q 447 1150 447 2328 
Q 447 3434 972 4092 
Q 1497 4750 2381 4750 
Q 2619 4750 2861 4703 
Q 3103 4656 3366 4563 
z
" transform="scale(0.015625)"/>
       </defs>
       <use xlink:href="#DejaVuSans-36"/>
       <use xlink:href="#DejaVuSans-30" x="63.623047"/>
       <use xlink:href="#DejaVuSans-30" x="127.246094"/>
      </g>
     </g>
    </g>
    <g id="xtick_6">
     <g id="line2d_11">
      <path d="M 247.103125 273.312 
L 247.103125 7.2 
" clip-path="url(#paab997709e)" style="fill: none; stroke: #b0b0b0; stroke-width: 0.8; stroke-linecap: square"/>
     </g>
     <g id="line2d_12">
      <g>
       <use xlink:href="#me571836fda" x="247.103125" y="273.312" style="stroke: #000000; stroke-width: 0.8"/>
      </g>
     </g>
     <g id="text_6">
      <!-- 700 -->
      <g transform="translate(237.559375 287.910437) scale(0.1 -0.1)">
       <defs>
        <path id="DejaVuSans-37" d="M 525 4666 
L 3525 4666 
L 3525 4397 
L 1831 0 
L 1172 0 
L 2766 4134 
L 525 4134 
L 525 4666 
z
" transform="scale(0.015625)"/>
       </defs>
       <use xlink:href="#DejaVuSans-37"/>
       <use xlink:href="#DejaVuSans-30" x="63.623047"/>
       <use xlink:href="#DejaVuSans-30" x="127.246094"/>
      </g>
     </g>
    </g>
    <g id="xtick_7">
     <g id="line2d_13">
      <path d="M 286.783125 273.312 
L 286.783125 7.2 
" clip-path="url(#paab997709e)" style="fill: none; stroke: #b0b0b0; stroke-width: 0.8; stroke-linecap: square"/>
     </g>
     <g id="line2d_14">
      <g>
       <use xlink:href="#me571836fda" x="286.783125" y="273.312" style="stroke: #000000; stroke-width: 0.8"/>
      </g>
     </g>
     <g id="text_7">
      <!-- 800 -->
      <g transform="translate(277.239375 287.910437) scale(0.1 -0.1)">
       <defs>
        <path id="DejaVuSans-38" d="M 2034 2216 
Q 1584 2216 1326 1975 
Q 1069 1734 1069 1313 
Q 1069 891 1326 650 
Q 1584 409 2034 409 
Q 2484 409 2743 651 
Q 3003 894 3003 1313 
Q 3003 1734 2745 1975 
Q 2488 2216 2034 2216 
z
M 1403 2484 
Q 997 2584 770 2862 
Q 544 3141 544 3541 
Q 544 4100 942 4425 
Q 1341 4750 2034 4750 
Q 2731 4750 3128 4425 
Q 3525 4100 3525 3541 
Q 3525 3141 3298 2862 
Q 3072 2584 2669 2484 
Q 3125 2378 3379 2068 
Q 3634 1759 3634 1313 
Q 3634 634 3220 271 
Q 2806 -91 2034 -91 
Q 1263 -91 848 271 
Q 434 634 434 1313 
Q 434 1759 690 2068 
Q 947 2378 1403 2484 
z
M 1172 3481 
Q 1172 3119 1398 2916 
Q 1625 2713 2034 2713 
Q 2441 2713 2670 2916 
Q 2900 3119 2900 3481 
Q 2900 3844 2670 4047 
Q 2441 4250 2034 4250 
Q 1625 4250 1398 4047 
Q 1172 3844 1172 3481 
z
" transform="scale(0.015625)"/>
       </defs>
       <use xlink:href="#DejaVuSans-38"/>
       <use xlink:href="#DejaVuSans-30" x="63.623047"/>
       <use xlink:href="#DejaVuSans-30" x="127.246094"/>
      </g>
     </g>
    </g>
    <g id="xtick_8">
     <g id="line2d_15">
      <path d="M 326.463125 273.312 
L 326.463125 7.2 
" clip-path="url(#paab997709e)" style="fill: none; stroke: #b0b0b0; stroke-width: 0.8; stroke-linecap: square"/>
     </g>
     <g id="line2d_16">
      <g>
       <use xlink:href="#me571836fda" x="326.463125" y="273.312" style="stroke: #000000; stroke-width: 0.8"/>
      </g>
     </g>
     <g id="text_8">
      <!-- 900 -->
      <g transform="translate(316.919375 287.910437) scale(0.1 -0.1)">
       <defs>
        <path id="DejaVuSans-39" d="M 703 97 
L 703 672 
Q 941 559 1184 500 
Q 1428 441 1663 441 
Q 2288 441 2617 861 
Q 2947 1281 2994 2138 
Q 2813 1869 2534 1725 
Q 2256 1581 1919 1581 
Q 1219 1581 811 2004 
Q 403 2428 403 3163 
Q 403 3881 828 4315 
Q 1253 4750 1959 4750 
Q 2769 4750 3195 4129 
Q 3622 3509 3622 2328 
Q 3622 1225 3098 567 
Q 2575 -91 1691 -91 
Q 1453 -91 1209 -44 
Q 966 3 703 97 
z
M 1959 2075 
Q 2384 2075 2632 2365 
Q 2881 2656 2881 3163 
Q 2881 3666 2632 3958 
Q 2384 4250 1959 4250 
Q 1534 4250 1286 3958 
Q 1038 3666 1038 3163 
Q 1038 2656 1286 2365 
Q 1534 2075 1959 2075 
z
" transform="scale(0.015625)"/>
       </defs>
       <use xlink:href="#DejaVuSans-39"/>
       <use xlink:href="#DejaVuSans-30" x="63.623047"/>
       <use xlink:href="#DejaVuSans-30" x="127.246094"/>
      </g>
     </g>
    </g>
    <g id="xtick_9">
     <g id="line2d_17">
      <path d="M 366.143125 273.312 
L 366.143125 7.2 
" clip-path="url(#paab997709e)" style="fill: none; stroke: #b0b0b0; stroke-width: 0.8; stroke-linecap: square"/>
     </g>
     <g id="line2d_18">
      <g>
       <use xlink:href="#me571836fda" x="366.143125" y="273.312" style="stroke: #000000; stroke-width: 0.8"/>
      </g>
     </g>
     <g id="text_9">
      <!-- 1000 -->
      <g transform="translate(353.418125 287.910437) scale(0.1 -0.1)">
       <defs>
        <path id="DejaVuSans-31" d="M 794 531 
L 1825 531 
L 1825 4091 
L 703 3866 
L 703 4441 
L 1819 4666 
L 2450 4666 
L 2450 531 
L 3481 531 
L 3481 0 
L 794 0 
L 794 531 
z
" transform="scale(0.015625)"/>
       </defs>
       <use xlink:href="#DejaVuSans-31"/>
       <use xlink:href="#DejaVuSans-30" x="63.623047"/>
       <use xlink:href="#DejaVuSans-30" x="127.246094"/>
       <use xlink:href="#DejaVuSans-30" x="190.869141"/>
      </g>
     </g>
    </g>
    <g id="xtick_10">
     <g id="line2d_19">
      <path d="M 405.823125 273.312 
L 405.823125 7.2 
" clip-path="url(#paab997709e)" style="fill: none; stroke: #b0b0b0; stroke-width: 0.8; stroke-linecap: square"/>
     </g>
     <g id="line2d_20">
      <g>
       <use xlink:href="#me571836fda" x="405.823125" y="273.312" style="stroke: #000000; stroke-width: 0.8"/>
      </g>
     </g>
     <g id="text_10">
      <!-- 1100 -->
      <g transform="translate(393.098125 287.910437) scale(0.1 -0.1)">
       <use xlink:href="#DejaVuSans-31"/>
       <use xlink:href="#DejaVuSans-31" x="63.623047"/>
       <use xlink:href="#DejaVuSans-30" x="127.246094"/>
       <use xlink:href="#DejaVuSans-30" x="190.869141"/>
      </g>
     </g>
    </g>
    <g id="text_11">
     <!-- Wavelangth [nm] -->
     <g transform="translate(184.083438 301.588562) scale(0.1 -0.1)">
      <defs>
       <path id="DejaVuSans-57" d="M 213 4666 
L 850 4666 
L 1831 722 
L 2809 4666 
L 3519 4666 
L 4500 722 
L 5478 4666 
L 6119 4666 
L 4947 0 
L 4153 0 
L 3169 4050 
L 2175 0 
L 1381 0 
L 213 4666 
z
" transform="scale(0.015625)"/>
       <path id="DejaVuSans-61" d="M 2194 1759 
Q 1497 1759 1228 1600 
Q 959 1441 959 1056 
Q 959 750 1161 570 
Q 1363 391 1709 391 
Q 2188 391 2477 730 
Q 2766 1069 2766 1631 
L 2766 1759 
L 2194 1759 
z
M 3341 1997 
L 3341 0 
L 2766 0 
L 2766 531 
Q 2569 213 2275 61 
Q 1981 -91 1556 -91 
Q 1019 -91 701 211 
Q 384 513 384 1019 
Q 384 1609 779 1909 
Q 1175 2209 1959 2209 
L 2766 2209 
L 2766 2266 
Q 2766 2663 2505 2880 
Q 2244 3097 1772 3097 
Q 1472 3097 1187 3025 
Q 903 2953 641 2809 
L 641 3341 
Q 956 3463 1253 3523 
Q 1550 3584 1831 3584 
Q 2591 3584 2966 3190 
Q 3341 2797 3341 1997 
z
" transform="scale(0.015625)"/>
       <path id="DejaVuSans-76" d="M 191 3500 
L 800 3500 
L 1894 563 
L 2988 3500 
L 3597 3500 
L 2284 0 
L 1503 0 
L 191 3500 
z
" transform="scale(0.015625)"/>
       <path id="DejaVuSans-65" d="M 3597 1894 
L 3597 1613 
L 953 1613 
Q 991 1019 1311 708 
Q 1631 397 2203 397 
Q 2534 397 2845 478 
Q 3156 559 3463 722 
L 3463 178 
Q 3153 47 2828 -22 
Q 2503 -91 2169 -91 
Q 1331 -91 842 396 
Q 353 884 353 1716 
Q 353 2575 817 3079 
Q 1281 3584 2069 3584 
Q 2775 3584 3186 3129 
Q 3597 2675 3597 1894 
z
M 3022 2063 
Q 3016 2534 2758 2815 
Q 2500 3097 2075 3097 
Q 1594 3097 1305 2825 
Q 1016 2553 972 2059 
L 3022 2063 
z
" transform="scale(0.015625)"/>
       <path id="DejaVuSans-6c" d="M 603 4863 
L 1178 4863 
L 1178 0 
L 603 0 
L 603 4863 
z
" transform="scale(0.015625)"/>
       <path id="DejaVuSans-6e" d="M 3513 2113 
L 3513 0 
L 2938 0 
L 2938 2094 
Q 2938 2591 2744 2837 
Q 2550 3084 2163 3084 
Q 1697 3084 1428 2787 
Q 1159 2491 1159 1978 
L 1159 0 
L 581 0 
L 581 3500 
L 1159 3500 
L 1159 2956 
Q 1366 3272 1645 3428 
Q 1925 3584 2291 3584 
Q 2894 3584 3203 3211 
Q 3513 2838 3513 2113 
z
" transform="scale(0.015625)"/>
       <path id="DejaVuSans-67" d="M 2906 1791 
Q 2906 2416 2648 2759 
Q 2391 3103 1925 3103 
Q 1463 3103 1205 2759 
Q 947 2416 947 1791 
Q 947 1169 1205 825 
Q 1463 481 1925 481 
Q 2391 481 2648 825 
Q 2906 1169 2906 1791 
z
M 3481 434 
Q 3481 -459 3084 -895 
Q 2688 -1331 1869 -1331 
Q 1566 -1331 1297 -1286 
Q 1028 -1241 775 -1147 
L 775 -588 
Q 1028 -725 1275 -790 
Q 1522 -856 1778 -856 
Q 2344 -856 2625 -561 
Q 2906 -266 2906 331 
L 2906 616 
Q 2728 306 2450 153 
Q 2172 0 1784 0 
Q 1141 0 747 490 
Q 353 981 353 1791 
Q 353 2603 747 3093 
Q 1141 3584 1784 3584 
Q 2172 3584 2450 3431 
Q 2728 3278 2906 2969 
L 2906 3500 
L 3481 3500 
L 3481 434 
z
" transform="scale(0.015625)"/>
       <path id="DejaVuSans-74" d="M 1172 4494 
L 1172 3500 
L 2356 3500 
L 2356 3053 
L 1172 3053 
L 1172 1153 
Q 1172 725 1289 603 
Q 1406 481 1766 481 
L 2356 481 
L 2356 0 
L 1766 0 
Q 1100 0 847 248 
Q 594 497 594 1153 
L 594 3053 
L 172 3053 
L 172 3500 
L 594 3500 
L 594 4494 
L 1172 4494 
z
" transform="scale(0.015625)"/>
       <path id="DejaVuSans-68" d="M 3513 2113 
L 3513 0 
L 2938 0 
L 2938 2094 
Q 2938 2591 2744 2837 
Q 2550 3084 2163 3084 
Q 1697 3084 1428 2787 
Q 1159 2491 1159 1978 
L 1159 0 
L 581 0 
L 581 4863 
L 1159 4863 
L 1159 2956 
Q 1366 3272 1645 3428 
Q 1925 3584 2291 3584 
Q 2894 3584 3203 3211 
Q 3513 2838 3513 2113 
z
" transform="scale(0.015625)"/>
       <path id="DejaVuSans-20" transform="scale(0.015625)"/>
       <path id="DejaVuSans-5b" d="M 550 4863 
L 1875 4863 
L 1875 4416 
L 1125 4416 
L 1125 -397 
L 1875 -397 
L 1875 -844 
L 550 -844 
L 550 4863 
z
" transform="scale(0.015625)"/>
       <path id="DejaVuSans-6d" d="M 3328 2828 
Q 3544 3216 3844 3400 
Q 4144 3584 4550 3584 
Q 5097 3584 5394 3201 
Q 5691 2819 5691 2113 
L 5691 0 
L 5113 0 
L 5113 2094 
Q 5113 2597 4934 2840 
Q 4756 3084 4391 3084 
Q 3944 3084 3684 2787 
Q 3425 2491 3425 1978 
L 3425 0 
L 2847 0 
L 2847 2094 
Q 2847 2600 2669 2842 
Q 2491 3084 2119 3084 
Q 1678 3084 1418 2786 
Q 1159 2488 1159 1978 
L 1159 0 
L 581 0 
L 581 3500 
L 1159 3500 
L 1159 2956 
Q 1356 3278 1631 3431 
Q 1906 3584 2284 3584 
Q 2666 3584 2933 3390 
Q 3200 3197 3328 2828 
z
" transform="scale(0.015625)"/>
       <path id="DejaVuSans-5d" d="M 1947 4863 
L 1947 -844 
L 622 -844 
L 622 -397 
L 1369 -397 
L 1369 4416 
L 622 4416 
L 622 4863 
L 1947 4863 
z
" transform="scale(0.015625)"/>
      </defs>
      <use xlink:href="#DejaVuSans-57"/>
      <use xlink:href="#DejaVuSans-61" x="92.501953"/>
      <use xlink:href="#DejaVuSans-76" x="153.78125"/>
      <use xlink:href="#DejaVuSans-65" x="212.960938"/>
      <use xlink:href="#DejaVuSans-6c" x="274.484375"/>
      <use xlink:href="#DejaVuSans-61" x="302.267578"/>
      <use xlink:href="#DejaVuSans-6e" x="363.546875"/>
      <use xlink:href="#DejaVuSans-67" x="426.925781"/>
      <use xlink:href="#DejaVuSans-74" x="490.402344"/>
      <use xlink:href="#DejaVuSans-68" x="529.611328"/>
      <use xlink:href="#DejaVuSans-20" x="592.990234"/>
      <use xlink:href="#DejaVuSans-5b" x="624.777344"/>
      <use xlink:href="#DejaVuSans-6e" x="663.791016"/>
      <use xlink:href="#DejaVuSans-6d" x="727.169922"/>
      <use xlink:href="#DejaVuSans-5d" x="824.582031"/>
     </g>
    </g>
   </g>
   <g id="matplotlib.axis_2">
    <g id="ytick_1">
     <g id="line2d_21">
      <path d="M 48.703125 260.227197 
L 405.823125 260.227197 
" clip-path="url(#paab997709e)" style="fill: none; stroke: #b0b0b0; stroke-width: 0.8; stroke-linecap: square"/>
     </g>
     <g id="line2d_22">
      <defs>
       <path id="m7db869a3d1" d="M 0 0 
L -3.5 0 
" style="stroke: #000000; stroke-width: 0.8"/>
      </defs>
      <g>
       <use xlink:href="#m7db869a3d1" x="48.703125" y="260.227197" style="stroke: #000000; stroke-width: 0.8"/>
      </g>
     </g>
     <g id="text_12">
      <!-- 0.0 -->
      <g transform="translate(25.8 264.026415) scale(0.1 -0.1)">
       <defs>
        <path id="DejaVuSans-2e" d="M 684 794 
L 1344 794 
L 1344 0 
L 684 0 
L 684 794 
z
" transform="scale(0.015625)"/>
       </defs>
       <use xlink:href="#DejaVuSans-30"/>
       <use xlink:href="#DejaVuSans-2e" x="63.623047"/>
       <use xlink:href="#DejaVuSans-30" x="95.410156"/>
      </g>
     </g>
    </g>
    <g id="ytick_2">
     <g id="line2d_23">
      <path d="M 48.703125 215.641416 
L 405.823125 215.641416 
" clip-path="url(#paab997709e)" style="fill: none; stroke: #b0b0b0; stroke-width: 0.8; stroke-linecap: square"/>
     </g>
     <g id="line2d_24">
      <g>
       <use xlink:href="#m7db869a3d1" x="48.703125" y="215.641416" style="stroke: #000000; stroke-width: 0.8"/>
      </g>
     </g>
     <g id="text_13">
      <!-- 0.5 -->
      <g transform="translate(25.8 219.440634) scale(0.1 -0.1)">
       <use xlink:href="#DejaVuSans-30"/>
       <use xlink:href="#DejaVuSans-2e" x="63.623047"/>
       <use xlink:href="#DejaVuSans-35" x="95.410156"/>
      </g>
     </g>
    </g>
    <g id="ytick_3">
     <g id="line2d_25">
      <path d="M 48.703125 171.055635 
L 405.823125 171.055635 
" clip-path="url(#paab997709e)" style="fill: none; stroke: #b0b0b0; stroke-width: 0.8; stroke-linecap: square"/>
     </g>
     <g id="line2d_26">
      <g>
       <use xlink:href="#m7db869a3d1" x="48.703125" y="171.055635" style="stroke: #000000; stroke-width: 0.8"/>
      </g>
     </g>
     <g id="text_14">
      <!-- 1.0 -->
      <g transform="translate(25.8 174.854854) scale(0.1 -0.1)">
       <use xlink:href="#DejaVuSans-31"/>
       <use xlink:href="#DejaVuSans-2e" x="63.623047"/>
       <use xlink:href="#DejaVuSans-30" x="95.410156"/>
      </g>
     </g>
    </g>
    <g id="ytick_4">
     <g id="line2d_27">
      <path d="M 48.703125 126.469854 
L 405.823125 126.469854 
" clip-path="url(#paab997709e)" style="fill: none; stroke: #b0b0b0; stroke-width: 0.8; stroke-linecap: square"/>
     </g>
     <g id="line2d_28">
      <g>
       <use xlink:href="#m7db869a3d1" x="48.703125" y="126.469854" style="stroke: #000000; stroke-width: 0.8"/>
      </g>
     </g>
     <g id="text_15">
      <!-- 1.5 -->
      <g transform="translate(25.8 130.269073) scale(0.1 -0.1)">
       <use xlink:href="#DejaVuSans-31"/>
       <use xlink:href="#DejaVuSans-2e" x="63.623047"/>
       <use xlink:href="#DejaVuSans-35" x="95.410156"/>
      </g>
     </g>
    </g>
    <g id="ytick_5">
     <g id="line2d_29">
      <path d="M 48.703125 81.884073 
L 405.823125 81.884073 
" clip-path="url(#paab997709e)" style="fill: none; stroke: #b0b0b0; stroke-width: 0.8; stroke-linecap: square"/>
     </g>
     <g id="line2d_30">
      <g>
       <use xlink:href="#m7db869a3d1" x="48.703125" y="81.884073" style="stroke: #000000; stroke-width: 0.8"/>
      </g>
     </g>
     <g id="text_16">
      <!-- 2.0 -->
      <g transform="translate(25.8 85.683292) scale(0.1 -0.1)">
       <use xlink:href="#DejaVuSans-32"/>
       <use xlink:href="#DejaVuSans-2e" x="63.623047"/>
       <use xlink:href="#DejaVuSans-30" x="95.410156"/>
      </g>
     </g>
    </g>
    <g id="ytick_6">
     <g id="line2d_31">
      <path d="M 48.703125 37.298292 
L 405.823125 37.298292 
" clip-path="url(#paab997709e)" style="fill: none; stroke: #b0b0b0; stroke-width: 0.8; stroke-linecap: square"/>
     </g>
     <g id="line2d_32">
      <g>
       <use xlink:href="#m7db869a3d1" x="48.703125" y="37.298292" style="stroke: #000000; stroke-width: 0.8"/>
      </g>
     </g>
     <g id="text_17">
      <!-- 2.5 -->
      <g transform="translate(25.8 41.097511) scale(0.1 -0.1)">
       <use xlink:href="#DejaVuSans-32"/>
       <use xlink:href="#DejaVuSans-2e" x="63.623047"/>
       <use xlink:href="#DejaVuSans-35" x="95.410156"/>
      </g>
     </g>
    </g>
    <g id="text_18">
     <!-- Spectral Irradiance [$\frac{\mathrm{W}}{\mathrm{nm*}\mathrm{m}^2}$] -->
     <g transform="translate(16.7 207.756) rotate(-90) scale(0.1 -0.1)">
      <defs>
       <path id="DejaVuSans-53" d="M 3425 4513 
L 3425 3897 
Q 3066 4069 2747 4153 
Q 2428 4238 2131 4238 
Q 1616 4238 1336 4038 
Q 1056 3838 1056 3469 
Q 1056 3159 1242 3001 
Q 1428 2844 1947 2747 
L 2328 2669 
Q 3034 2534 3370 2195 
Q 3706 1856 3706 1288 
Q 3706 609 3251 259 
Q 2797 -91 1919 -91 
Q 1588 -91 1214 -16 
Q 841 59 441 206 
L 441 856 
Q 825 641 1194 531 
Q 1563 422 1919 422 
Q 2459 422 2753 634 
Q 3047 847 3047 1241 
Q 3047 1584 2836 1778 
Q 2625 1972 2144 2069 
L 1759 2144 
Q 1053 2284 737 2584 
Q 422 2884 422 3419 
Q 422 4038 858 4394 
Q 1294 4750 2059 4750 
Q 2388 4750 2728 4690 
Q 3069 4631 3425 4513 
z
" transform="scale(0.015625)"/>
       <path id="DejaVuSans-70" d="M 1159 525 
L 1159 -1331 
L 581 -1331 
L 581 3500 
L 1159 3500 
L 1159 2969 
Q 1341 3281 1617 3432 
Q 1894 3584 2278 3584 
Q 2916 3584 3314 3078 
Q 3713 2572 3713 1747 
Q 3713 922 3314 415 
Q 2916 -91 2278 -91 
Q 1894 -91 1617 61 
Q 1341 213 1159 525 
z
M 3116 1747 
Q 3116 2381 2855 2742 
Q 2594 3103 2138 3103 
Q 1681 3103 1420 2742 
Q 1159 2381 1159 1747 
Q 1159 1113 1420 752 
Q 1681 391 2138 391 
Q 2594 391 2855 752 
Q 3116 1113 3116 1747 
z
" transform="scale(0.015625)"/>
       <path id="DejaVuSans-63" d="M 3122 3366 
L 3122 2828 
Q 2878 2963 2633 3030 
Q 2388 3097 2138 3097 
Q 1578 3097 1268 2742 
Q 959 2388 959 1747 
Q 959 1106 1268 751 
Q 1578 397 2138 397 
Q 2388 397 2633 464 
Q 2878 531 3122 666 
L 3122 134 
Q 2881 22 2623 -34 
Q 2366 -91 2075 -91 
Q 1284 -91 818 406 
Q 353 903 353 1747 
Q 353 2603 823 3093 
Q 1294 3584 2113 3584 
Q 2378 3584 2631 3529 
Q 2884 3475 3122 3366 
z
" transform="scale(0.015625)"/>
       <path id="DejaVuSans-72" d="M 2631 2963 
Q 2534 3019 2420 3045 
Q 2306 3072 2169 3072 
Q 1681 3072 1420 2755 
Q 1159 2438 1159 1844 
L 1159 0 
L 581 0 
L 581 3500 
L 1159 3500 
L 1159 2956 
Q 1341 3275 1631 3429 
Q 1922 3584 2338 3584 
Q 2397 3584 2469 3576 
Q 2541 3569 2628 3553 
L 2631 2963 
z
" transform="scale(0.015625)"/>
       <path id="DejaVuSans-49" d="M 628 4666 
L 1259 4666 
L 1259 0 
L 628 0 
L 628 4666 
z
" transform="scale(0.015625)"/>
       <path id="DejaVuSans-64" d="M 2906 2969 
L 2906 4863 
L 3481 4863 
L 3481 0 
L 2906 0 
L 2906 525 
Q 2725 213 2448 61 
Q 2172 -91 1784 -91 
Q 1150 -91 751 415 
Q 353 922 353 1747 
Q 353 2572 751 3078 
Q 1150 3584 1784 3584 
Q 2172 3584 2448 3432 
Q 2725 3281 2906 2969 
z
M 947 1747 
Q 947 1113 1208 752 
Q 1469 391 1925 391 
Q 2381 391 2643 752 
Q 2906 1113 2906 1747 
Q 2906 2381 2643 2742 
Q 2381 3103 1925 3103 
Q 1469 3103 1208 2742 
Q 947 2381 947 1747 
z
" transform="scale(0.015625)"/>
       <path id="DejaVuSans-69" d="M 603 3500 
L 1178 3500 
L 1178 0 
L 603 0 
L 603 3500 
z
M 603 4863 
L 1178 4863 
L 1178 4134 
L 603 4134 
L 603 4863 
z
" transform="scale(0.015625)"/>
       <path id="DejaVuSans-2a" d="M 3009 3897 
L 1888 3291 
L 3009 2681 
L 2828 2375 
L 1778 3009 
L 1778 1831 
L 1422 1831 
L 1422 3009 
L 372 2375 
L 191 2681 
L 1313 3291 
L 191 3897 
L 372 4206 
L 1422 3572 
L 1422 4750 
L 1778 4750 
L 1778 3572 
L 2828 4206 
L 3009 3897 
z
" transform="scale(0.015625)"/>
      </defs>
      <use xlink:href="#DejaVuSans-53" transform="translate(0 0.16875)"/>
      <use xlink:href="#DejaVuSans-70" transform="translate(63.476562 0.16875)"/>
      <use xlink:href="#DejaVuSans-65" transform="translate(126.953125 0.16875)"/>
      <use xlink:href="#DejaVuSans-63" transform="translate(188.476562 0.16875)"/>
      <use xlink:href="#DejaVuSans-74" transform="translate(243.457031 0.16875)"/>
      <use xlink:href="#DejaVuSans-72" transform="translate(282.666016 0.16875)"/>
      <use xlink:href="#DejaVuSans-61" transform="translate(323.779297 0.16875)"/>
      <use xlink:href="#DejaVuSans-6c" transform="translate(385.058594 0.16875)"/>
      <use xlink:href="#DejaVuSans-20" transform="translate(412.841797 0.16875)"/>
      <use xlink:href="#DejaVuSans-49" transform="translate(444.628906 0.16875)"/>
      <use xlink:href="#DejaVuSans-72" transform="translate(474.121094 0.16875)"/>
      <use xlink:href="#DejaVuSans-72" transform="translate(515.234375 0.16875)"/>
      <use xlink:href="#DejaVuSans-61" transform="translate(556.347656 0.16875)"/>
      <use xlink:href="#DejaVuSans-64" transform="translate(617.626953 0.16875)"/>
      <use xlink:href="#DejaVuSans-69" transform="translate(681.103516 0.16875)"/>
      <use xlink:href="#DejaVuSans-61" transform="translate(708.886719 0.16875)"/>
      <use xlink:href="#DejaVuSans-6e" transform="translate(770.166016 0.16875)"/>
      <use xlink:href="#DejaVuSans-63" transform="translate(833.544922 0.16875)"/>
      <use xlink:href="#DejaVuSans-65" transform="translate(888.525391 0.16875)"/>
      <use xlink:href="#DejaVuSans-20" transform="translate(950.048828 0.16875)"/>
      <use xlink:href="#DejaVuSans-5b" transform="translate(981.835938 0.16875)"/>
      <use xlink:href="#DejaVuSans-57" transform="translate(1124.849609 43.965625) scale(0.7)"/>
      <use xlink:href="#DejaVuSans-6e" transform="translate(1020.849609 -50.448437) scale(0.7)"/>
      <use xlink:href="#DejaVuSans-6d" transform="translate(1065.214844 -50.448437) scale(0.7)"/>
      <use xlink:href="#DejaVuSans-2a" transform="translate(1147.041016 -50.448437) scale(0.7)"/>
      <use xlink:href="#DejaVuSans-6d" transform="translate(1195.678711 -50.448437) scale(0.7)"/>
      <use xlink:href="#DejaVuSans-32" transform="translate(1264.537109 -23.651562) scale(0.49)"/>
      <use xlink:href="#DejaVuSans-5d" transform="translate(1310.126465 0.16875)"/>
      <path d="M 1020.849609 18.965625 
L 1020.849609 25.215625 
L 1297.626465 25.215625 
L 1297.626465 18.965625 
L 1020.849609 18.965625 
z
"/>
     </g>
    </g>
   </g>
   <g id="line2d_33">
    <path d="M 80.447125 260.227197 
L 88.581525 260.116178 
L 89.375125 259.845186 
L 89.771925 259.42648 
L 89.970325 259.382733 
L 90.168725 259.161329 
L 90.565525 258.557994 
L 90.763925 258.570656 
L 90.962325 258.344963 
L 91.557525 256.853212 
L 91.755925 256.532819 
L 91.954325 256.612716 
L 92.152725 256.365533 
L 92.351125 255.684886 
L 92.747925 252.832912 
L 92.946325 252.729652 
L 93.541525 250.656413 
L 93.739925 250.635012 
L 94.136725 248.581391 
L 94.335125 248.077571 
L 94.533525 249.671067 
L 94.731925 249.216292 
L 95.128725 244.92714 
L 95.327125 243.957845 
L 95.525525 244.538352 
L 95.723925 243.649311 
L 95.922325 241.973778 
L 96.120725 242.759379 
L 96.319125 241.92295 
L 96.517525 238.357871 
L 96.715925 237.912905 
L 97.311125 240.868942 
L 97.509525 241.299641 
L 97.906325 235.672024 
L 98.104725 234.972919 
L 98.303125 235.353681 
L 98.898325 223.914753 
L 99.295125 225.927355 
L 99.493525 228.913711 
L 99.691925 227.087477 
L 100.088725 218.425352 
L 100.287125 218.192614 
L 100.683925 224.324942 
L 101.080725 221.327886 
L 101.279125 221.063938 
L 101.477525 221.933361 
L 101.675925 223.91297 
L 101.874325 223.223674 
L 102.271125 218.862292 
L 102.469525 219.820887 
L 102.866325 226.151176 
L 103.064725 226.894867 
L 103.659925 219.63006 
L 104.056725 217.918857 
L 104.255125 215.480907 
L 104.453525 215.578104 
L 104.651925 218.192614 
L 104.850325 218.374524 
L 105.247125 214.95747 
L 105.445525 214.313651 
L 105.643925 216.881792 
L 105.842325 222.91514 
L 106.040725 224.284815 
L 106.437525 216.593768 
L 106.635925 217.622808 
L 107.032725 216.172878 
L 107.231125 217.715546 
L 107.429525 217.860896 
L 107.627925 217.12523 
L 107.826325 218.705351 
L 108.024725 217.598731 
L 108.421525 209.630361 
L 109.016725 214.044353 
L 109.215125 216.567016 
L 109.413525 213.822316 
L 109.810325 206.280185 
L 110.008725 205.693436 
L 110.207125 205.707704 
L 110.405525 207.591007 
L 110.802325 213.909704 
L 111.000725 219.499869 
L 111.199125 219.016559 
L 111.595925 224.624559 
L 112.191125 206.887443 
L 112.786325 214.788936 
L 112.984725 212.591748 
L 113.183125 208.052916 
L 113.381525 206.553942 
L 113.579925 208.025273 
L 113.778325 206.164262 
L 113.976725 206.67254 
L 114.175125 204.620702 
L 114.571925 194.657564 
L 114.770325 194.545208 
L 115.167125 196.992075 
L 115.365525 200.697154 
L 115.563925 201.097534 
L 115.762325 198.417929 
L 115.960725 193.822026 
L 116.159125 192.896425 
L 116.357525 199.357797 
L 116.555925 198.397419 
L 116.754325 195.978195 
L 117.151125 202.931793 
L 117.349525 205.042484 
L 117.547925 210.481949 
L 117.746325 210.61214 
L 117.944725 210.980418 
L 118.143125 207.678395 
L 118.341525 202.121223 
L 118.539925 200.054227 
L 118.738325 201.026197 
L 118.936725 196.714752 
L 119.333525 183.900798 
L 119.531925 185.842063 
L 119.928725 200.764924 
L 120.523925 192.115283 
L 121.317525 219.655028 
L 121.515925 220.948015 
L 122.111125 200.165691 
L 122.507925 204.851657 
L 122.706325 202.649119 
L 122.904725 202.134599 
L 123.301525 203.530134 
L 123.499925 203.927839 
L 124.095125 189.158354 
L 124.293525 188.559121 
L 124.491925 184.308312 
L 124.690325 183.232903 
L 124.888725 189.342047 
L 125.483925 226.206462 
L 125.682325 216.027529 
L 126.079125 188.201543 
L 126.277525 183.505768 
L 126.475925 192.764452 
L 126.872725 222.223169 
L 127.467925 170.440351 
L 127.864725 161.951218 
L 128.063125 160.88116 
L 128.856725 152.677376 
L 129.253525 156.672262 
L 129.650325 154.995837 
L 130.443925 160.114284 
L 130.840725 161.906633 
L 131.237525 157.55506 
L 131.634325 150.555093 
L 132.031125 166.730814 
L 132.427925 155.557617 
L 132.824725 148.958922 
L 133.221525 153.47992 
L 133.618325 154.630233 
L 134.411925 147.657017 
L 134.808725 150.43917 
L 135.205525 155.209848 
L 135.602325 150.920696 
L 135.999125 160.069698 
L 136.395925 146.471035 
L 136.792725 148.02262 
L 137.189525 151.580566 
L 137.586325 152.178015 
L 137.983125 148.86975 
L 138.776725 155.682458 
L 139.173525 154.656985 
L 139.570325 162.468413 
L 139.967125 182.235965 
L 140.363925 189.430327 
L 140.760725 142.458315 
L 141.554325 158.99964 
L 142.347925 138.42776 
L 142.744725 135.895288 
L 143.141525 151.099039 
L 143.538325 155.227683 
L 143.935125 139.854505 
L 144.331925 141.513096 
L 144.728725 133.157721 
L 145.125525 131.347538 
L 145.522325 134.637969 
L 145.919125 129.86729 
L 146.315925 143.341113 
L 146.712725 127.334818 
L 147.109525 125.747564 
L 147.506325 126.068582 
L 148.299925 116.01003 
L 148.696725 122.171785 
L 149.093525 132.738615 
L 149.490325 123.482607 
L 149.887125 124.472411 
L 150.283925 120.013833 
L 150.680725 118.854603 
L 151.077525 121.886436 
L 151.871125 123.874961 
L 152.267925 119.095366 
L 152.664725 117.775627 
L 153.061525 117.276266 
L 153.458325 121.618921 
L 153.855125 123.348849 
L 154.251925 120.468608 
L 154.648725 126.710617 
L 155.045525 120.950134 
L 155.442325 120.388353 
L 155.839125 125.783233 
L 156.235925 123.518275 
L 156.632725 116.429136 
L 157.029525 122.020193 
L 157.426325 120.486442 
L 157.823125 115.903024 
L 158.219925 120.843128 
L 158.616725 120.013833 
L 159.013525 115.501752 
L 159.410325 118.301739 
L 159.807125 115.938692 
L 160.203925 115.974361 
L 160.600725 115.448249 
L 160.997525 117.213846 
L 161.394325 119.924661 
L 161.791125 120.379436 
L 162.187925 146.836639 
L 162.981525 122.787068 
L 163.378325 130.759006 
L 163.775125 115.555255 
L 164.568725 127.638001 
L 164.965525 118.417662 
L 165.362325 121.788347 
L 165.759125 113.227877 
L 166.155925 120.441856 
L 166.552725 118.052059 
L 166.949525 121.931021 
L 167.346325 121.948856 
L 167.743125 122.448217 
L 168.139925 126.666031 
L 168.536725 126.773037 
L 168.933525 120.646951 
L 169.330325 130.152639 
L 169.727125 120.80746 
L 170.123925 115.198569 
L 170.520725 121.476246 
L 170.917525 124.998523 
L 171.314325 118.506833 
L 171.711125 122.180702 
L 172.107925 119.612561 
L 172.504725 115.894107 
L 172.901525 124.63292 
L 173.298325 127.495327 
L 173.695125 123.669867 
L 174.091925 122.412548 
L 174.488725 147.924532 
L 174.885525 131.793396 
L 175.282325 135.770448 
L 175.679125 124.365405 
L 176.075925 123.384518 
L 176.472725 120.317016 
L 176.869525 128.351374 
L 177.266325 118.399828 
L 177.663125 119.505555 
L 178.059925 123.429104 
L 178.456725 140.585712 
L 178.853525 123.286429 
L 179.250325 116.91958 
L 179.647125 122.492802 
L 180.043925 114.948888 
L 180.440725 117.570532 
L 180.837525 132.836703 
L 181.234325 123.776873 
L 181.631125 121.699175 
L 182.027925 115.778184 
L 182.424725 126.567943 
L 182.821525 119.888993 
L 183.218325 123.331015 
L 184.011925 133.148804 
L 184.408725 121.913187 
L 184.805525 124.187062 
L 185.202325 119.407466 
L 185.599125 122.590891 
L 185.995925 123.874961 
L 186.392725 122.100447 
L 186.789525 126.032913 
L 187.186325 121.832933 
L 187.583125 122.911909 
L 187.979925 123.0635 
L 188.376725 120.254596 
L 188.773525 124.240565 
L 189.170325 121.574335 
L 189.567125 120.816377 
L 189.963925 123.206175 
L 190.360725 126.57686 
L 190.757525 123.705536 
L 191.154325 131.080024 
L 191.551125 128.788315 
L 191.947925 121.164146 
L 192.344725 127.834179 
L 192.741525 122.831654 
L 193.138325 125.524635 
L 193.535125 124.677506 
L 193.931925 132.051994 
L 194.328725 123.616364 
L 194.725525 124.864766 
L 195.122325 128.190865 
L 195.519125 128.110611 
L 195.915925 132.435431 
L 196.312725 125.274955 
L 196.709525 124.704257 
L 197.106325 125.408712 
L 197.503125 128.45838 
L 197.899925 129.55519 
L 198.296725 126.264759 
L 198.693525 130.393403 
L 199.487125 126.291511 
L 199.883925 125.676227 
L 200.280725 123.616364 
L 200.677525 122.198536 
L 201.074325 122.474968 
L 201.471125 123.580695 
L 201.867925 126.88896 
L 202.264725 123.964133 
L 202.661525 127.058386 
L 203.058325 145.249385 
L 203.851925 129.483853 
L 204.248725 132.230337 
L 204.645525 130.384485 
L 205.042325 131.008686 
L 205.439125 132.640526 
L 205.835925 128.743729 
L 206.232725 128.360291 
L 206.629525 129.974296 
L 207.026325 129.983213 
L 207.423125 128.672392 
L 208.216725 132.176834 
L 209.010325 127.174309 
L 209.407125 127.406155 
L 209.803925 128.057108 
L 210.200725 127.263481 
L 210.597525 127.700421 
L 210.994325 128.70806 
L 211.787925 129.938628 
L 212.184725 127.976853 
L 212.581525 129.849456 
L 212.978325 133.817591 
L 213.375125 129.171752 
L 213.771925 132.622692 
L 214.168725 134.245614 
L 214.565525 129.466018 
L 214.962325 128.850735 
L 215.359125 128.797232 
L 215.755925 128.235451 
L 216.152725 132.988295 
L 216.549525 133.915679 
L 216.946325 134.334786 
L 217.343125 135.155164 
L 217.739925 135.280004 
L 218.136725 131.668556 
L 218.533525 138.677441 
L 218.930325 134.370454 
L 219.327125 136.064714 
L 219.723925 133.951348 
L 220.120725 138.615021 
L 220.517525 130.857095 
L 220.914325 132.854538 
L 221.311125 131.302953 
L 221.707925 134.245614 
L 222.104725 129.947545 
L 222.501525 129.082581 
L 222.898325 129.626527 
L 223.295125 132.355177 
L 223.691925 132.28384 
L 224.088725 132.034159 
L 224.485525 130.705503 
L 224.882325 131.267284 
L 225.279125 130.330983 
L 225.675925 134.049437 
L 226.072725 134.620135 
L 226.469525 135.815034 
L 226.866325 139.676162 
L 227.263125 139.007376 
L 227.659925 131.401041 
L 228.056725 136.537323 
L 228.453525 132.613775 
L 228.850325 134.022685 
L 229.247125 139.854505 
L 229.643925 154.549979 
L 230.040725 149.71688 
L 230.437525 136.679998 
L 230.834325 136.23414 
L 231.231125 135.458347 
L 231.627925 135.98446 
L 232.024725 137.001015 
L 232.421525 136.778086 
L 232.818325 135.681276 
L 233.215125 133.478739 
L 233.611925 133.576827 
L 234.008725 134.47746 
L 234.405525 134.049437 
L 234.802325 131.873651 
L 235.199125 133.639248 
L 235.595925 133.880011 
L 235.992725 135.63669 
L 236.389525 134.548797 
L 236.786325 134.727141 
L 237.183125 135.761531 
L 237.579925 134.316951 
L 237.976725 135.467265 
L 238.373525 134.798478 
L 238.770325 135.859619 
L 239.167125 135.663442 
L 239.563925 136.144968 
L 239.960725 135.556436 
L 240.357525 136.902927 
L 240.754325 137.714388 
L 241.151125 137.634133 
L 241.547925 140.398452 
L 241.944725 173.887724 
L 242.341525 160.301544 
L 242.738325 159.659509 
L 243.531925 150.251909 
L 243.928725 147.077402 
L 244.325525 147.790774 
L 244.722325 149.083762 
L 245.119125 146.854473 
L 245.515925 147.121988 
L 245.912725 140.710552 
L 246.309525 142.592072 
L 246.706325 145.035373 
L 247.103125 145.882503 
L 247.499925 147.344917 
L 247.896725 147.211159 
L 248.293525 146.560207 
L 248.690325 143.608628 
L 249.087125 142.395895 
L 249.880725 143.501622 
L 250.277525 143.876143 
L 250.674325 143.457036 
L 251.071125 142.743664 
L 251.467925 142.922007 
L 251.864725 143.671048 
L 252.261525 145.035373 
L 252.658325 144.045569 
L 253.055125 147.986952 
L 253.451925 146.836639 
L 253.848725 161.505361 
L 254.245525 168.416157 
L 254.642325 177.905794 
L 255.039125 172.348622 
L 255.435925 163.377963 
L 255.832725 149.59204 
L 256.626325 166.106613 
L 257.023125 167.667115 
L 257.419925 163.805987 
L 257.816725 163.476052 
L 258.213525 167.488772 
L 258.610325 166.90024 
L 259.007125 159.597089 
L 259.403925 164.786874 
L 259.800725 157.376717 
L 260.594325 150.037898 
L 260.991125 151.634069 
L 261.387925 152.69521 
L 261.784725 152.873553 
L 262.181525 150.822607 
L 262.578325 154.068452 
L 262.975125 151.482477 
L 263.371925 151.901583 
L 263.768725 151.856998 
L 264.165525 149.609874 
L 264.562325 148.735993 
L 264.959125 148.789496 
L 265.355925 149.030259 
L 265.752725 148.967839 
L 266.149525 149.645543 
L 266.546325 150.037898 
L 266.943125 150.180572 
L 267.339925 150.671016 
L 267.736725 150.278661 
L 268.133525 150.849359 
L 268.530325 149.476117 
L 268.927125 149.806052 
L 269.323925 151.152542 
L 269.720725 151.250631 
L 270.117525 150.590761 
L 270.514325 153.711766 
L 270.911125 236.503994 
L 271.307925 246.498343 
L 271.704725 198.90748 
L 272.101525 226.384805 
L 273.688725 173.358936 
L 274.085525 160.907911 
L 274.482325 159.659509 
L 274.879125 156.716848 
L 275.672725 155.200931 
L 276.466325 155.263351 
L 276.863125 155.263351 
L 277.259925 155.022588 
L 277.656725 155.655706 
L 278.053525 155.780546 
L 278.450325 155.316854 
L 278.847125 156.467167 
L 279.243925 156.725765 
L 279.640725 156.235321 
L 280.037525 156.663345 
L 280.434325 157.358883 
L 280.831125 156.913025 
L 281.227925 156.859522 
L 282.021525 159.418746 
L 282.418325 159.846769 
L 282.815125 162.941023 
L 283.211925 161.621284 
L 284.005525 163.253123 
L 284.402325 162.388159 
L 284.799125 162.744845 
L 285.195925 164.439105 
L 285.989525 161.059503 
L 286.783125 164.590697 
L 287.179925 163.538472 
L 287.576725 163.422549 
L 287.973525 165.197063 
L 288.370325 164.082419 
L 288.767125 166.195785 
L 289.163925 162.370325 
L 289.560725 163.395798 
L 289.957525 163.73465 
L 290.354325 166.169033 
L 290.751125 166.070945 
L 291.147925 166.302791 
L 291.544725 168.665837 
L 291.941525 170.288759 
L 292.338325 179.65534 
L 292.735125 180.398139 
L 293.131925 186.02219 
L 293.528725 184.268185 
L 293.925525 186.875562 
L 294.322325 179.509991 
L 294.719125 183.372011 
L 295.115925 171.26608 
L 295.512725 175.374214 
L 295.909525 200.240595 
L 296.306325 176.846436 
L 296.703125 173.788743 
L 297.099925 176.9579 
L 297.496725 172.424418 
L 297.893525 184.450095 
L 298.290325 177.360064 
L 298.687125 178.545154 
L 299.083925 177.839807 
L 299.480725 180.484636 
L 299.877525 174.934598 
L 300.274325 176.930257 
L 300.671125 170.770286 
L 301.067925 173.52212 
L 301.464725 170.235256 
L 301.861525 171.143915 
L 302.258325 170.939712 
L 302.655125 169.655641 
L 303.051925 170.155002 
L 303.448725 171.320474 
L 303.845525 170.583026 
L 304.242325 172.276393 
L 304.639125 169.584304 
L 305.035925 169.388127 
L 305.432725 171.795759 
L 305.829525 171.753848 
L 306.226325 172.307604 
L 306.623125 180.532788 
L 307.019925 173.291166 
L 307.813525 174.189123 
L 308.210325 184.331497 
L 309.003925 173.448108 
L 309.400725 171.799326 
L 310.194325 171.794867 
L 310.591125 172.111426 
L 310.987925 172.233591 
L 311.781525 171.011049 
L 312.575125 174.333581 
L 312.971925 184.520541 
L 313.368725 178.594199 
L 313.765525 174.693835 
L 314.162325 175.553448 
L 314.559125 173.949252 
L 314.955925 175.169119 
L 315.352725 174.01078 
L 315.749525 174.871286 
L 316.543125 177.576751 
L 316.939925 175.267208 
L 317.336725 174.965808 
L 317.733525 175.302876 
L 318.130325 176.712679 
L 318.527125 176.444272 
L 318.923925 179.205024 
L 319.320725 177.079174 
L 319.717525 177.362739 
L 320.114325 177.025671 
L 320.511125 176.028733 
L 320.907925 179.302221 
L 321.304725 179.025789 
L 322.098325 176.891914 
L 322.495125 177.838916 
L 322.891925 177.668598 
L 323.288725 179.18719 
L 323.685525 182.356347 
L 324.082325 184.315446 
L 324.479125 187.679889 
L 324.875925 192.231206 
L 325.272725 200.869255 
L 325.669525 196.21985 
L 326.066325 211.297869 
L 326.463125 194.008395 
L 326.859925 206.784004 
L 327.256725 200.668619 
L 327.653525 198.797799 
L 328.050325 184.915571 
L 328.447125 187.366005 
L 328.843925 191.067517 
L 329.240725 203.287588 
L 329.637525 202.072179 
L 330.034325 197.422774 
L 330.431125 204.524397 
L 330.827925 200.65346 
L 331.224725 198.794233 
L 331.621525 204.197137 
L 332.018325 204.362105 
L 332.415125 199.736776 
L 332.811925 208.823358 
L 333.208725 195.116797 
L 333.605525 207.37432 
L 334.002325 194.349922 
L 334.399125 193.871071 
L 334.795925 190.629684 
L 335.192725 197.783919 
L 335.589525 193.790816 
L 335.986325 195.889915 
L 336.779925 197.511945 
L 337.176725 190.011725 
L 337.573525 207.64451 
L 337.970325 211.06959 
L 338.367125 221.696165 
L 338.763925 223.737302 
L 339.160725 233.39904 
L 339.557525 238.076089 
L 339.954325 247.404326 
L 340.351125 237.859402 
L 340.747925 245.833123 
L 341.144725 245.658347 
L 341.541525 242.341165 
L 341.938325 224.659336 
L 342.335125 218.155162 
L 342.731925 227.059834 
L 343.128725 224.084179 
L 343.525525 235.407184 
L 343.922325 234.742856 
L 344.319125 227.393336 
L 344.715925 242.873519 
L 345.112725 227.133847 
L 345.509525 235.773679 
L 345.906325 216.180012 
L 346.303125 247.095792 
L 346.699925 217.087778 
L 347.096725 236.248072 
L 347.890325 222.408645 
L 348.287125 229.804535 
L 348.683925 230.960198 
L 349.080725 236.09113 
L 349.477525 219.118215 
L 349.874325 226.890408 
L 350.667925 219.101272 
L 351.064725 220.836551 
L 351.461525 215.192883 
L 351.858325 219.333118 
L 352.255125 215.307914 
L 353.048725 215.427404 
L 353.445525 202.078421 
L 353.842325 199.035887 
L 354.239125 203.638032 
L 354.635925 196.561377 
L 355.032725 198.908372 
L 355.429525 206.146428 
L 355.826325 208.927689 
L 356.223125 207.627567 
L 356.619925 209.229089 
L 357.016725 203.27867 
L 357.413525 205.378661 
L 357.810325 203.322364 
L 358.207125 206.306937 
L 358.603925 196.613988 
L 359.397525 200.602632 
L 359.794325 194.479221 
L 360.191125 198.862003 
L 360.587925 193.274513 
L 360.984725 194.304444 
L 361.381525 194.719984 
L 361.778325 193.432347 
L 362.175125 194.929537 
L 362.571925 193.029291 
L 362.968725 193.25757 
L 363.365525 194.482788 
L 363.762325 192.982922 
L 364.555925 193.451964 
L 364.952725 194.266101 
L 365.746325 194.367756 
L 366.143125 194.657564 
L 366.539925 193.846103 
L 366.936725 195.305841 
L 367.333525 194.737818 
L 367.730325 195.724056 
L 368.127125 199.435376 
L 368.523925 196.690675 
L 368.920725 195.35221 
L 369.317525 195.412847 
L 369.714325 196.04864 
L 370.111125 196.10036 
L 370.507925 195.775775 
L 370.904725 196.133353 
L 371.301525 196.236792 
L 371.698325 195.963035 
L 372.095125 197.078572 
L 372.491925 196.800356 
L 372.888725 197.506595 
L 373.285525 196.539084 
L 373.682325 198.807608 
L 374.079125 197.899842 
L 374.475925 197.651053 
L 374.872725 198.72557 
L 375.269525 198.245827 
L 375.666325 198.647099 
L 376.063125 198.027357 
L 376.459925 198.131688 
L 376.856725 198.426846 
L 377.253525 198.355508 
L 377.650325 199.030537 
L 378.047125 198.649775 
L 378.443925 198.934232 
L 378.840725 198.888754 
L 379.237525 199.935629 
L 379.634325 199.577159 
L 380.031125 199.381873 
L 380.427925 199.410408 
L 380.824725 200.039068 
L 381.221525 200.328875 
L 381.618325 199.915119 
L 382.015125 200.330659 
L 382.808725 200.303907 
L 383.205525 200.905815 
L 383.602325 200.631167 
L 383.999125 200.97091 
L 384.395925 202.520712 
L 384.792725 201.646831 
L 385.189525 201.129636 
L 385.983125 201.852817 
L 386.379925 201.801098 
L 386.776725 202.160459 
L 387.570325 202.581349 
L 387.967125 202.402114 
L 388.760725 202.72759 
L 389.157525 203.319689 
L 389.554325 205.052293 
L 389.951125 203.527459 
L 390.347925 204.832931 
L 390.744725 203.811916 
L 391.141525 204.727708 
L 391.538325 203.874336 
L 391.935125 204.126692 
L 392.331925 205.196751 
L 392.728725 204.912293 
L 393.125525 204.990764 
L 393.522325 207.949477 
L 393.919125 206.306045 
L 394.315925 205.24312 
L 394.712725 205.354584 
L 395.109525 206.400567 
L 395.506325 204.799937 
L 395.903125 207.391263 
L 396.299925 205.412546 
L 396.696725 206.337255 
L 397.093525 206.438019 
L 397.490325 206.301586 
L 397.887125 206.972156 
L 398.283925 208.433678 
L 399.077525 206.890119 
L 399.474325 208.639665 
L 399.871125 207.321709 
L 400.267925 210.817234 
L 400.664725 209.669596 
L 401.061525 207.333301 
L 401.458325 208.57992 
L 401.855125 210.671885 
L 402.251925 207.763108 
L 402.648725 208.397118 
L 403.045525 214.697981 
L 403.442325 212.105763 
L 404.235925 215.353392 
L 404.632725 208.639665 
L 405.029525 215.381926 
L 405.426325 214.953011 
L 405.823125 216.910327 
L 406.219925 215.912497 
L 406.219925 215.912497 
" clip-path="url(#paab997709e)" style="fill: none; stroke: #1f77b4; stroke-width: 1.5; stroke-linecap: square"/>
   </g>
   <g id="line2d_34">
    <path d="M 108.223125 259.25294 
L 108.619925 259.350861 
L 109.016725 259.187082 
L 109.810325 259.050908 
L 110.603925 258.137569 
L 111.000725 257.242702 
L 111.794325 254.341861 
L 112.587925 247.817083 
L 114.175125 219.604039 
L 114.968725 203.003202 
L 115.365525 199.203887 
L 115.762325 193.8999 
L 116.159125 190.134916 
L 116.555925 192.106312 
L 116.952725 194.931918 
L 117.349525 201.362632 
L 117.746325 201.875574 
L 118.143125 204.605053 
L 118.936725 211.495455 
L 119.333525 212.511993 
L 119.730325 216.271618 
L 120.523925 214.440524 
L 120.920725 210.483608 
L 121.317525 208.535396 
L 122.111125 195.783185 
L 122.507925 184.310791 
L 122.904725 176.073408 
L 124.095125 133.528496 
L 124.888725 111.30186 
L 125.285525 109.621957 
L 125.682325 110.453393 
L 126.079125 115.386988 
L 127.269525 137.891393 
L 127.666325 152.213595 
L 128.063125 159.013015 
L 128.459925 168.160591 
L 129.253525 176.464149 
L 129.650325 179.705294 
L 130.047125 181.610382 
L 130.443925 182.404285 
L 130.840725 180.260985 
L 131.237525 180.857631 
L 131.634325 179.451931 
L 132.824725 169.670979 
L 133.618325 155.673362 
L 134.015125 151.767291 
L 135.602325 124.994689 
L 135.999125 121.920232 
L 136.395925 116.358691 
L 136.792725 114.77759 
L 137.189525 115.428988 
L 137.586325 116.742485 
L 137.983125 117.116827 
L 138.379925 124.010056 
L 139.173525 130.913986 
L 139.570325 132.316298 
L 139.967125 137.628962 
L 140.363925 139.657704 
L 140.760725 140.026696 
L 141.157525 139.906671 
L 141.554325 139.299947 
L 142.347925 133.311185 
L 143.141525 124.900524 
L 143.538325 117.905282 
L 144.331925 111.687082 
L 144.728725 112.061602 
L 145.125525 111.699298 
L 145.522325 115.20704 
L 147.903125 150.982135 
L 148.299925 153.767677 
L 148.696725 154.432451 
L 149.093525 153.013999 
L 149.490325 152.546115 
L 150.283925 142.441551 
L 151.474325 120.632773 
L 154.251925 58.346615 
L 154.648725 54.336035 
L 155.045525 51.870085 
L 155.442325 51.011362 
L 155.839125 53.211047 
L 156.235925 56.302803 
L 157.823125 82.704362 
L 159.013525 107.227255 
L 160.203925 122.975131 
L 160.600725 127.420066 
L 161.394325 132.138579 
L 161.791125 134.247219 
L 162.187925 134.834503 
L 162.584725 136.819908 
L 162.981525 135.849365 
L 163.378325 136.220586 
L 163.775125 135.103088 
L 164.171925 135.016681 
L 164.568725 134.077258 
L 164.965525 132.842054 
L 165.759125 128.853499 
L 166.155925 127.914968 
L 166.552725 125.252216 
L 166.949525 124.72334 
L 167.346325 122.61684 
L 167.743125 119.777885 
L 168.536725 117.74834 
L 169.330325 114.06065 
L 169.727125 113.902727 
L 170.123925 112.062137 
L 170.520725 112.470454 
L 170.917525 110.808028 
L 171.314325 110.512068 
L 171.711125 110.58724 
L 172.107925 109.11145 
L 173.298325 109.502824 
L 173.695125 109.029591 
L 174.488725 109.965179 
L 174.885525 109.429258 
L 175.282325 109.685893 
L 176.075925 109.343029 
L 176.472725 109.378073 
L 177.266325 109.714696 
L 177.663125 109.535639 
L 178.059925 110.31482 
L 178.456725 110.548807 
L 178.853525 109.703193 
L 179.647125 110.290922 
L 180.043925 110.072898 
L 180.440725 109.725753 
L 180.837525 110.524106 
L 181.234325 109.682505 
L 181.631125 110.348527 
L 182.027925 109.668594 
L 182.424725 109.397334 
L 182.821525 109.682148 
L 183.218325 109.803957 
L 183.615125 109.148635 
L 184.408725 109.938249 
L 184.805525 110.612208 
L 185.202325 110.776016 
L 185.599125 110.36226 
L 185.995925 111.339491 
L 186.392725 111.263606 
L 187.583125 112.441562 
L 187.979925 112.156748 
L 188.376725 113.177584 
L 188.773525 113.135228 
L 189.567125 114.956022 
L 189.963925 115.502822 
L 190.360725 115.646031 
L 191.154325 117.528443 
L 191.947925 118.426936 
L 192.741525 121.157993 
L 193.138325 121.347304 
L 193.535125 121.823926 
L 194.328725 124.277839 
L 194.725525 124.401698 
L 195.122325 125.059873 
L 196.312725 127.743313 
L 196.709525 128.076458 
L 197.106325 128.713054 
L 197.503125 129.004466 
L 198.296725 131.425831 
L 199.090325 131.738377 
L 199.487125 132.931493 
L 199.883925 133.086027 
L 200.280725 133.090307 
L 200.677525 133.927272 
L 201.074325 134.303843 
L 201.867925 134.633154 
L 202.264725 134.830847 
L 202.661525 135.25138 
L 203.455125 134.928222 
L 204.248725 135.624652 
L 204.645525 135.452462 
L 205.042325 135.719709 
L 205.439125 135.328514 
L 205.835925 135.289991 
L 206.232725 135.872371 
L 206.629525 135.372386 
L 207.026325 135.465481 
L 207.819925 135.300425 
L 208.216725 135.409749 
L 208.613525 134.855013 
L 209.010325 134.762898 
L 209.407125 134.89291 
L 209.803925 134.567702 
L 210.200725 134.531498 
L 210.994325 134.836108 
L 211.391125 134.039717 
L 212.581525 133.674381 
L 212.978325 133.751069 
L 214.168725 133.257772 
L 214.565525 132.721048 
L 214.962325 133.013174 
L 215.359125 132.787659 
L 215.755925 132.265738 
L 216.152725 132.292935 
L 216.549525 132.629915 
L 216.946325 131.772173 
L 217.343125 132.304528 
L 217.739925 132.1977 
L 218.136725 131.799906 
L 218.533525 131.919396 
L 218.930325 131.391322 
L 219.723925 131.011807 
L 220.914325 131.272188 
L 221.311125 130.860394 
L 221.707925 131.449729 
L 222.898325 131.407372 
L 223.295125 131.53899 
L 224.088725 132.405381 
L 225.279125 133.265886 
L 226.072725 134.784478 
L 226.469525 134.705383 
L 226.866325 135.883785 
L 227.263125 136.194459 
L 228.453525 138.677173 
L 228.850325 139.439055 
L 229.247125 140.79589 
L 229.643925 141.523619 
L 230.040725 141.818866 
L 230.834325 143.445533 
L 231.231125 144.693935 
L 231.627925 145.227359 
L 232.024725 146.231075 
L 233.611925 147.732902 
L 234.008725 148.482567 
L 234.405525 148.091193 
L 234.802325 148.249384 
L 235.199125 147.919627 
L 235.595925 148.129805 
L 235.992725 147.493655 
L 236.389525 147.578814 
L 236.786325 147.195554 
L 237.183125 147.18093 
L 237.579925 147.041555 
L 237.976725 146.709302 
L 238.373525 147.199745 
L 238.770325 147.419731 
L 239.167125 147.415362 
L 239.960725 148.956871 
L 240.357525 150.586481 
L 240.754325 151.429331 
L 241.944725 155.344765 
L 243.135125 158.638852 
L 243.531925 159.721216 
L 244.325525 160.620154 
L 245.119125 159.873788 
L 245.912725 158.274675 
L 246.706325 155.904138 
L 247.896725 149.915287 
L 248.690325 146.086527 
L 249.483925 142.868147 
L 250.277525 140.999736 
L 250.674325 140.692183 
L 251.071125 140.613801 
L 251.467925 141.099697 
L 251.864725 141.316027 
L 252.658325 143.397916 
L 253.055125 144.76233 
L 253.848725 146.663646 
L 254.245525 147.899831 
L 255.039125 149.3692 
L 255.832725 150.098891 
L 256.229525 150.273043 
L 256.626325 149.94721 
L 257.419925 149.137889 
L 257.816725 148.089856 
L 258.213525 147.538151 
L 258.610325 146.552538 
L 259.800725 145.215678 
L 260.197525 144.970813 
L 260.594325 145.265168 
L 261.387925 147.526024 
L 262.181525 150.764735 
L 263.371925 158.562967 
L 265.355925 171.996243 
L 266.149525 176.03856 
L 266.943125 178.430827 
L 267.339925 179.029953 
L 267.736725 178.903472 
L 268.133525 178.195486 
L 268.530325 177.197692 
L 268.927125 175.760184 
L 269.720725 170.908769 
L 270.514325 164.668454 
L 272.101525 145.923433 
L 273.688725 125.333541 
L 274.085525 121.854958 
L 274.482325 119.734458 
L 274.879125 119.424052 
L 275.275925 120.768224 
L 275.672725 123.68895 
L 276.069525 128.545233 
L 278.450325 165.575596 
L 279.243925 172.360491 
L 279.640725 174.778289 
L 280.037525 176.211222 
L 280.434325 177.156726 
L 280.831125 177.544257 
L 281.227925 177.54201 
L 282.021525 175.61042 
L 282.815125 172.845139 
L 284.005525 166.945985 
L 285.592725 155.181403 
L 287.179925 137.600337 
L 287.973525 129.501776 
L 288.767125 124.170209 
L 289.163925 123.32299 
L 289.560725 124.212922 
L 289.957525 126.899393 
L 290.354325 130.823299 
L 291.147925 143.775825 
L 292.735125 172.322763 
L 293.528725 183.566093 
L 294.322325 192.057473 
L 295.115925 198.137537 
L 295.909525 202.838413 
L 297.099925 207.00976 
L 297.893525 209.029327 
L 298.290325 209.585356 
L 298.687125 209.803389 
L 299.083925 209.760382 
L 299.480725 209.956818 
L 300.274325 209.540413 
L 301.067925 208.024104 
L 302.258325 204.566976 
L 303.845525 197.073774 
L 304.242325 194.953604 
L 306.226325 180.070523 
L 307.813525 164.380698 
L 308.607125 155.368752 
L 310.591125 135.57757 
L 311.384725 131.694148 
L 311.781525 130.932266 
L 312.178325 131.191488 
L 312.575125 131.951408 
L 312.971925 134.234914 
L 314.162325 144.062065 
L 315.352725 155.603095 
L 316.146325 162.338134 
L 316.939925 166.507974 
L 317.336725 168.130629 
L 317.733525 169.226548 
L 318.130325 170.78812 
L 318.923925 172.135181 
L 319.320725 172.618937 
L 319.717525 172.521642 
L 320.114325 172.590866 
L 320.511125 172.930182 
L 321.304725 173.310525 
L 321.701525 173.500122 
L 322.891925 175.623314 
L 323.288725 176.543672 
L 324.082325 179.029222 
L 326.066325 189.340906 
L 329.637525 211.371195 
L 333.208725 229.472032 
L 334.399125 234.25597 
L 336.779925 241.646875 
L 337.970325 243.929257 
L 338.763925 245.053068 
L 339.557525 245.831268 
L 340.351125 246.134398 
L 340.747925 246.220752 
L 341.541525 246.02387 
L 342.335125 245.287143 
L 343.525525 243.641063 
L 344.319125 242.244628 
L 346.699925 236.255286 
L 349.080725 228.612293 
L 351.064725 221.833507 
L 351.858325 218.968763 
L 353.842325 212.501694 
L 354.239125 211.899795 
L 355.032725 209.522659 
L 355.826325 207.763661 
L 356.223125 207.139326 
L 357.016725 205.68262 
L 358.207125 203.910879 
L 358.603925 203.659727 
L 359.397525 202.770999 
L 359.794325 202.845029 
L 360.191125 202.220605 
L 360.587925 201.81524 
L 360.984725 202.061265 
L 361.381525 201.740978 
L 362.175125 200.772281 
L 362.571925 200.673942 
L 363.365525 200.007528 
L 363.762325 199.963512 
L 364.159125 198.956587 
L 365.349525 197.688059 
L 365.746325 196.794284 
L 366.539925 195.731644 
L 367.333525 193.651593 
L 367.730325 192.861113 
L 368.127125 191.379947 
L 368.523925 190.542448 
L 369.317525 187.882219 
L 370.111125 184.246962 
L 370.507925 183.160121 
L 371.301525 179.567132 
L 371.698325 177.191726 
L 372.491925 173.911755 
L 373.682325 168.240489 
L 374.079125 165.411253 
L 374.872725 161.88327 
L 375.269525 159.660223 
L 375.666325 158.250688 
L 376.063125 154.986295 
L 376.459925 153.59406 
L 377.253525 149.93321 
L 377.650325 148.317243 
L 378.047125 147.182178 
L 378.840725 142.695511 
L 379.237525 142.783167 
L 379.634325 141.508727 
L 380.031125 141.641682 
L 380.427925 141.487237 
L 380.824725 139.555424 
L 381.618325 141.201085 
L 382.015125 140.323369 
L 382.411925 140.424222 
L 382.808725 142.016827 
L 383.205525 141.274206 
L 383.999125 141.49544 
L 384.395925 142.371373 
L 385.586325 142.964809 
L 385.983125 143.997862 
L 386.379925 145.397053 
L 386.776725 144.45451 
L 387.173525 144.630088 
L 387.570325 144.504624 
L 387.967125 145.110456 
L 388.363925 144.791489 
L 388.760725 145.162888 
L 389.157525 145.741523 
L 389.554325 145.186965 
L 389.951125 145.332225 
L 390.347925 146.332908 
L 390.744725 146.04319 
L 391.141525 147.716494 
L 391.538325 147.334394 
L 391.935125 147.193057 
L 392.331925 147.985258 
L 392.728725 146.299737 
L 393.125525 147.754927 
L 393.522325 150.571768 
L 393.919125 147.713819 
L 394.315925 149.453735 
L 394.712725 150.640697 
L 395.109525 148.983444 
L 395.506325 150.386826 
L 395.903125 151.227357 
L 395.903125 151.227357 
" clip-path="url(#paab997709e)" style="fill: none; stroke: #ff7f0e; stroke-width: 1.5; stroke-linecap: square"/>
   </g>
   <g id="line2d_35">
    <path d="M 108.223125 259.416009 
L 108.619925 257.310634 
L 109.413525 260.847353 
L 109.810325 260.83739 
L 110.207125 261.216 
L 110.603925 260.495873 
L 111.397525 260.452318 
L 111.794325 260.604364 
L 112.191125 260.333357 
L 112.587925 260.506278 
L 112.984725 260.274892 
L 113.381525 260.355838 
L 113.778325 260.555911 
L 114.175125 260.209051 
L 114.571925 260.404585 
L 114.968725 260.291196 
L 115.762325 260.389445 
L 116.159125 260.287918 
L 116.555925 260.446329 
L 116.952725 260.194403 
L 117.746325 260.257027 
L 118.143125 260.549365 
L 118.539925 260.273665 
L 118.936725 260.170315 
L 119.333525 260.289284 
L 121.714325 260.313845 
L 122.111125 260.085351 
L 122.904725 260.256941 
L 124.095125 260.232924 
L 124.491925 260.145141 
L 125.682325 260.234311 
L 126.079125 260.141816 
L 126.475925 260.253491 
L 126.872725 260.108608 
L 127.666325 260.120215 
L 128.459925 259.842331 
L 128.856725 259.910037 
L 129.253525 259.716036 
L 130.047125 259.709652 
L 130.840725 259.415591 
L 131.237525 259.006479 
L 131.634325 259.000617 
L 132.824725 257.736344 
L 134.411925 253.861499 
L 135.602325 248.917953 
L 135.999125 247.274059 
L 137.189525 239.320848 
L 137.586325 235.7446 
L 139.173525 214.436685 
L 141.554325 169.144026 
L 142.347925 149.277767 
L 143.141525 122.612665 
L 144.331925 75.444284 
L 145.522325 34.189416 
L 146.315925 19.296 
L 146.712725 21.434458 
L 147.109525 25.529981 
L 147.506325 30.872644 
L 149.490325 90.042689 
L 149.887125 96.467795 
L 150.680725 105.325775 
L 151.474325 108.379285 
L 151.871125 107.644646 
L 152.267925 106.532998 
L 152.664725 104.804752 
L 153.061525 102.515388 
L 153.855125 96.627473 
L 154.251925 91.306282 
L 154.648725 88.531595 
L 155.045525 84.455094 
L 155.442325 83.077387 
L 155.839125 79.717916 
L 156.235925 78.442231 
L 156.632725 78.067107 
L 157.029525 77.941628 
L 157.426325 77.362942 
L 157.823125 78.114071 
L 158.219925 80.588662 
L 158.616725 85.311381 
L 159.013525 86.622511 
L 159.807125 91.667015 
L 160.600725 93.364005 
L 160.997525 92.695469 
L 161.791125 90.451486 
L 162.187925 88.533283 
L 162.584725 88.612597 
L 162.981525 85.00342 
L 163.378325 82.809119 
L 163.775125 79.509 
L 164.171925 79.421615 
L 165.362325 74.347176 
L 165.759125 74.680165 
L 166.155925 77.887387 
L 166.552725 78.176651 
L 166.949525 83.115562 
L 167.743125 88.751126 
L 168.536725 98.012541 
L 168.933525 100.707389 
L 170.520725 115.830972 
L 170.917525 116.053751 
L 171.711125 120.735942 
L 172.504725 122.255371 
L 172.901525 124.21699 
L 173.298325 125.526133 
L 173.695125 126.312897 
L 174.091925 128.597993 
L 174.488725 129.84694 
L 174.885525 129.527624 
L 176.075925 129.576955 
L 176.472725 130.013522 
L 177.266325 129.083717 
L 177.663125 129.118318 
L 178.059925 129.45723 
L 178.456725 129.548923 
L 178.853525 129.11279 
L 179.250325 128.066104 
L 179.647125 129.342865 
L 180.043925 128.468869 
L 180.837525 128.220139 
L 181.234325 127.5718 
L 181.631125 127.358369 
L 182.424725 126.653812 
L 182.821525 126.404955 
L 183.218325 127.398973 
L 183.615125 126.16812 
L 184.011925 127.843831 
L 184.408725 127.414945 
L 184.805525 127.688584 
L 185.202325 126.375985 
L 185.599125 126.337917 
L 185.995925 126.860431 
L 186.789525 125.185687 
L 187.186325 123.926438 
L 187.979925 122.158085 
L 188.376725 121.75064 
L 188.773525 120.875616 
L 189.567125 120.663807 
L 189.963925 119.82488 
L 190.360725 119.530875 
L 190.757525 118.692912 
L 191.154325 119.517541 
L 191.947925 118.22393 
L 192.344725 118.14854 
L 192.741525 119.051444 
L 193.138325 116.852814 
L 193.931925 117.198746 
L 194.328725 117.855132 
L 194.725525 116.342465 
L 195.122325 115.638087 
L 195.519125 115.929119 
L 195.915925 116.464465 
L 196.312725 117.268766 
L 196.709525 115.778297 
L 197.106325 116.042308 
L 197.503125 115.5453 
L 197.899925 116.081103 
L 198.296725 116.364938 
L 198.693525 116.412874 
L 199.090325 116.191674 
L 199.487125 116.122629 
L 199.883925 115.103673 
L 200.280725 115.190664 
L 200.677525 115.746412 
L 201.074325 114.443504 
L 201.867925 114.441148 
L 202.264725 114.10869 
L 202.661525 113.413006 
L 203.058325 111.645201 
L 203.455125 110.452649 
L 203.851925 111.260259 
L 204.248725 111.210397 
L 204.645525 109.702264 
L 205.042325 111.399471 
L 205.439125 109.85447 
L 205.835925 107.815238 
L 206.232725 108.822672 
L 206.629525 107.424411 
L 207.026325 107.554325 
L 207.819925 104.273382 
L 208.216725 105.189848 
L 208.613525 103.634479 
L 209.010325 103.368844 
L 210.200725 101.316704 
L 210.597525 101.033205 
L 211.787925 104.132379 
L 212.184725 103.58998 
L 212.978325 100.095313 
L 213.375125 98.301187 
L 213.771925 97.922998 
L 214.168725 96.575171 
L 214.565525 96.016672 
L 214.962325 96.33355 
L 215.359125 95.039127 
L 215.755925 95.213078 
L 216.152725 94.832047 
L 216.549525 96.682601 
L 216.946325 94.783649 
L 217.739925 96.212849 
L 218.136725 95.032931 
L 218.533525 96.142775 
L 218.930325 95.766342 
L 219.327125 96.619209 
L 219.723925 97.201855 
L 220.120725 96.521781 
L 220.914325 98.403509 
L 221.311125 98.729718 
L 221.707925 100.01183 
L 222.104725 100.367728 
L 222.501525 100.390004 
L 222.898325 101.186212 
L 223.295125 102.73402 
L 223.691925 103.229815 
L 224.088725 105.236188 
L 224.485525 105.469238 
L 225.279125 108.249337 
L 225.675925 108.526225 
L 226.072725 111.145228 
L 226.469525 111.845034 
L 227.659925 116.867044 
L 228.056725 117.818673 
L 228.453525 120.398195 
L 228.850325 120.879669 
L 229.247125 124.281368 
L 229.643925 124.952355 
L 230.437525 128.903406 
L 230.834325 131.291273 
L 231.231125 132.689445 
L 232.024725 136.919331 
L 232.421525 138.076161 
L 233.215125 142.292133 
L 233.611925 144.098198 
L 234.008725 146.719196 
L 234.802325 150.675706 
L 235.595925 155.57081 
L 235.992725 156.723638 
L 237.976725 167.566412 
L 238.373525 170.494673 
L 238.770325 171.537108 
L 239.960725 178.097221 
L 240.357525 180.795542 
L 240.754325 182.244921 
L 241.151125 185.252468 
L 241.547925 186.236237 
L 244.722325 201.770227 
L 245.912725 207.267865 
L 246.309525 209.30535 
L 246.706325 210.697593 
L 247.896725 216.228382 
L 248.293525 217.313815 
L 249.087125 220.642636 
L 249.880725 224.037648 
L 250.277525 225.261335 
L 251.467925 229.687657 
L 251.864725 230.55309 
L 253.055125 234.25333 
L 253.848725 235.909516 
L 254.642325 238.195724 
L 255.435925 239.630938 
L 255.832725 240.752784 
L 257.419925 243.086763 
L 257.816725 244.01753 
L 258.610325 245.016328 
L 259.007125 245.390501 
L 259.403925 246.216918 
L 259.800725 246.495428 
L 260.197525 246.976652 
L 260.594325 246.951597 
L 261.387925 247.527099 
L 261.784725 247.625647 
L 262.181525 247.499312 
L 262.975125 246.372172 
L 263.768725 244.252299 
L 264.959125 239.343739 
L 266.546325 228.702978 
L 268.530325 213.01616 
L 273.688725 163.838134 
L 274.085525 161.769654 
L 274.482325 157.543795 
L 274.879125 156.110363 
L 275.275925 153.891516 
L 276.466325 150.24921 
L 276.863125 149.326321 
L 277.259925 149.047588 
L 278.053525 152.325305 
L 278.450325 152.702245 
L 278.847125 152.083236 
L 279.243925 155.88176 
L 279.640725 158.434405 
L 280.434325 165.701113 
L 280.831125 168.370247 
L 282.815125 186.489473 
L 283.211925 188.382942 
L 284.005525 194.095081 
L 284.402325 195.567328 
L 284.799125 197.845112 
L 285.195925 199.002284 
L 285.592725 199.472333 
L 286.386325 199.988418 
L 286.783125 199.464845 
L 287.179925 199.824484 
L 287.576725 198.505198 
L 288.370325 197.015686 
L 288.767125 195.386172 
L 289.163925 195.091187 
L 289.560725 193.943843 
L 289.957525 193.600897 
L 290.354325 192.494941 
L 290.751125 192.144139 
L 291.147925 192.355484 
L 291.544725 193.20318 
L 291.941525 193.22306 
L 293.131925 195.130364 
L 294.719125 198.319761 
L 295.115925 198.414048 
L 295.909525 200.373846 
L 296.306325 200.316259 
L 296.703125 201.023429 
L 297.099925 199.775939 
L 297.496725 199.902761 
L 297.893525 199.015004 
L 298.290325 198.619191 
L 299.083925 196.438634 
L 299.480725 193.882771 
L 300.274325 191.217619 
L 300.671125 188.233015 
L 301.067925 187.462215 
L 301.861525 181.771694 
L 302.258325 179.721722 
L 304.242325 162.447572 
L 305.432725 147.102808 
L 306.623125 131.884497 
L 307.019925 125.42676 
L 307.416725 122.83907 
L 308.607125 110.34284 
L 309.003925 109.351946 
L 309.400725 110.381708 
L 309.797525 110.731295 
L 310.194325 112.801246 
L 310.591125 117.041321 
L 311.384725 127.49542 
L 314.559125 194.884123 
L 315.352725 206.826814 
L 316.146325 217.836146 
L 317.733525 230.747947 
L 318.130325 233.324053 
L 319.717525 239.376303 
L 320.114325 239.213514 
L 320.907925 240.732744 
L 322.098325 240.902703 
L 322.495125 240.645587 
L 322.891925 239.879681 
L 323.288725 239.497271 
L 323.685525 238.953649 
L 324.082325 238.200096 
L 324.479125 238.04765 
L 324.875925 237.518454 
L 326.066325 234.620439 
L 327.256725 232.180296 
L 327.653525 230.674693 
L 328.050325 230.201702 
L 329.637525 225.088011 
L 330.034325 224.475663 
L 330.827925 221.853488 
L 331.224725 219.717514 
L 331.621525 219.641075 
L 332.018325 216.668873 
L 332.811925 214.417644 
L 333.208725 211.896479 
L 334.002325 208.991968 
L 334.795925 203.934335 
L 335.192725 203.051135 
L 335.589525 200.891788 
L 335.986325 196.444368 
L 336.383125 193.808705 
L 336.779925 194.29959 
L 337.176725 189.149159 
L 337.573525 186.263254 
L 338.763925 175.400962 
L 339.160725 172.750166 
L 339.954325 165.338463 
L 340.747925 154.654386 
L 341.144725 149.849574 
L 341.541525 148.254355 
L 341.938325 139.443404 
L 342.731925 132.012032 
L 343.128725 126.251856 
L 343.525525 125.981129 
L 345.112725 102.624092 
L 345.509525 98.563771 
L 345.906325 96.342606 
L 346.699925 85.512057 
L 347.096725 87.593826 
L 347.890325 77.258344 
L 348.287125 74.552683 
L 348.683925 77.291729 
L 349.080725 78.26462 
L 349.477525 78.759582 
L 350.271125 86.23756 
L 350.667925 94.80394 
L 351.064725 100.509455 
L 351.461525 103.187128 
L 353.048725 137.46342 
L 353.445525 145.170679 
L 354.239125 165.209905 
L 355.429525 185.39568 
L 356.223125 200.75719 
L 357.016725 211.596601 
L 358.207125 226.239844 
L 359.397525 235.578234 
L 359.794325 238.943761 
L 361.381525 246.675239 
L 361.778325 248.721272 
L 363.762325 253.503209 
L 364.159125 254.215081 
L 365.746325 255.930355 
L 366.143125 256.522873 
L 366.539925 256.483623 
L 366.936725 256.841606 
L 367.333525 256.85905 
L 367.730325 257.290571 
L 368.920725 257.886761 
L 369.317525 258.038237 
L 370.111125 257.991686 
L 372.095125 258.625211 
L 372.491925 258.408273 
L 372.888725 258.815551 
L 373.285525 258.54936 
L 373.682325 258.790449 
L 374.079125 258.337557 
L 375.269525 258.852072 
L 375.666325 258.562352 
L 376.063125 258.536138 
L 376.856725 259.069573 
L 377.253525 258.592429 
L 377.650325 258.847764 
L 378.047125 256.02019 
L 378.443925 258.630162 
L 378.840725 258.369238 
L 379.237525 258.767675 
L 379.634325 258.590352 
L 380.031125 258.767856 
L 380.427925 258.704444 
L 380.824725 258.830431 
L 382.411925 258.446353 
L 382.808725 258.834051 
L 383.205525 257.925329 
L 383.602325 258.736986 
L 383.999125 258.824414 
L 384.395925 258.407157 
L 384.792725 258.460738 
L 385.189525 258.234983 
L 385.586325 258.870468 
L 386.379925 258.046547 
L 386.776725 258.335863 
L 387.173525 257.825788 
L 387.570325 258.20594 
L 387.967125 257.962671 
L 388.363925 258.342698 
L 388.760725 256.138949 
L 389.157525 257.007145 
L 389.554325 258.172398 
L 389.951125 257.216968 
L 390.347925 257.298038 
L 390.744725 257.25677 
L 391.141525 258.016357 
L 391.538325 257.12432 
L 391.935125 254.938037 
L 392.331925 256.619023 
L 392.728725 253.328222 
L 393.125525 254.314783 
L 393.522325 254.309677 
L 393.919125 253.462551 
L 394.315925 251.781319 
L 394.712725 253.042847 
L 395.109525 252.720182 
L 395.506325 253.253988 
L 395.903125 251.925539 
L 395.903125 251.925539 
" clip-path="url(#paab997709e)" style="fill: none; stroke: #2ca02c; stroke-width: 1.5; stroke-linecap: square"/>
   </g>
   <g id="patch_3">
    <path d="M 48.703125 273.312 
L 48.703125 7.2 
" style="fill: none; stroke: #000000; stroke-width: 0.8; stroke-linejoin: miter; stroke-linecap: square"/>
   </g>
   <g id="patch_4">
    <path d="M 405.823125 273.312 
L 405.823125 7.2 
" style="fill: none; stroke: #000000; stroke-width: 0.8; stroke-linejoin: miter; stroke-linecap: square"/>
   </g>
   <g id="patch_5">
    <path d="M 48.703125 273.312 
L 405.823125 273.312 
" style="fill: none; stroke: #000000; stroke-width: 0.8; stroke-linejoin: miter; stroke-linecap: square"/>
   </g>
   <g id="patch_6">
    <path d="M 48.703125 7.2 
L 405.823125 7.2 
" style="fill: none; stroke: #000000; stroke-width: 0.8; stroke-linejoin: miter; stroke-linecap: square"/>
   </g>
   <g id="legend_1">
    <g id="patch_7">
     <path d="M 272.835625 59.234375 
L 398.823125 59.234375 
Q 400.823125 59.234375 400.823125 57.234375 
L 400.823125 14.2 
Q 400.823125 12.2 398.823125 12.2 
L 272.835625 12.2 
Q 270.835625 12.2 270.835625 14.2 
L 270.835625 57.234375 
Q 270.835625 59.234375 272.835625 59.234375 
z
" style="fill: #ffffff; opacity: 0.8; stroke: #cccccc; stroke-linejoin: miter"/>
    </g>
    <g id="line2d_36">
     <path d="M 274.835625 20.298437 
L 284.835625 20.298437 
L 294.835625 20.298437 
" style="fill: none; stroke: #1f77b4; stroke-width: 1.5; stroke-linecap: square"/>
    </g>
    <g id="text_19">
     <!-- AM1.5G -->
     <g transform="translate(302.835625 23.798437) scale(0.1 -0.1)">
      <defs>
       <path id="DejaVuSans-41" d="M 2188 4044 
L 1331 1722 
L 3047 1722 
L 2188 4044 
z
M 1831 4666 
L 2547 4666 
L 4325 0 
L 3669 0 
L 3244 1197 
L 1141 1197 
L 716 0 
L 50 0 
L 1831 4666 
z
" transform="scale(0.015625)"/>
       <path id="DejaVuSans-4d" d="M 628 4666 
L 1569 4666 
L 2759 1491 
L 3956 4666 
L 4897 4666 
L 4897 0 
L 4281 0 
L 4281 4097 
L 3078 897 
L 2444 897 
L 1241 4097 
L 1241 0 
L 628 0 
L 628 4666 
z
" transform="scale(0.015625)"/>
       <path id="DejaVuSans-47" d="M 3809 666 
L 3809 1919 
L 2778 1919 
L 2778 2438 
L 4434 2438 
L 4434 434 
Q 4069 175 3628 42 
Q 3188 -91 2688 -91 
Q 1594 -91 976 548 
Q 359 1188 359 2328 
Q 359 3472 976 4111 
Q 1594 4750 2688 4750 
Q 3144 4750 3555 4637 
Q 3966 4525 4313 4306 
L 4313 3634 
Q 3963 3931 3569 4081 
Q 3175 4231 2741 4231 
Q 1884 4231 1454 3753 
Q 1025 3275 1025 2328 
Q 1025 1384 1454 906 
Q 1884 428 2741 428 
Q 3075 428 3337 486 
Q 3600 544 3809 666 
z
" transform="scale(0.015625)"/>
      </defs>
      <use xlink:href="#DejaVuSans-41"/>
      <use xlink:href="#DejaVuSans-4d" x="68.408203"/>
      <use xlink:href="#DejaVuSans-31" x="154.6875"/>
      <use xlink:href="#DejaVuSans-2e" x="218.310547"/>
      <use xlink:href="#DejaVuSans-35" x="250.097656"/>
      <use xlink:href="#DejaVuSans-47" x="313.720703"/>
     </g>
    </g>
    <g id="line2d_37">
     <path d="M 274.835625 34.976562 
L 284.835625 34.976562 
L 294.835625 34.976562 
" style="fill: none; stroke: #ff7f0e; stroke-width: 1.5; stroke-linecap: square"/>
    </g>
    <g id="text_20">
     <!-- Wavelabs -->
     <g transform="translate(302.835625 38.476562) scale(0.1 -0.1)">
      <defs>
       <path id="DejaVuSans-62" d="M 3116 1747 
Q 3116 2381 2855 2742 
Q 2594 3103 2138 3103 
Q 1681 3103 1420 2742 
Q 1159 2381 1159 1747 
Q 1159 1113 1420 752 
Q 1681 391 2138 391 
Q 2594 391 2855 752 
Q 3116 1113 3116 1747 
z
M 1159 2969 
Q 1341 3281 1617 3432 
Q 1894 3584 2278 3584 
Q 2916 3584 3314 3078 
Q 3713 2572 3713 1747 
Q 3713 922 3314 415 
Q 2916 -91 2278 -91 
Q 1894 -91 1617 61 
Q 1341 213 1159 525 
L 1159 0 
L 581 0 
L 581 4863 
L 1159 4863 
L 1159 2969 
z
" transform="scale(0.015625)"/>
       <path id="DejaVuSans-73" d="M 2834 3397 
L 2834 2853 
Q 2591 2978 2328 3040 
Q 2066 3103 1784 3103 
Q 1356 3103 1142 2972 
Q 928 2841 928 2578 
Q 928 2378 1081 2264 
Q 1234 2150 1697 2047 
L 1894 2003 
Q 2506 1872 2764 1633 
Q 3022 1394 3022 966 
Q 3022 478 2636 193 
Q 2250 -91 1575 -91 
Q 1294 -91 989 -36 
Q 684 19 347 128 
L 347 722 
Q 666 556 975 473 
Q 1284 391 1588 391 
Q 1994 391 2212 530 
Q 2431 669 2431 922 
Q 2431 1156 2273 1281 
Q 2116 1406 1581 1522 
L 1381 1569 
Q 847 1681 609 1914 
Q 372 2147 372 2553 
Q 372 3047 722 3315 
Q 1072 3584 1716 3584 
Q 2034 3584 2315 3537 
Q 2597 3491 2834 3397 
z
" transform="scale(0.015625)"/>
      </defs>
      <use xlink:href="#DejaVuSans-57"/>
      <use xlink:href="#DejaVuSans-61" x="92.501953"/>
      <use xlink:href="#DejaVuSans-76" x="153.78125"/>
      <use xlink:href="#DejaVuSans-65" x="212.960938"/>
      <use xlink:href="#DejaVuSans-6c" x="274.484375"/>
      <use xlink:href="#DejaVuSans-61" x="302.267578"/>
      <use xlink:href="#DejaVuSans-62" x="363.546875"/>
      <use xlink:href="#DejaVuSans-73" x="427.023438"/>
     </g>
    </g>
    <g id="line2d_38">
     <path d="M 274.835625 49.654687 
L 284.835625 49.654687 
L 294.835625 49.654687 
" style="fill: none; stroke: #2ca02c; stroke-width: 1.5; stroke-linecap: square"/>
    </g>
    <g id="text_21">
     <!-- Newport LSH-7320 -->
     <g transform="translate(302.835625 53.154687) scale(0.1 -0.1)">
      <defs>
       <path id="DejaVuSans-4e" d="M 628 4666 
L 1478 4666 
L 3547 763 
L 3547 4666 
L 4159 4666 
L 4159 0 
L 3309 0 
L 1241 3903 
L 1241 0 
L 628 0 
L 628 4666 
z
" transform="scale(0.015625)"/>
       <path id="DejaVuSans-77" d="M 269 3500 
L 844 3500 
L 1563 769 
L 2278 3500 
L 2956 3500 
L 3675 769 
L 4391 3500 
L 4966 3500 
L 4050 0 
L 3372 0 
L 2619 2869 
L 1863 0 
L 1184 0 
L 269 3500 
z
" transform="scale(0.015625)"/>
       <path id="DejaVuSans-6f" d="M 1959 3097 
Q 1497 3097 1228 2736 
Q 959 2375 959 1747 
Q 959 1119 1226 758 
Q 1494 397 1959 397 
Q 2419 397 2687 759 
Q 2956 1122 2956 1747 
Q 2956 2369 2687 2733 
Q 2419 3097 1959 3097 
z
M 1959 3584 
Q 2709 3584 3137 3096 
Q 3566 2609 3566 1747 
Q 3566 888 3137 398 
Q 2709 -91 1959 -91 
Q 1206 -91 779 398 
Q 353 888 353 1747 
Q 353 2609 779 3096 
Q 1206 3584 1959 3584 
z
" transform="scale(0.015625)"/>
       <path id="DejaVuSans-4c" d="M 628 4666 
L 1259 4666 
L 1259 531 
L 3531 531 
L 3531 0 
L 628 0 
L 628 4666 
z
" transform="scale(0.015625)"/>
       <path id="DejaVuSans-48" d="M 628 4666 
L 1259 4666 
L 1259 2753 
L 3553 2753 
L 3553 4666 
L 4184 4666 
L 4184 0 
L 3553 0 
L 3553 2222 
L 1259 2222 
L 1259 0 
L 628 0 
L 628 4666 
z
" transform="scale(0.015625)"/>
       <path id="DejaVuSans-2d" d="M 313 2009 
L 1997 2009 
L 1997 1497 
L 313 1497 
L 313 2009 
z
" transform="scale(0.015625)"/>
      </defs>
      <use xlink:href="#DejaVuSans-4e"/>
      <use xlink:href="#DejaVuSans-65" x="74.804688"/>
      <use xlink:href="#DejaVuSans-77" x="136.328125"/>
      <use xlink:href="#DejaVuSans-70" x="218.115234"/>
      <use xlink:href="#DejaVuSans-6f" x="281.591797"/>
      <use xlink:href="#DejaVuSans-72" x="342.773438"/>
      <use xlink:href="#DejaVuSans-74" x="383.886719"/>
      <use xlink:href="#DejaVuSans-20" x="423.095703"/>
      <use xlink:href="#DejaVuSans-4c" x="454.882812"/>
      <use xlink:href="#DejaVuSans-53" x="510.595703"/>
      <use xlink:href="#DejaVuSans-48" x="574.072266"/>
      <use xlink:href="#DejaVuSans-2d" x="649.267578"/>
      <use xlink:href="#DejaVuSans-37" x="685.351562"/>
      <use xlink:href="#DejaVuSans-33" x="748.974609"/>
      <use xlink:href="#DejaVuSans-32" x="812.597656"/>
      <use xlink:href="#DejaVuSans-30" x="876.220703"/>
     </g>
    </g>
   </g>
  </g>
 </g>
 <defs>
  <clipPath id="paab997709e">
   <rect x="48.703125" y="7.2" width="357.12" height="266.112"/>
  </clipPath>
 </defs>
</svg>
