ISO-10303-21;
HEADER;
FILE_DESCRIPTION(('Open CASCADE Model'),'2;1');
FILE_NAME('Open CASCADE Shape Model','2023-11-28T16:27:30',('Author'),(
    'Open CASCADE'),'Open CASCADE STEP processor 7.7','Open CASCADE 7.7'
  ,'Unknown');
FILE_SCHEMA(('AUTOMOTIVE_DESIGN { 1 0 10303 214 1 1 1 1 }'));
ENDSEC;
DATA;
#1=APPLICATION_PROTOCOL_DEFINITION('international standard',  'automotive_design',2000,#2);
#2=APPLICATION_CONTEXT(  'core data for automotive mechanical design processes');
#3=SHAPE_DEFINITION_REPRESENTATION(#4,#10);
#4=PRODUCT_DEFINITION_SHAPE('','',#5);
#5=PRODUCT_DEFINITION('design','',#6,#9);
#6=PRODUCT_DEFINITION_FORMATION('','',#7);
#7=PRODUCT('sim_onesqcm_tandem_surfaces','sim_onesqcm_tandem_surfaces'  ,'',(#8));
#8=PRODUCT_CONTEXT('',#2,'mechanical');
#9=PRODUCT_DEFINITION_CONTEXT('part definition',#2,'design');
#10=SHAPE_REPRESENTATION('',(#11,#11,#11),#15);
#11=AXIS2_PLACEMENT_3D('',#12,#13,#14);
#12=CARTESIAN_POINT('',(0.,0.,0.));
#13=DIRECTION('',(0.,0.,1.));
#14=DIRECTION('',(1.,0.,-0.));
#15=( GEOMETRIC_REPRESENTATION_CONTEXT(3) GLOBAL_UNCERTAINTY_ASSIGNED_CONTEXT((#19)) GLOBAL_UNIT_ASSIGNED_CONTEXT((#16,#17,#18)) REPRESENTATION_CONTEXT('Context #1',  '3D Context with UNIT and UNCERTAINTY') );
#16=( LENGTH_UNIT() NAMED_UNIT(*) SI_UNIT(.MILLI.,.METRE.) );
#17=( NAMED_UNIT(*) PLANE_ANGLE_UNIT() SI_UNIT($,.RADIAN.) );
#18=( NAMED_UNIT(*) SI_UNIT($,.STERADIAN.) SOLID_ANGLE_UNIT() );
#19=UNCERTAINTY_MEASURE_WITH_UNIT(LENGTH_MEASURE(0.1),#16,  'distance_accuracy_value','confusion accuracy');
#20=PRODUCT_RELATED_PRODUCT_CATEGORY('part',$,(#7));
#21=SHAPE_DEFINITION_REPRESENTATION(#22,#27);
#22=PRODUCT_DEFINITION_SHAPE('','',#23);
#23=PRODUCT_DEFINITION('design','',#24,#26);
#24=PRODUCT_DEFINITION_FORMATION('','',#25);
#25=PRODUCT('tco','tco','',(#8));
#26=PRODUCT_DEFINITION_CONTEXT('part definition',#2,'design'); 
#27=SHAPE_REPRESENTATION('',(#11,#11),#15);
#28=CONTEXT_DEPENDENT_SHAPE_REPRESENTATION(#29,#31);
#29=( REPRESENTATION_RELATIONSHIP('','',#27,#10) REPRESENTATION_RELATIONSHIP_WITH_TRANSFORMATION(#30) SHAPE_REPRESENTATION_RELATIONSHIP() );
#30=ITEM_DEFINED_TRANSFORMATION('','',#11,#11);
#31=PRODUCT_DEFINITION_SHAPE('Placement','Placement of an item',#32);
#32=NEXT_ASSEMBLY_USAGE_OCCURRENCE('2','','',#5,#23,$);
#33=PRODUCT_RELATED_PRODUCT_CATEGORY('part',$,(#25));
#34=SHAPE_DEFINITION_REPRESENTATION(#35,#40);
#35=PRODUCT_DEFINITION_SHAPE('','',#36);
#36=PRODUCT_DEFINITION('design','',#37,#39);
#37=PRODUCT_DEFINITION_FORMATION('','',#38);
#38=PRODUCT('tco_part','tco_part','',(#8));
#39=PRODUCT_DEFINITION_CONTEXT('part definition',#2,'design');  
#40=SHAPE_REPRESENTATION('',(#11,#41,#426,#526),#594);
#41=SHELL_BASED_SURFACE_MODEL('',(#42));
#42=OPEN_SHELL('',(#43));
#43=ADVANCED_FACE('',(#44),#58,.T.);
#44=FACE_BOUND('',#45,.T.);
#45=EDGE_LOOP('',(#46,#67,#81,#94,#108,#121,#136,#151,#166,#179,#194    ,#207,#221,#234,#246,#259,#269,#282,#296,#305,#319,#328,#342,#351,    #365,#374,#388,#401,#411,#424));
#46=ORIENTED_EDGE('',*,*,#47,.T.);
#47=EDGE_CURVE('',#48,#50,#52,.T.);
#48=VERTEX_POINT('',#49);
#49=CARTESIAN_POINT('',(1.025E+07,1.249999999999E+06,0.));
#50=VERTEX_POINT('',#51);
#51=CARTESIAN_POINT('',(1.15E+07,2.499999999999E+06,0.));
#52=SURFACE_CURVE('',#53,(#57),.PCURVE_S1.);
#53=CIRCLE('',#54,1.25E+06);
#54=AXIS2_PLACEMENT_3D('',#55,#13,#56);
#55=CARTESIAN_POINT('',(1.025E+07,2.499999999999E+06,0.));
#56=DIRECTION('',(1.,0.,0.));
#57=PCURVE('',#58,#61);
#58=PLANE('',#59);
#59=AXIS2_PLACEMENT_3D('',#60,#13,#56);
#60=CARTESIAN_POINT('',(2.604363504942E-07,5.996128675735E+06,0.));
#61=DEFINITIONAL_REPRESENTATION('',(#62),#66);
#62=CIRCLE('',#63,1.25E+06);
#63=AXIS2_PLACEMENT_2D('',#64,#65);
#64=CARTESIAN_POINT('',(1.025E+07,-3.496128675736E+06));
#65=DIRECTION('',(1.,0.));
#66=( GEOMETRIC_REPRESENTATION_CONTEXT(2) PARAMETRIC_REPRESENTATION_CONTEXT() REPRESENTATION_CONTEXT('2D SPACE',''  ) );
#67=ORIENTED_EDGE('',*,*,#68,.T.);
#68=EDGE_CURVE('',#50,#69,#71,.T.);
#69=VERTEX_POINT('',#70);
#70=CARTESIAN_POINT('',(1.15E+07,6.161144271469E+06,0.));
#71=SURFACE_CURVE('',#72,(#75),.PCURVE_S1.);
#72=LINE('',#51,#73);
#73=VECTOR('',#74,1.);
#74=DIRECTION('',(0.,1.,0.));
#75=PCURVE('',#58,#76);
#76=DEFINITIONAL_REPRESENTATION('',(#77),#66);
#77=LINE('',#78,#79);
#78=CARTESIAN_POINT('',(1.15E+07,-3.496128675736E+06));
#79=VECTOR('',#80,1.);
#80=DIRECTION('',(0.,1.));
#81=ORIENTED_EDGE('',*,*,#82,.T.);
#82=EDGE_CURVE('',#69,#83,#85,.T.);
#83=VERTEX_POINT('',#84);
#84=CARTESIAN_POINT('',(1.025E+07,7.411144271469E+06,0.));
#85=SURFACE_CURVE('',#86,(#89),.PCURVE_S1.);
#86=CIRCLE('',#87,1.25E+06);
#87=AXIS2_PLACEMENT_3D('',#88,#13,#56);
#88=CARTESIAN_POINT('',(1.025E+07,6.161144271469E+06,0.));
#89=PCURVE('',#58,#90);
#90=DEFINITIONAL_REPRESENTATION('',(#91),#66);
#91=CIRCLE('',#92,1.25E+06);
#92=AXIS2_PLACEMENT_2D('',#93,#65);
#93=CARTESIAN_POINT('',(1.025E+07,1.650155957339E+05));
#94=ORIENTED_EDGE('',*,*,#95,.T.);
#95=EDGE_CURVE('',#83,#96,#98,.T.);
#96=VERTEX_POINT('',#97);
#97=CARTESIAN_POINT('',(8.500000000001E+05,7.411144271469E+06,0.));
#98=SURFACE_CURVE('',#99,(#102),.PCURVE_S1.);
#99=LINE('',#84,#100);
#100=VECTOR('',#101,1.);
#101=DIRECTION('',(-1.,1.889741318511E-15,0.));
#102=PCURVE('',#58,#103);
#103=DEFINITIONAL_REPRESENTATION('',(#104),#66);
#104=LINE('',#105,#106);
#105=CARTESIAN_POINT('',(1.025E+07,1.415015595734E+06));
#106=VECTOR('',#107,1.);
#107=DIRECTION('',(-1.,1.889741318511E-15));
#108=ORIENTED_EDGE('',*,*,#109,.F.);
#109=EDGE_CURVE('',#110,#96,#112,.T.);
#110=VERTEX_POINT('',#111);
#111=CARTESIAN_POINT('',(7.50000000001E+05,7.511144271469E+06,0.));
#112=SURFACE_CURVE('',#113,(#116),.PCURVE_S1.);
#113=CIRCLE('',#114,1.E+05);
#114=AXIS2_PLACEMENT_3D('',#115,#13,#56);
#115=CARTESIAN_POINT('',(8.500000000019E+05,7.511144271469E+06,0.));
#116=PCURVE('',#58,#117);
#117=DEFINITIONAL_REPRESENTATION('',(#118),#66);
#118=CIRCLE('',#119,1.E+05);
#119=AXIS2_PLACEMENT_2D('',#120,#65);
#120=CARTESIAN_POINT('',(8.500000000016E+05,1.515015595734E+06));
#121=ORIENTED_EDGE('',*,*,#122,.T.);
#122=EDGE_CURVE('',#110,#123,#125,.T.);
#123=VERTEX_POINT('',#124);
#124=CARTESIAN_POINT('',(7.500000000009E+05,1.075E+07,0.));
#125=SURFACE_CURVE('',#126,(#130),.PCURVE_S1.);
#126=LINE('',#127,#128);
#127=CARTESIAN_POINT('',(7.500000000019E+05,7.511144271469E+06,0.));
#128=VECTOR('',#129,1.);
#129=DIRECTION('',(8.501005700306E-15,1.,0.));
#130=PCURVE('',#58,#131);
#131=DEFINITIONAL_REPRESENTATION('',(#132),#66);
#132=LINE('',#133,#134);
#133=CARTESIAN_POINT('',(7.500000000016E+05,1.515015595734E+06));
#134=VECTOR('',#135,1.);
#135=DIRECTION('',(8.501005700306E-15,1.));
#136=ORIENTED_EDGE('',*,*,#137,.T.);
#137=EDGE_CURVE('',#123,#138,#140,.T.);
#138=VERTEX_POINT('',#139);
#139=CARTESIAN_POINT('',(-7.499999999986E+05,1.075E+07,0.));
#140=SURFACE_CURVE('',#141,(#145),.PCURVE_S1.);
#141=LINE('',#142,#143);
#142=CARTESIAN_POINT('',(1.5E+07,1.075E+07,0.));
#143=VECTOR('',#144,1.);
#144=DIRECTION('',(-1.,0.,0.));
#145=PCURVE('',#58,#146);
#146=DEFINITIONAL_REPRESENTATION('',(#147),#66);
#147=LINE('',#148,#149);
#148=CARTESIAN_POINT('',(1.5E+07,4.753871324264E+06));
#149=VECTOR('',#150,1.);
#150=DIRECTION('',(-1.,0.));
#151=ORIENTED_EDGE('',*,*,#152,.T.);
#152=EDGE_CURVE('',#138,#153,#155,.T.);
#153=VERTEX_POINT('',#154);
#154=CARTESIAN_POINT('',(-7.49999999999E+05,7.511144271469E+06,0.));
#155=SURFACE_CURVE('',#156,(#160),.PCURVE_S1.);
#156=LINE('',#157,#158);
#157=CARTESIAN_POINT('',(-7.499999999981E+05,1.075E+07,0.));
#158=VECTOR('',#159,1.);
#159=DIRECTION('',(-1.103759611088E-14,-1.,0.));
#160=PCURVE('',#58,#161);
#161=DEFINITIONAL_REPRESENTATION('',(#162),#66);
#162=LINE('',#163,#164);
#163=CARTESIAN_POINT('',(-7.499999999984E+05,4.753871324264E+06));
#164=VECTOR('',#165,1.);
#165=DIRECTION('',(-1.103759611088E-14,-1.));
#166=ORIENTED_EDGE('',*,*,#167,.F.);
#167=EDGE_CURVE('',#168,#153,#170,.T.);
#168=VERTEX_POINT('',#169);
#169=CARTESIAN_POINT('',(-8.49999999999E+05,7.411144271469E+06,0.));
#170=SURFACE_CURVE('',#171,(#174),.PCURVE_S1.);
#171=CIRCLE('',#172,1.E+05);
#172=AXIS2_PLACEMENT_3D('',#173,#13,#56);
#173=CARTESIAN_POINT('',(-8.499999999982E+05,7.511144271469E+06,0.));
#174=PCURVE('',#58,#175);
#175=DEFINITIONAL_REPRESENTATION('',(#176),#66);
#176=CIRCLE('',#177,1.E+05);
#177=AXIS2_PLACEMENT_2D('',#178,#65);
#178=CARTESIAN_POINT('',(-8.499999999984E+05,1.515015595734E+06));
#179=ORIENTED_EDGE('',*,*,#180,.T.);
#180=EDGE_CURVE('',#168,#181,#183,.T.);
#181=VERTEX_POINT('',#182);
#182=CARTESIAN_POINT('',(-1.025E+07,7.411144271469E+06,0.));
#183=SURFACE_CURVE('',#184,(#188),.PCURVE_S1.);
#184=LINE('',#185,#186);
#185=CARTESIAN_POINT('',(-8.499999999982E+05,7.411144271469E+06,0.));
#186=VECTOR('',#187,1.);
#187=DIRECTION('',(-1.,-1.700767186659E-15,0.));
#188=PCURVE('',#58,#189);
#189=DEFINITIONAL_REPRESENTATION('',(#190),#66);
#190=LINE('',#191,#192);
#191=CARTESIAN_POINT('',(-8.499999999984E+05,1.415015595734E+06));
#192=VECTOR('',#193,1.);
#193=DIRECTION('',(-1.,-1.700767186659E-15));
#194=ORIENTED_EDGE('',*,*,#195,.T.);
#195=EDGE_CURVE('',#181,#196,#198,.T.);
#196=VERTEX_POINT('',#197);
#197=CARTESIAN_POINT('',(-1.15E+07,6.161144271469E+06,0.));
#198=SURFACE_CURVE('',#199,(#202),.PCURVE_S1.);
#199=CIRCLE('',#200,1.25E+06);
#200=AXIS2_PLACEMENT_3D('',#201,#13,#56);
#201=CARTESIAN_POINT('',(-1.025E+07,6.161144271469E+06,0.));
#202=PCURVE('',#58,#203);
#203=DEFINITIONAL_REPRESENTATION('',(#204),#66);
#204=CIRCLE('',#205,1.25E+06);
#205=AXIS2_PLACEMENT_2D('',#206,#65);
#206=CARTESIAN_POINT('',(-1.025E+07,1.650155957339E+05));
#207=ORIENTED_EDGE('',*,*,#208,.T.);
#208=EDGE_CURVE('',#196,#209,#211,.T.);
#209=VERTEX_POINT('',#210);
#210=CARTESIAN_POINT('',(-1.15E+07,2.499999999999E+06,0.));
#211=SURFACE_CURVE('',#212,(#215),.PCURVE_S1.);
#212=LINE('',#197,#213);
#213=VECTOR('',#214,1.);
#214=DIRECTION('',(0.,-1.,0.));
#215=PCURVE('',#58,#216);
#216=DEFINITIONAL_REPRESENTATION('',(#217),#66);
#217=LINE('',#218,#219);
#218=CARTESIAN_POINT('',(-1.15E+07,1.650155957339E+05));
#219=VECTOR('',#220,1.);
#220=DIRECTION('',(0.,-1.));
#221=ORIENTED_EDGE('',*,*,#222,.T.);
#222=EDGE_CURVE('',#209,#223,#225,.T.);
#223=VERTEX_POINT('',#224);
#224=CARTESIAN_POINT('',(-1.025E+07,1.249999999999E+06,0.));
#225=SURFACE_CURVE('',#226,(#229),.PCURVE_S1.);
#226=CIRCLE('',#227,1.25E+06);
#227=AXIS2_PLACEMENT_3D('',#228,#13,#56);
#228=CARTESIAN_POINT('',(-1.025E+07,2.499999999999E+06,0.));
#229=PCURVE('',#58,#230);
#230=DEFINITIONAL_REPRESENTATION('',(#231),#66);
#231=CIRCLE('',#232,1.25E+06);
#232=AXIS2_PLACEMENT_2D('',#233,#65);
#233=CARTESIAN_POINT('',(-1.025E+07,-3.496128675736E+06));
#234=ORIENTED_EDGE('',*,*,#235,.T.);
#235=EDGE_CURVE('',#223,#236,#238,.T.);
#236=VERTEX_POINT('',#237);
#237=CARTESIAN_POINT('',(-1.7E+06,1.249999999999E+06,0.));
#238=SURFACE_CURVE('',#239,(#241),.PCURVE_S1.);
#239=LINE('',#224,#240);
#240=VECTOR('',#56,1.);
#241=PCURVE('',#58,#242);
#242=DEFINITIONAL_REPRESENTATION('',(#243),#66);
#243=LINE('',#244,#245);
#244=CARTESIAN_POINT('',(-1.025E+07,-4.746128675736E+06));
#245=VECTOR('',#65,1.);
#246=ORIENTED_EDGE('',*,*,#247,.T.);
#247=EDGE_CURVE('',#236,#248,#250,.T.);
#248=VERTEX_POINT('',#249);
#249=CARTESIAN_POINT('',(-1.5E+06,1.449999999999E+06,0.));
#250=SURFACE_CURVE('',#251,(#254),.PCURVE_S1.);
#251=CIRCLE('',#252,2.E+05);
#252=AXIS2_PLACEMENT_3D('',#253,#13,#56);
#253=CARTESIAN_POINT('',(-1.7E+06,1.449999999999E+06,0.));
#254=PCURVE('',#58,#255);
#255=DEFINITIONAL_REPRESENTATION('',(#256),#66);
#256=CIRCLE('',#257,2.E+05);
#257=AXIS2_PLACEMENT_2D('',#258,#65);
#258=CARTESIAN_POINT('',(-1.7E+06,-4.546128675736E+06));
#259=ORIENTED_EDGE('',*,*,#260,.F.);
#260=EDGE_CURVE('',#261,#248,#263,.T.);
#261=VERTEX_POINT('',#262);
#262=CARTESIAN_POINT('',(-1.5E+06,1.549999999999E+06,0.));
#263=SURFACE_CURVE('',#264,(#265),.PCURVE_S1.);
#264=LINE('',#262,#213);
#265=PCURVE('',#58,#266);
#266=DEFINITIONAL_REPRESENTATION('',(#267),#66);
#267=LINE('',#268,#219);
#268=CARTESIAN_POINT('',(-1.5E+06,-4.446128675736E+06));
#269=ORIENTED_EDGE('',*,*,#270,.T.);
#270=EDGE_CURVE('',#261,#271,#273,.T.);
#271=VERTEX_POINT('',#272);
#272=CARTESIAN_POINT('',(-1.7E+06,1.749999999999E+06,0.));
#273=SURFACE_CURVE('',#274,(#277),.PCURVE_S1.);
#274=CIRCLE('',#275,2.E+05);
#275=AXIS2_PLACEMENT_3D('',#276,#13,#56);
#276=CARTESIAN_POINT('',(-1.7E+06,1.549999999999E+06,0.));
#277=PCURVE('',#58,#278);
#278=DEFINITIONAL_REPRESENTATION('',(#279),#66);
#279=CIRCLE('',#280,2.E+05);
#280=AXIS2_PLACEMENT_2D('',#281,#65);
#281=CARTESIAN_POINT('',(-1.7E+06,-4.446128675736E+06));
#282=ORIENTED_EDGE('',*,*,#283,.F.);
#283=EDGE_CURVE('',#284,#271,#286,.T.);
#284=VERTEX_POINT('',#285);
#285=CARTESIAN_POINT('',(-1.025E+07,1.749999999999E+06,0.));
#286=SURFACE_CURVE('',#287,(#290),.PCURVE_S1.);
#287=LINE('',#285,#288);
#288=VECTOR('',#289,1.);
#289=DIRECTION('',(1.,8.310441353919E-16,0.));
#290=PCURVE('',#58,#291);
#291=DEFINITIONAL_REPRESENTATION('',(#292),#66);
#292=LINE('',#293,#294);
#293=CARTESIAN_POINT('',(-1.025E+07,-4.246128675736E+06));
#294=VECTOR('',#295,1.);
#295=DIRECTION('',(1.,8.310441353919E-16));
#296=ORIENTED_EDGE('',*,*,#297,.F.);
#297=EDGE_CURVE('',#298,#284,#300,.T.);
#298=VERTEX_POINT('',#299);
#299=CARTESIAN_POINT('',(-1.1E+07,2.499999999999E+06,0.));
#300=SURFACE_CURVE('',#301,(#302),.PCURVE_S1.);
#301=CIRCLE('',#227,7.5E+05);
#302=PCURVE('',#58,#303);
#303=DEFINITIONAL_REPRESENTATION('',(#304),#66);
#304=CIRCLE('',#232,7.5E+05);
#305=ORIENTED_EDGE('',*,*,#306,.F.);
#306=EDGE_CURVE('',#307,#298,#309,.T.);
#307=VERTEX_POINT('',#308);
#308=CARTESIAN_POINT('',(-1.1E+07,6.161144271469E+06,0.));
#309=SURFACE_CURVE('',#310,(#313),.PCURVE_S1.);
#310=LINE('',#308,#311);
#311=VECTOR('',#312,1.);
#312=DIRECTION('',(2.911150243233E-15,-1.,0.));
#313=PCURVE('',#58,#314);
#314=DEFINITIONAL_REPRESENTATION('',(#315),#66);
#315=LINE('',#316,#317);
#316=CARTESIAN_POINT('',(-1.1E+07,1.650155957339E+05));
#317=VECTOR('',#318,1.);
#318=DIRECTION('',(2.911150243233E-15,-1.));
#319=ORIENTED_EDGE('',*,*,#320,.F.);
#320=EDGE_CURVE('',#321,#307,#323,.T.);
#321=VERTEX_POINT('',#322);
#322=CARTESIAN_POINT('',(-1.025E+07,6.911144271469E+06,0.));
#323=SURFACE_CURVE('',#324,(#325),.PCURVE_S1.);
#324=CIRCLE('',#200,7.5E+05);
#325=PCURVE('',#58,#326);
#326=DEFINITIONAL_REPRESENTATION('',(#327),#66);
#327=CIRCLE('',#205,7.5E+05);
#328=ORIENTED_EDGE('',*,*,#329,.F.);
#329=EDGE_CURVE('',#330,#321,#332,.T.);
#330=VERTEX_POINT('',#331);
#331=CARTESIAN_POINT('',(1.025E+07,6.911144271469E+06,0.));
#332=SURFACE_CURVE('',#333,(#336),.PCURVE_S1.);
#333=LINE('',#331,#334);
#334=VECTOR('',#335,1.);
#335=DIRECTION('',(-1.,-9.098413079855E-16,0.));
#336=PCURVE('',#58,#337);
#337=DEFINITIONAL_REPRESENTATION('',(#338),#66);
#338=LINE('',#339,#340);
#339=CARTESIAN_POINT('',(1.025E+07,9.150155957339E+05));
#340=VECTOR('',#341,1.);
#341=DIRECTION('',(-1.,-9.098413079855E-16));
#342=ORIENTED_EDGE('',*,*,#343,.F.);
#343=EDGE_CURVE('',#344,#330,#346,.T.);
#344=VERTEX_POINT('',#345);
#345=CARTESIAN_POINT('',(1.1E+07,6.161144271469E+06,0.));
#346=SURFACE_CURVE('',#347,(#348),.PCURVE_S1.);
#347=CIRCLE('',#87,7.5E+05);
#348=PCURVE('',#58,#349);
#349=DEFINITIONAL_REPRESENTATION('',(#350),#66);
#350=CIRCLE('',#92,7.5E+05);
#351=ORIENTED_EDGE('',*,*,#352,.F.);
#352=EDGE_CURVE('',#353,#344,#355,.T.);
#353=VERTEX_POINT('',#354);
#354=CARTESIAN_POINT('',(1.1E+07,2.499999999999E+06,0.));
#355=SURFACE_CURVE('',#356,(#359),.PCURVE_S1.);
#356=LINE('',#354,#357);
#357=VECTOR('',#358,1.);
#358=DIRECTION('',(-2.911150243233E-15,1.,0.));
#359=PCURVE('',#58,#360);
#360=DEFINITIONAL_REPRESENTATION('',(#361),#66);
#361=LINE('',#362,#363);
#362=CARTESIAN_POINT('',(1.1E+07,-3.496128675736E+06));
#363=VECTOR('',#364,1.);
#364=DIRECTION('',(-2.911150243233E-15,1.));
#365=ORIENTED_EDGE('',*,*,#366,.F.);
#366=EDGE_CURVE('',#367,#353,#369,.T.);
#367=VERTEX_POINT('',#368);
#368=CARTESIAN_POINT('',(1.025E+07,1.749999999999E+06,0.));
#369=SURFACE_CURVE('',#370,(#371),.PCURVE_S1.);
#370=CIRCLE('',#54,7.5E+05);
#371=PCURVE('',#58,#372);
#372=DEFINITIONAL_REPRESENTATION('',(#373),#66);
#373=CIRCLE('',#63,7.5E+05);
#374=ORIENTED_EDGE('',*,*,#375,.F.);
#375=EDGE_CURVE('',#376,#367,#378,.T.);
#376=VERTEX_POINT('',#377);
#377=CARTESIAN_POINT('',(1.7E+06,1.749999999999E+06,0.));
#378=SURFACE_CURVE('',#379,(#382),.PCURVE_S1.);
#379=LINE('',#377,#380);
#380=VECTOR('',#381,1.);
#381=DIRECTION('',(1.,8.050740061609E-16,0.));
#382=PCURVE('',#58,#383);
#383=DEFINITIONAL_REPRESENTATION('',(#384),#66);
#384=LINE('',#385,#386);
#385=CARTESIAN_POINT('',(1.7E+06,-4.246128675736E+06));
#386=VECTOR('',#387,1.);
#387=DIRECTION('',(1.,8.050740061609E-16));
#388=ORIENTED_EDGE('',*,*,#389,.T.);
#389=EDGE_CURVE('',#376,#390,#392,.T.);
#390=VERTEX_POINT('',#391);
#391=CARTESIAN_POINT('',(1.5E+06,1.549999999999E+06,0.));
#392=SURFACE_CURVE('',#393,(#396),.PCURVE_S1.);
#393=CIRCLE('',#394,2.E+05);
#394=AXIS2_PLACEMENT_3D('',#395,#13,#56);
#395=CARTESIAN_POINT('',(1.7E+06,1.549999999999E+06,0.));
#396=PCURVE('',#58,#397);
#397=DEFINITIONAL_REPRESENTATION('',(#398),#66);
#398=CIRCLE('',#399,2.E+05);
#399=AXIS2_PLACEMENT_2D('',#400,#65);
#400=CARTESIAN_POINT('',(1.7E+06,-4.446128675736E+06));
#401=ORIENTED_EDGE('',*,*,#402,.F.);
#402=EDGE_CURVE('',#403,#390,#405,.T.);
#403=VERTEX_POINT('',#404);
#404=CARTESIAN_POINT('',(1.5E+06,1.449999999999E+06,0.));
#405=SURFACE_CURVE('',#406,(#407),.PCURVE_S1.);
#406=LINE('',#404,#73);
#407=PCURVE('',#58,#408);
#408=DEFINITIONAL_REPRESENTATION('',(#409),#66);
#409=LINE('',#410,#79);
#410=CARTESIAN_POINT('',(1.5E+06,-4.546128675736E+06));
#411=ORIENTED_EDGE('',*,*,#412,.T.);
#412=EDGE_CURVE('',#403,#413,#415,.T.);
#413=VERTEX_POINT('',#414);
#414=CARTESIAN_POINT('',(1.7E+06,1.249999999999E+06,0.));
#415=SURFACE_CURVE('',#416,(#419),.PCURVE_S1.);
#416=CIRCLE('',#417,2.E+05);
#417=AXIS2_PLACEMENT_3D('',#418,#13,#56);
#418=CARTESIAN_POINT('',(1.7E+06,1.449999999999E+06,0.));
#419=PCURVE('',#58,#420);
#420=DEFINITIONAL_REPRESENTATION('',(#421),#66);
#421=CIRCLE('',#422,2.E+05);
#422=AXIS2_PLACEMENT_2D('',#423,#65);
#423=CARTESIAN_POINT('',(1.7E+06,-4.546128675736E+06));
#424=ORIENTED_EDGE('',*,*,#425,.T.);
#425=EDGE_CURVE('',#413,#48,#238,.T.);
#426=SHELL_BASED_SURFACE_MODEL('',(#427));
#427=OPEN_SHELL('',(#428));
#428=ADVANCED_FACE('',(#429,#448),#58,.T.);
#429=FACE_BOUND('',#430,.T.);
#430=EDGE_LOOP('',(#431,#433,#434,#435,#436,#437,#438,#439,#440,#441,    #442,#443,#444,#445,#446,#447));
#431=ORIENTED_EDGE('',*,*,#432,.T.);
#432=EDGE_CURVE('',#236,#413,#238,.T.);
#433=ORIENTED_EDGE('',*,*,#412,.F.);
#434=ORIENTED_EDGE('',*,*,#402,.T.);
#435=ORIENTED_EDGE('',*,*,#389,.F.);
#436=ORIENTED_EDGE('',*,*,#375,.T.);
#437=ORIENTED_EDGE('',*,*,#366,.T.);
#438=ORIENTED_EDGE('',*,*,#352,.T.);
#439=ORIENTED_EDGE('',*,*,#343,.T.);
#440=ORIENTED_EDGE('',*,*,#329,.T.);
#441=ORIENTED_EDGE('',*,*,#320,.T.);
#442=ORIENTED_EDGE('',*,*,#306,.T.);
#443=ORIENTED_EDGE('',*,*,#297,.T.);
#444=ORIENTED_EDGE('',*,*,#283,.T.);
#445=ORIENTED_EDGE('',*,*,#270,.F.);
#446=ORIENTED_EDGE('',*,*,#260,.T.);
#447=ORIENTED_EDGE('',*,*,#247,.F.);
#448=FACE_BOUND('',#449,.T.);
#449=EDGE_LOOP('',(#450,#462,#471,#481,#490,#500,#509,#519));
#450=ORIENTED_EDGE('',*,*,#451,.F.);
#451=EDGE_CURVE('',#452,#454,#456,.T.);
#452=VERTEX_POINT('',#453);
#453=CARTESIAN_POINT('',(-1.075E+07,6.161144271469E+06,0.));
#454=VERTEX_POINT('',#455);
#455=CARTESIAN_POINT('',(-1.075E+07,2.499999999999E+06,0.));
#456=SURFACE_CURVE('',#457,(#458),.PCURVE_S1.);
#457=LINE('',#453,#213);
#458=PCURVE('',#58,#459);
#459=DEFINITIONAL_REPRESENTATION('',(#460),#66);
#460=LINE('',#461,#219);
#461=CARTESIAN_POINT('',(-1.075E+07,1.650155957339E+05));
#462=ORIENTED_EDGE('',*,*,#463,.F.);
#463=EDGE_CURVE('',#464,#452,#466,.T.);
#464=VERTEX_POINT('',#465);
#465=CARTESIAN_POINT('',(-1.025E+07,6.661144271469E+06,0.));
#466=SURFACE_CURVE('',#467,(#468),.PCURVE_S1.);
#467=CIRCLE('',#200,5.E+05);
#468=PCURVE('',#58,#469);
#469=DEFINITIONAL_REPRESENTATION('',(#470),#66);
#470=CIRCLE('',#205,5.E+05);
#471=ORIENTED_EDGE('',*,*,#472,.F.);
#472=EDGE_CURVE('',#473,#464,#475,.T.);
#473=VERTEX_POINT('',#474);
#474=CARTESIAN_POINT('',(1.025E+07,6.661144271469E+06,0.));
#475=SURFACE_CURVE('',#476,(#477),.PCURVE_S1.);
#476=LINE('',#474,#143);
#477=PCURVE('',#58,#478);
#478=DEFINITIONAL_REPRESENTATION('',(#479),#66);
#479=LINE('',#480,#149);
#480=CARTESIAN_POINT('',(1.025E+07,6.650155957339E+05));
#481=ORIENTED_EDGE('',*,*,#482,.F.);
#482=EDGE_CURVE('',#483,#473,#485,.T.);
#483=VERTEX_POINT('',#484);
#484=CARTESIAN_POINT('',(1.075E+07,6.161144271469E+06,0.));
#485=SURFACE_CURVE('',#486,(#487),.PCURVE_S1.);
#486=CIRCLE('',#87,5.E+05);
#487=PCURVE('',#58,#488);
#488=DEFINITIONAL_REPRESENTATION('',(#489),#66);
#489=CIRCLE('',#92,5.E+05);
#490=ORIENTED_EDGE('',*,*,#491,.F.);
#491=EDGE_CURVE('',#492,#483,#494,.T.);
#492=VERTEX_POINT('',#493);
#493=CARTESIAN_POINT('',(1.075E+07,2.499999999999E+06,0.));
#494=SURFACE_CURVE('',#495,(#496),.PCURVE_S1.);
#495=LINE('',#493,#73);
#496=PCURVE('',#58,#497);
#497=DEFINITIONAL_REPRESENTATION('',(#498),#66);
#498=LINE('',#499,#79);
#499=CARTESIAN_POINT('',(1.075E+07,-3.496128675736E+06));
#500=ORIENTED_EDGE('',*,*,#501,.F.);
#501=EDGE_CURVE('',#502,#492,#504,.T.);
#502=VERTEX_POINT('',#503);
#503=CARTESIAN_POINT('',(1.025E+07,1.999999999999E+06,0.));
#504=SURFACE_CURVE('',#505,(#506),.PCURVE_S1.);
#505=CIRCLE('',#54,5.E+05);
#506=PCURVE('',#58,#507);
#507=DEFINITIONAL_REPRESENTATION('',(#508),#66);
#508=CIRCLE('',#63,5.E+05);
#509=ORIENTED_EDGE('',*,*,#510,.F.);
#510=EDGE_CURVE('',#511,#502,#513,.T.);
#511=VERTEX_POINT('',#512);
#512=CARTESIAN_POINT('',(-1.025E+07,1.999999999999E+06,0.));
#513=SURFACE_CURVE('',#514,(#515),.PCURVE_S1.);
#514=LINE('',#512,#240);
#515=PCURVE('',#58,#516);
#516=DEFINITIONAL_REPRESENTATION('',(#517),#66);
#517=LINE('',#518,#245);
#518=CARTESIAN_POINT('',(-1.025E+07,-3.996128675736E+06));
#519=ORIENTED_EDGE('',*,*,#520,.F.);
#520=EDGE_CURVE('',#454,#511,#521,.T.);
#521=SURFACE_CURVE('',#522,(#523),.PCURVE_S1.);
#522=CIRCLE('',#227,5.E+05);
#523=PCURVE('',#58,#524);
#524=DEFINITIONAL_REPRESENTATION('',(#525),#66);
#525=CIRCLE('',#232,5.E+05);
#526=SHELL_BASED_SURFACE_MODEL('',(#527));
#527=OPEN_SHELL('',(#528));
#528=ADVANCED_FACE('',(#529),#535,.T.);
#529=FACE_BOUND('',#530,.T.);
#530=EDGE_LOOP('',(#531,#541,#549,#556,#564,#571,#579,#586));
#531=ORIENTED_EDGE('',*,*,#532,.T.);
#532=EDGE_CURVE('',#452,#454,#533,.T.);
#533=SURFACE_CURVE('',#457,(#534),.PCURVE_S1.);
#534=PCURVE('',#535,#538);
#535=PLANE('',#536);
#536=AXIS2_PLACEMENT_3D('',#537,#13,#56);
#537=CARTESIAN_POINT('',(-7.771629830641E-11,4.330572135734E+06,0.));
#538=DEFINITIONAL_REPRESENTATION('',(#539),#66);
#539=LINE('',#540,#219);
#540=CARTESIAN_POINT('',(-1.075E+07,1.830572135735E+06));
#541=ORIENTED_EDGE('',*,*,#542,.T.);
#542=EDGE_CURVE('',#454,#511,#543,.T.);
#543=SURFACE_CURVE('',#522,(#544),.PCURVE_S1.);
#544=PCURVE('',#535,#545);
#545=DEFINITIONAL_REPRESENTATION('',(#546),#66);
#546=CIRCLE('',#547,5.E+05);
#547=AXIS2_PLACEMENT_2D('',#548,#65);
#548=CARTESIAN_POINT('',(-1.025E+07,-1.830572135735E+06));
#549=ORIENTED_EDGE('',*,*,#550,.T.);
#550=EDGE_CURVE('',#511,#502,#551,.T.);
#551=SURFACE_CURVE('',#514,(#552),.PCURVE_S1.);
#552=PCURVE('',#535,#553);
#553=DEFINITIONAL_REPRESENTATION('',(#554),#66);
#554=LINE('',#555,#245);
#555=CARTESIAN_POINT('',(-1.025E+07,-2.330572135735E+06));
#556=ORIENTED_EDGE('',*,*,#557,.T.);
#557=EDGE_CURVE('',#502,#492,#558,.T.);
#558=SURFACE_CURVE('',#505,(#559),.PCURVE_S1.);
#559=PCURVE('',#535,#560);
#560=DEFINITIONAL_REPRESENTATION('',(#561),#66);
#561=CIRCLE('',#562,5.E+05);
#562=AXIS2_PLACEMENT_2D('',#563,#65);
#563=CARTESIAN_POINT('',(1.025E+07,-1.830572135735E+06));
#564=ORIENTED_EDGE('',*,*,#565,.T.);
#565=EDGE_CURVE('',#492,#483,#566,.T.);
#566=SURFACE_CURVE('',#495,(#567),.PCURVE_S1.);
#567=PCURVE('',#535,#568);
#568=DEFINITIONAL_REPRESENTATION('',(#569),#66);
#569=LINE('',#570,#79);
#570=CARTESIAN_POINT('',(1.075E+07,-1.830572135735E+06));
#571=ORIENTED_EDGE('',*,*,#572,.T.);
#572=EDGE_CURVE('',#483,#473,#573,.T.);
#573=SURFACE_CURVE('',#486,(#574),.PCURVE_S1.);
#574=PCURVE('',#535,#575);
#575=DEFINITIONAL_REPRESENTATION('',(#576),#66);
#576=CIRCLE('',#577,5.E+05);
#577=AXIS2_PLACEMENT_2D('',#578,#65);
#578=CARTESIAN_POINT('',(1.025E+07,1.830572135735E+06));
#579=ORIENTED_EDGE('',*,*,#580,.T.);
#580=EDGE_CURVE('',#473,#464,#581,.T.);
#581=SURFACE_CURVE('',#476,(#582),.PCURVE_S1.);
#582=PCURVE('',#535,#583);
#583=DEFINITIONAL_REPRESENTATION('',(#584),#66);
#584=LINE('',#585,#149);
#585=CARTESIAN_POINT('',(1.025E+07,2.330572135735E+06));
#586=ORIENTED_EDGE('',*,*,#587,.T.);
#587=EDGE_CURVE('',#464,#452,#588,.T.);
#588=SURFACE_CURVE('',#467,(#589),.PCURVE_S1.);
#589=PCURVE('',#535,#590);
#590=DEFINITIONAL_REPRESENTATION('',(#591),#66);
#591=CIRCLE('',#592,5.E+05);
#592=AXIS2_PLACEMENT_2D('',#593,#65);
#593=CARTESIAN_POINT('',(-1.025E+07,1.830572135735E+06));
#594=( GEOMETRIC_REPRESENTATION_CONTEXT(3) GLOBAL_UNCERTAINTY_ASSIGNED_CONTEXT((#19)) GLOBAL_UNIT_ASSIGNED_CONTEXT((#16,#17,#18)) REPRESENTATION_CONTEXT('Context #1','3D Context with UNIT and UNCERTAINTY') );
#595=CONTEXT_DEPENDENT_SHAPE_REPRESENTATION(#596,#597);
#596=( REPRESENTATION_RELATIONSHIP('','',#40,#27) REPRESENTATION_RELATIONSHIP_WITH_TRANSFORMATION(#30) SHAPE_REPRESENTATION_RELATIONSHIP() );
#597=PRODUCT_DEFINITION_SHAPE('Placement','Placement of an item',  #598);
#598=NEXT_ASSEMBLY_USAGE_OCCURRENCE('1','','',#23,#36,$);
#599=PRODUCT_RELATED_PRODUCT_CATEGORY('part',$,(#38));
#600=SHAPE_DEFINITION_REPRESENTATION(#601,#606);
#601=PRODUCT_DEFINITION_SHAPE('','',#602);
#602=PRODUCT_DEFINITION('design','',#603,#605);
#603=PRODUCT_DEFINITION_FORMATION('','',#604);
#604=PRODUCT('contact_cutter','contact_cutter','',(#8));
#605=PRODUCT_DEFINITION_CONTEXT('part definition',#2,'design');   
#606=SHAPE_REPRESENTATION('',(#11),#607);
#607=( GEOMETRIC_REPRESENTATION_CONTEXT(3) GLOBAL_UNCERTAINTY_ASSIGNED_CONTEXT((#608)) GLOBAL_UNIT_ASSIGNED_CONTEXT((#16,#17,#18)) REPRESENTATION_CONTEXT('Context #1','3D Context with UNIT and UNCERTAINTY') );
#608=UNCERTAINTY_MEASURE_WITH_UNIT(LENGTH_MEASURE(1.E-07),#16,  'distance_accuracy_value','confusion accuracy');
#609=CONTEXT_DEPENDENT_SHAPE_REPRESENTATION(#610,#611);
#610=( REPRESENTATION_RELATIONSHIP('','',#606,#10) REPRESENTATION_RELATIONSHIP_WITH_TRANSFORMATION(#30) SHAPE_REPRESENTATION_RELATIONSHIP() );
#611=PRODUCT_DEFINITION_SHAPE('Placement','Placement of an item',  #612);
#612=NEXT_ASSEMBLY_USAGE_OCCURRENCE('3','','',#5,#602,$);
#613=PRODUCT_RELATED_PRODUCT_CATEGORY('part',$,(#604));
#614=MECHANICAL_DESIGN_GEOMETRIC_PRESENTATION_REPRESENTATION('',(    #615,#623,#624),#594);
#615=STYLED_ITEM('color',(#616),#43);
#616=PRESENTATION_STYLE_ASSIGNMENT((#617));
#617=SURFACE_STYLE_USAGE(.BOTH.,#618);
#618=SURFACE_SIDE_STYLE('',(#619));
#619=SURFACE_STYLE_FILL_AREA(#620);
#620=FILL_AREA_STYLE('',(#621));
#621=FILL_AREA_STYLE_COLOUR('',#622);
#622=DRAUGHTING_PRE_DEFINED_COLOUR('red');
#623=STYLED_ITEM('color',(#616),#428);
#624=STYLED_ITEM('color',(#616),#528);
ENDSEC;
END-ISO-10303-21;

