ISO-10303-21;
HEADER;
FILE_DESCRIPTION(('Open CASCADE Model'),'2;1');
FILE_NAME('Open CASCADE Shape Model','2023-12-09T21:52:25',('Author'),(
    'Open CASCADE'),'Open CASCADE STEP processor 7.7','Open CASCADE 7.7'
  ,'Unknown');
FILE_SCHEMA(('AUTOMOTIVE_DESIGN { 1 0 10303 214 1 1 1 1 }'));
ENDSEC;
DATA;
#1=APPLICATION_PROTOCOL_DEFINITION('international standard',  'automotive_design',2000,#2);
#2=APPLICATION_CONTEXT(  'core data for automotive mechanical design processes');
#3=SHAPE_DEFINITION_REPRESENTATION(#4,#10);
#4=PRODUCT_DEFINITION_SHAPE('','',#5);
#5=PRODUCT_DEFINITION('design','',#6,#9);
#6=PRODUCT_DEFINITION_FORMATION('','',#7);
#7=PRODUCT('sim_full_area_55finger','sim_full_area_55finger','',(#8));
#8=PRODUCT_CONTEXT('',#2,'mechanical');
#9=PRODUCT_DEFINITION_CONTEXT('part definition',#2,'design');
#10=SHAPE_REPRESENTATION('',(#11,#11,#11),#15);
#11=AXIS2_PLACEMENT_3D('',#12,#13,#14);
#12=CARTESIAN_POINT('',(0.,0.,0.));
#13=DIRECTION('',(0.,0.,1.));
#14=DIRECTION('',(1.,0.,-0.));
#15=( GEOMETRIC_REPRESENTATION_CONTEXT(3) GLOBAL_UNCERTAINTY_ASSIGNED_CONTEXT((#19)) GLOBAL_UNIT_ASSIGNED_CONTEXT((#16,#17,#18)) REPRESENTATION_CONTEXT('Context #1',  '3D Context with UNIT and UNCERTAINTY') );
#16=( LENGTH_UNIT() NAMED_UNIT(*) SI_UNIT(.MILLI.,.METRE.) );
#17=( NAMED_UNIT(*) PLANE_ANGLE_UNIT() SI_UNIT($,.RADIAN.) );
#18=( NAMED_UNIT(*) SI_UNIT($,.STERADIAN.) SOLID_ANGLE_UNIT() );
#19=UNCERTAINTY_MEASURE_WITH_UNIT(LENGTH_MEASURE(0.1),#16,  'distance_accuracy_value','confusion accuracy');
#20=PRODUCT_RELATED_PRODUCT_CATEGORY('part',$,(#7));
#21=SHAPE_DEFINITION_REPRESENTATION(#22,#27);
#22=PRODUCT_DEFINITION_SHAPE('','',#23);
#23=PRODUCT_DEFINITION('design','',#24,#26);
#24=PRODUCT_DEFINITION_FORMATION('','',#25);
#25=PRODUCT('tco','tco','',(#8));
#26=PRODUCT_DEFINITION_CONTEXT('part definition',#2,'design'); 
#27=SHAPE_REPRESENTATION('',(#11,#11),#15);
#28=CONTEXT_DEPENDENT_SHAPE_REPRESENTATION(#29,#31);
#29=( REPRESENTATION_RELATIONSHIP('','',#27,#10) REPRESENTATION_RELATIONSHIP_WITH_TRANSFORMATION(#30) SHAPE_REPRESENTATION_RELATIONSHIP() );
#30=ITEM_DEFINED_TRANSFORMATION('','',#11,#11);
#31=PRODUCT_DEFINITION_SHAPE('Placement','Placement of an item',#32);
#32=NEXT_ASSEMBLY_USAGE_OCCURRENCE('32','','',#5,#23,$);
#33=PRODUCT_RELATED_PRODUCT_CATEGORY('part',$,(#25));
#34=SHAPE_DEFINITION_REPRESENTATION(#35,#40);
#35=PRODUCT_DEFINITION_SHAPE('','',#36);
#36=PRODUCT_DEFINITION('design','',#37,#39);
#37=PRODUCT_DEFINITION_FORMATION('','',#38);
#38=PRODUCT('tco_part','tco_part','',(#8));
#39=PRODUCT_DEFINITION_CONTEXT('part definition',#2,'design');  
#40=SHAPE_REPRESENTATION('',(#11,#41,#583,#989,#1240,#1249,#1258,    #1267,#1276,#1285,#1294,#1303,#1312,#1321,#1330,#1339,#1348,#1357,    #1366,#1375,#1384,#1393,#1408),#1417);
#41=SHELL_BASED_SURFACE_MODEL('',(#42));
#42=OPEN_SHELL('',(#43));
#43=ADVANCED_FACE('',(#44),#58,.T.);
#44=FACE_BOUND('',#45,.T.);
#45=EDGE_LOOP('',(#46,#68,#82,#95,#107,#120,#134,#147,#161,#174,#188    ,#201,#211,#224,#237,#241,#251,#264,#274,#283,#293,#302,#312,#325,    #335,#348,#358,#372,#382,#392,#405,#415,#428,#439,#454,#468,#478,    #491,#501,#514,#524,#533,#543,#552,#562,#575));
#46=ORIENTED_EDGE('',*,*,#47,.F.);
#47=EDGE_CURVE('',#48,#50,#52,.T.);
#48=VERTEX_POINT('',#49);
#49=CARTESIAN_POINT('',(2.474744871393E+06,-1.35E+07,0.));
#50=VERTEX_POINT('',#51);
#51=CARTESIAN_POINT('',(2.000000000001E+06,-1.35E+07,0.));
#52=SURFACE_CURVE('',#53,(#57),.PCURVE_S1.);
#53=LINE('',#54,#55);
#54=CARTESIAN_POINT('',(1.5E+07,-1.35E+07,0.));
#55=VECTOR('',#56,1.);
#56=DIRECTION('',(-1.,-7.105427357601E-16,0.));
#57=PCURVE('',#58,#62);
#58=PLANE('',#59);
#59=AXIS2_PLACEMENT_3D('',#60,#13,#61);
#60=CARTESIAN_POINT('',(4.15042656788E-07,-3.336198545002E+05,0.));
#61=DIRECTION('',(1.,0.,0.));
#62=DEFINITIONAL_REPRESENTATION('',(#63),#67);
#63=LINE('',#64,#65);
#64=CARTESIAN_POINT('',(1.5E+07,-1.31663801455E+07));
#65=VECTOR('',#66,1.);
#66=DIRECTION('',(-1.,-7.105427357601E-16));
#67=( GEOMETRIC_REPRESENTATION_CONTEXT(2) PARAMETRIC_REPRESENTATION_CONTEXT() REPRESENTATION_CONTEXT('2D SPACE',''  ) );
#68=ORIENTED_EDGE('',*,*,#69,.T.);
#69=EDGE_CURVE('',#48,#70,#72,.T.);
#70=VERTEX_POINT('',#71);
#71=CARTESIAN_POINT('',(2.500000000001E+06,-1.325E+07,0.));
#72=SURFACE_CURVE('',#73,(#76),.PCURVE_S1.);
#73=CIRCLE('',#74,1.25E+06);
#74=AXIS2_PLACEMENT_3D('',#75,#13,#61);
#75=CARTESIAN_POINT('',(1.250000000001E+06,-1.325E+07,0.));
#76=PCURVE('',#58,#77);
#77=DEFINITIONAL_REPRESENTATION('',(#78),#67);
#78=CIRCLE('',#79,1.25E+06);
#79=AXIS2_PLACEMENT_2D('',#80,#81);
#80=CARTESIAN_POINT('',(1.250000000001E+06,-1.29163801455E+07));
#81=DIRECTION('',(1.,0.));
#82=ORIENTED_EDGE('',*,*,#83,.F.);
#83=EDGE_CURVE('',#84,#70,#86,.T.);
#84=VERTEX_POINT('',#85);
#85=CARTESIAN_POINT('',(3.000000000001E+06,-1.275E+07,0.));
#86=SURFACE_CURVE('',#87,(#90),.PCURVE_S1.);
#87=CIRCLE('',#88,4.999999999999E+05);
#88=AXIS2_PLACEMENT_3D('',#89,#13,#61);
#89=CARTESIAN_POINT('',(3.000000000001E+06,-1.325E+07,0.));
#90=PCURVE('',#58,#91);
#91=DEFINITIONAL_REPRESENTATION('',(#92),#67);
#92=CIRCLE('',#93,4.999999999999E+05);
#93=AXIS2_PLACEMENT_2D('',#94,#81);
#94=CARTESIAN_POINT('',(3.E+06,-1.29163801455E+07));
#95=ORIENTED_EDGE('',*,*,#96,.T.);
#96=EDGE_CURVE('',#84,#97,#99,.T.);
#97=VERTEX_POINT('',#98);
#98=CARTESIAN_POINT('',(1.2125E+07,-1.275E+07,0.));
#99=SURFACE_CURVE('',#100,(#102),.PCURVE_S1.);
#100=LINE('',#85,#101);
#101=VECTOR('',#61,1.);
#102=PCURVE('',#58,#103);
#103=DEFINITIONAL_REPRESENTATION('',(#104),#67);
#104=LINE('',#105,#106);
#105=CARTESIAN_POINT('',(3.000000000001E+06,-1.24163801455E+07));
#106=VECTOR('',#81,1.);
#107=ORIENTED_EDGE('',*,*,#108,.T.);
#108=EDGE_CURVE('',#97,#109,#111,.T.);
#109=VERTEX_POINT('',#110);
#110=CARTESIAN_POINT('',(1.275E+07,-1.2125E+07,0.));
#111=SURFACE_CURVE('',#112,(#115),.PCURVE_S1.);
#112=CIRCLE('',#113,6.25E+05);
#113=AXIS2_PLACEMENT_3D('',#114,#13,#61);
#114=CARTESIAN_POINT('',(1.2125E+07,-1.2125E+07,0.));
#115=PCURVE('',#58,#116);
#116=DEFINITIONAL_REPRESENTATION('',(#117),#67);
#117=CIRCLE('',#118,6.25E+05);
#118=AXIS2_PLACEMENT_2D('',#119,#81);
#119=CARTESIAN_POINT('',(1.2125E+07,-1.17913801455E+07));
#120=ORIENTED_EDGE('',*,*,#121,.T.);
#121=EDGE_CURVE('',#109,#122,#124,.T.);
#122=VERTEX_POINT('',#123);
#123=CARTESIAN_POINT('',(1.275E+07,1.2125E+07,0.));
#124=SURFACE_CURVE('',#125,(#128),.PCURVE_S1.);
#125=LINE('',#110,#126);
#126=VECTOR('',#127,1.);
#127=DIRECTION('',(0.,1.,0.));
#128=PCURVE('',#58,#129);
#129=DEFINITIONAL_REPRESENTATION('',(#130),#67);
#130=LINE('',#131,#132);
#131=CARTESIAN_POINT('',(1.275E+07,-1.17913801455E+07));
#132=VECTOR('',#133,1.);
#133=DIRECTION('',(0.,1.));
#134=ORIENTED_EDGE('',*,*,#135,.T.);
#135=EDGE_CURVE('',#122,#136,#138,.T.);
#136=VERTEX_POINT('',#137);
#137=CARTESIAN_POINT('',(1.2125E+07,1.275E+07,0.));
#138=SURFACE_CURVE('',#139,(#142),.PCURVE_S1.);
#139=CIRCLE('',#140,6.25E+05);
#140=AXIS2_PLACEMENT_3D('',#141,#13,#61);
#141=CARTESIAN_POINT('',(1.2125E+07,1.2125E+07,0.));
#142=PCURVE('',#58,#143);
#143=DEFINITIONAL_REPRESENTATION('',(#144),#67);
#144=CIRCLE('',#145,6.25E+05);
#145=AXIS2_PLACEMENT_2D('',#146,#81);
#146=CARTESIAN_POINT('',(1.2125E+07,1.24586198545E+07));
#147=ORIENTED_EDGE('',*,*,#148,.T.);
#148=EDGE_CURVE('',#136,#149,#151,.T.);
#149=VERTEX_POINT('',#150);
#150=CARTESIAN_POINT('',(-1.2125E+07,1.275E+07,0.));
#151=SURFACE_CURVE('',#152,(#155),.PCURVE_S1.);
#152=LINE('',#137,#153);
#153=VECTOR('',#154,1.);
#154=DIRECTION('',(-1.,0.,0.));
#155=PCURVE('',#58,#156);
#156=DEFINITIONAL_REPRESENTATION('',(#157),#67);
#157=LINE('',#158,#159);
#158=CARTESIAN_POINT('',(1.2125E+07,1.30836198545E+07));
#159=VECTOR('',#160,1.);
#160=DIRECTION('',(-1.,0.));
#161=ORIENTED_EDGE('',*,*,#162,.T.);
#162=EDGE_CURVE('',#149,#163,#165,.T.);
#163=VERTEX_POINT('',#164);
#164=CARTESIAN_POINT('',(-1.275E+07,1.2125E+07,0.));
#165=SURFACE_CURVE('',#166,(#169),.PCURVE_S1.);
#166=CIRCLE('',#167,6.25E+05);
#167=AXIS2_PLACEMENT_3D('',#168,#13,#61);
#168=CARTESIAN_POINT('',(-1.2125E+07,1.2125E+07,0.));
#169=PCURVE('',#58,#170);
#170=DEFINITIONAL_REPRESENTATION('',(#171),#67);
#171=CIRCLE('',#172,6.25E+05);
#172=AXIS2_PLACEMENT_2D('',#173,#81);
#173=CARTESIAN_POINT('',(-1.2125E+07,1.24586198545E+07));
#174=ORIENTED_EDGE('',*,*,#175,.T.);
#175=EDGE_CURVE('',#163,#176,#178,.T.);
#176=VERTEX_POINT('',#177);
#177=CARTESIAN_POINT('',(-1.275E+07,-1.2125E+07,0.));
#178=SURFACE_CURVE('',#179,(#182),.PCURVE_S1.);
#179=LINE('',#164,#180);
#180=VECTOR('',#181,1.);
#181=DIRECTION('',(0.,-1.,0.));
#182=PCURVE('',#58,#183);
#183=DEFINITIONAL_REPRESENTATION('',(#184),#67);
#184=LINE('',#185,#186);
#185=CARTESIAN_POINT('',(-1.275E+07,1.24586198545E+07));
#186=VECTOR('',#187,1.);
#187=DIRECTION('',(0.,-1.));
#188=ORIENTED_EDGE('',*,*,#189,.T.);
#189=EDGE_CURVE('',#176,#190,#192,.T.);
#190=VERTEX_POINT('',#191);
#191=CARTESIAN_POINT('',(-1.2125E+07,-1.275E+07,0.));
#192=SURFACE_CURVE('',#193,(#196),.PCURVE_S1.);
#193=CIRCLE('',#194,6.25E+05);
#194=AXIS2_PLACEMENT_3D('',#195,#13,#61);
#195=CARTESIAN_POINT('',(-1.2125E+07,-1.2125E+07,0.));
#196=PCURVE('',#58,#197);
#197=DEFINITIONAL_REPRESENTATION('',(#198),#67);
#198=CIRCLE('',#199,6.25E+05);
#199=AXIS2_PLACEMENT_2D('',#200,#81);
#200=CARTESIAN_POINT('',(-1.2125E+07,-1.17913801455E+07));
#201=ORIENTED_EDGE('',*,*,#202,.T.);
#202=EDGE_CURVE('',#190,#203,#205,.T.);
#203=VERTEX_POINT('',#204);
#204=CARTESIAN_POINT('',(-2.999999999999E+06,-1.275E+07,0.));
#205=SURFACE_CURVE('',#206,(#207),.PCURVE_S1.);
#206=LINE('',#191,#101);
#207=PCURVE('',#58,#208);
#208=DEFINITIONAL_REPRESENTATION('',(#209),#67);
#209=LINE('',#210,#106);
#210=CARTESIAN_POINT('',(-1.2125E+07,-1.24163801455E+07));
#211=ORIENTED_EDGE('',*,*,#212,.F.);
#212=EDGE_CURVE('',#213,#203,#215,.T.);
#213=VERTEX_POINT('',#214);
#214=CARTESIAN_POINT('',(-2.499999999999E+06,-1.325E+07,0.));
#215=SURFACE_CURVE('',#216,(#219),.PCURVE_S1.);
#216=CIRCLE('',#217,4.999999999999E+05);
#217=AXIS2_PLACEMENT_3D('',#218,#13,#61);
#218=CARTESIAN_POINT('',(-2.999999999999E+06,-1.325E+07,0.));
#219=PCURVE('',#58,#220);
#220=DEFINITIONAL_REPRESENTATION('',(#221),#67);
#221=CIRCLE('',#222,4.999999999999E+05);
#222=AXIS2_PLACEMENT_2D('',#223,#81);
#223=CARTESIAN_POINT('',(-2.999999999999E+06,-1.29163801455E+07));
#224=ORIENTED_EDGE('',*,*,#225,.T.);
#225=EDGE_CURVE('',#213,#226,#228,.T.);
#226=VERTEX_POINT('',#227);
#227=CARTESIAN_POINT('',(-2.474744871391E+06,-1.35E+07,0.));
#228=SURFACE_CURVE('',#229,(#232),.PCURVE_S1.);
#229=CIRCLE('',#230,1.25E+06);
#230=AXIS2_PLACEMENT_3D('',#231,#13,#61);
#231=CARTESIAN_POINT('',(-1.249999999999E+06,-1.325E+07,0.));
#232=PCURVE('',#58,#233);
#233=DEFINITIONAL_REPRESENTATION('',(#234),#67);
#234=CIRCLE('',#235,1.25E+06);
#235=AXIS2_PLACEMENT_2D('',#236,#81);
#236=CARTESIAN_POINT('',(-1.249999999999E+06,-1.29163801455E+07));
#237=ORIENTED_EDGE('',*,*,#238,.F.);
#238=EDGE_CURVE('',#239,#226,#52,.T.);
#239=VERTEX_POINT('',#240);
#240=CARTESIAN_POINT('',(-1.999999999999E+06,-1.35E+07,0.));
#241=ORIENTED_EDGE('',*,*,#242,.T.);
#242=EDGE_CURVE('',#239,#243,#245,.T.);
#243=VERTEX_POINT('',#244);
#244=CARTESIAN_POINT('',(-1.999999999999E+06,-1.2375E+07,0.));
#245=SURFACE_CURVE('',#246,(#247),.PCURVE_S1.);
#246=LINE('',#240,#126);
#247=PCURVE('',#58,#248);
#248=DEFINITIONAL_REPRESENTATION('',(#249),#67);
#249=LINE('',#250,#132);
#250=CARTESIAN_POINT('',(-1.999999999999E+06,-1.31663801455E+07));
#251=ORIENTED_EDGE('',*,*,#252,.T.);
#252=EDGE_CURVE('',#243,#253,#255,.T.);
#253=VERTEX_POINT('',#254);
#254=CARTESIAN_POINT('',(-2.124999999999E+06,-1.225E+07,0.));
#255=SURFACE_CURVE('',#256,(#259),.PCURVE_S1.);
#256=CIRCLE('',#257,1.25E+05);
#257=AXIS2_PLACEMENT_3D('',#258,#13,#61);
#258=CARTESIAN_POINT('',(-2.124999999999E+06,-1.2375E+07,0.));
#259=PCURVE('',#58,#260);
#260=DEFINITIONAL_REPRESENTATION('',(#261),#67);
#261=CIRCLE('',#262,1.25E+05);
#262=AXIS2_PLACEMENT_2D('',#263,#81);
#263=CARTESIAN_POINT('',(-2.124999999999E+06,-1.20413801455E+07));
#264=ORIENTED_EDGE('',*,*,#265,.T.);
#265=EDGE_CURVE('',#253,#266,#268,.T.);
#266=VERTEX_POINT('',#267);
#267=CARTESIAN_POINT('',(-1.2125E+07,-1.225E+07,0.));
#268=SURFACE_CURVE('',#269,(#270),.PCURVE_S1.);
#269=LINE('',#254,#153);
#270=PCURVE('',#58,#271);
#271=DEFINITIONAL_REPRESENTATION('',(#272),#67);
#272=LINE('',#273,#159);
#273=CARTESIAN_POINT('',(-2.124999999999E+06,-1.19163801455E+07));
#274=ORIENTED_EDGE('',*,*,#275,.F.);
#275=EDGE_CURVE('',#276,#266,#278,.T.);
#276=VERTEX_POINT('',#277);
#277=CARTESIAN_POINT('',(-1.225E+07,-1.2125E+07,0.));
#278=SURFACE_CURVE('',#279,(#280),.PCURVE_S1.);
#279=CIRCLE('',#194,1.25E+05);
#280=PCURVE('',#58,#281);
#281=DEFINITIONAL_REPRESENTATION('',(#282),#67);
#282=CIRCLE('',#199,1.25E+05);
#283=ORIENTED_EDGE('',*,*,#284,.T.);
#284=EDGE_CURVE('',#276,#285,#287,.T.);
#285=VERTEX_POINT('',#286);
#286=CARTESIAN_POINT('',(-1.225E+07,1.2125E+07,0.));
#287=SURFACE_CURVE('',#288,(#289),.PCURVE_S1.);
#288=LINE('',#277,#126);
#289=PCURVE('',#58,#290);
#290=DEFINITIONAL_REPRESENTATION('',(#291),#67);
#291=LINE('',#292,#132);
#292=CARTESIAN_POINT('',(-1.225E+07,-1.17913801455E+07));
#293=ORIENTED_EDGE('',*,*,#294,.F.);
#294=EDGE_CURVE('',#295,#285,#297,.T.);
#295=VERTEX_POINT('',#296);
#296=CARTESIAN_POINT('',(-1.2125E+07,1.225E+07,0.));
#297=SURFACE_CURVE('',#298,(#299),.PCURVE_S1.);
#298=CIRCLE('',#167,1.25E+05);
#299=PCURVE('',#58,#300);
#300=DEFINITIONAL_REPRESENTATION('',(#301),#67);
#301=CIRCLE('',#172,1.25E+05);
#302=ORIENTED_EDGE('',*,*,#303,.T.);
#303=EDGE_CURVE('',#295,#304,#306,.T.);
#304=VERTEX_POINT('',#305);
#305=CARTESIAN_POINT('',(-2.125E+06,1.225E+07,0.));
#306=SURFACE_CURVE('',#307,(#308),.PCURVE_S1.);
#307=LINE('',#296,#101);
#308=PCURVE('',#58,#309);
#309=DEFINITIONAL_REPRESENTATION('',(#310),#67);
#310=LINE('',#311,#106);
#311=CARTESIAN_POINT('',(-1.2125E+07,1.25836198545E+07));
#312=ORIENTED_EDGE('',*,*,#313,.F.);
#313=EDGE_CURVE('',#314,#304,#316,.T.);
#314=VERTEX_POINT('',#315);
#315=CARTESIAN_POINT('',(-2.E+06,1.2125E+07,0.));
#316=SURFACE_CURVE('',#317,(#320),.PCURVE_S1.);
#317=CIRCLE('',#318,1.25E+05);
#318=AXIS2_PLACEMENT_3D('',#319,#13,#61);
#319=CARTESIAN_POINT('',(-2.125E+06,1.2125E+07,0.));
#320=PCURVE('',#58,#321);
#321=DEFINITIONAL_REPRESENTATION('',(#322),#67);
#322=CIRCLE('',#323,1.25E+05);
#323=AXIS2_PLACEMENT_2D('',#324,#81);
#324=CARTESIAN_POINT('',(-2.125E+06,1.24586198545E+07));
#325=ORIENTED_EDGE('',*,*,#326,.T.);
#326=EDGE_CURVE('',#314,#327,#329,.T.);
#327=VERTEX_POINT('',#328);
#328=CARTESIAN_POINT('',(-2.E+06,1.0875E+07,0.));
#329=SURFACE_CURVE('',#330,(#331),.PCURVE_S1.);
#330=LINE('',#315,#180);
#331=PCURVE('',#58,#332);
#332=DEFINITIONAL_REPRESENTATION('',(#333),#67);
#333=LINE('',#334,#186);
#334=CARTESIAN_POINT('',(-2.E+06,1.24586198545E+07));
#335=ORIENTED_EDGE('',*,*,#336,.F.);
#336=EDGE_CURVE('',#337,#327,#339,.T.);
#337=VERTEX_POINT('',#338);
#338=CARTESIAN_POINT('',(-2.125E+06,1.075E+07,0.));
#339=SURFACE_CURVE('',#340,(#343),.PCURVE_S1.);
#340=CIRCLE('',#341,1.25E+05);
#341=AXIS2_PLACEMENT_3D('',#342,#13,#61);
#342=CARTESIAN_POINT('',(-2.125E+06,1.0875E+07,0.));
#343=PCURVE('',#58,#344);
#344=DEFINITIONAL_REPRESENTATION('',(#345),#67);
#345=CIRCLE('',#346,1.25E+05);
#346=AXIS2_PLACEMENT_2D('',#347,#81);
#347=CARTESIAN_POINT('',(-2.125E+06,1.12086198545E+07));
#348=ORIENTED_EDGE('',*,*,#349,.T.);
#349=EDGE_CURVE('',#337,#350,#352,.T.);
#350=VERTEX_POINT('',#351);
#351=CARTESIAN_POINT('',(-1.075E+07,1.075E+07,0.));
#352=SURFACE_CURVE('',#353,(#354),.PCURVE_S1.);
#353=LINE('',#338,#153);
#354=PCURVE('',#58,#355);
#355=DEFINITIONAL_REPRESENTATION('',(#356),#67);
#356=LINE('',#357,#159);
#357=CARTESIAN_POINT('',(-2.125E+06,1.10836198545E+07));
#358=ORIENTED_EDGE('',*,*,#359,.T.);
#359=EDGE_CURVE('',#350,#360,#362,.T.);
#360=VERTEX_POINT('',#361);
#361=CARTESIAN_POINT('',(-1.075E+07,7.26666666665E+06,0.));
#362=SURFACE_CURVE('',#363,(#366),.PCURVE_S1.);
#363=LINE('',#351,#364);
#364=VECTOR('',#365,1.);
#365=DIRECTION('',(3.059753407566E-15,-1.,0.));
#366=PCURVE('',#58,#367);
#367=DEFINITIONAL_REPRESENTATION('',(#368),#67);
#368=LINE('',#369,#370);
#369=CARTESIAN_POINT('',(-1.075E+07,1.10836198545E+07));
#370=VECTOR('',#371,1.);
#371=DIRECTION('',(3.059753407566E-15,-1.));
#372=ORIENTED_EDGE('',*,*,#373,.T.);
#373=EDGE_CURVE('',#360,#374,#376,.T.);
#374=VERTEX_POINT('',#375);
#375=CARTESIAN_POINT('',(-1.05E+07,7.26666666665E+06,0.));
#376=SURFACE_CURVE('',#377,(#378),.PCURVE_S1.);
#377=LINE('',#361,#101);
#378=PCURVE('',#58,#379);
#379=DEFINITIONAL_REPRESENTATION('',(#380),#67);
#380=LINE('',#381,#106);
#381=CARTESIAN_POINT('',(-1.075E+07,7.60028652115E+06));
#382=ORIENTED_EDGE('',*,*,#383,.F.);
#383=EDGE_CURVE('',#384,#374,#386,.T.);
#384=VERTEX_POINT('',#385);
#385=CARTESIAN_POINT('',(-1.05E+07,1.0375E+07,0.));
#386=SURFACE_CURVE('',#387,(#388),.PCURVE_S1.);
#387=LINE('',#385,#180);
#388=PCURVE('',#58,#389);
#389=DEFINITIONAL_REPRESENTATION('',(#390),#67);
#390=LINE('',#391,#186);
#391=CARTESIAN_POINT('',(-1.05E+07,1.07086198545E+07));
#392=ORIENTED_EDGE('',*,*,#393,.F.);
#393=EDGE_CURVE('',#394,#384,#396,.T.);
#394=VERTEX_POINT('',#395);
#395=CARTESIAN_POINT('',(-1.0375E+07,1.05E+07,0.));
#396=SURFACE_CURVE('',#397,(#400),.PCURVE_S1.);
#397=CIRCLE('',#398,1.25E+05);
#398=AXIS2_PLACEMENT_3D('',#399,#13,#61);
#399=CARTESIAN_POINT('',(-1.0375E+07,1.0375E+07,0.));
#400=PCURVE('',#58,#401);
#401=DEFINITIONAL_REPRESENTATION('',(#402),#67);
#402=CIRCLE('',#403,1.25E+05);
#403=AXIS2_PLACEMENT_2D('',#404,#81);
#404=CARTESIAN_POINT('',(-1.0375E+07,1.07086198545E+07));
#405=ORIENTED_EDGE('',*,*,#406,.F.);
#406=EDGE_CURVE('',#407,#394,#409,.T.);
#407=VERTEX_POINT('',#408);
#408=CARTESIAN_POINT('',(1.0375E+07,1.05E+07,0.));
#409=SURFACE_CURVE('',#410,(#411),.PCURVE_S1.);
#410=LINE('',#408,#153);
#411=PCURVE('',#58,#412);
#412=DEFINITIONAL_REPRESENTATION('',(#413),#67);
#413=LINE('',#414,#159);
#414=CARTESIAN_POINT('',(1.0375E+07,1.08336198545E+07));
#415=ORIENTED_EDGE('',*,*,#416,.F.);
#416=EDGE_CURVE('',#417,#407,#419,.T.);
#417=VERTEX_POINT('',#418);
#418=CARTESIAN_POINT('',(1.05E+07,1.0375E+07,0.));
#419=SURFACE_CURVE('',#420,(#423),.PCURVE_S1.);
#420=CIRCLE('',#421,1.25E+05);
#421=AXIS2_PLACEMENT_3D('',#422,#13,#61);
#422=CARTESIAN_POINT('',(1.0375E+07,1.0375E+07,0.));
#423=PCURVE('',#58,#424);
#424=DEFINITIONAL_REPRESENTATION('',(#425),#67);
#425=CIRCLE('',#426,1.25E+05);
#426=AXIS2_PLACEMENT_2D('',#427,#81);
#427=CARTESIAN_POINT('',(1.0375E+07,1.07086198545E+07));
#428=ORIENTED_EDGE('',*,*,#429,.F.);
#429=EDGE_CURVE('',#430,#417,#432,.T.);
#430=VERTEX_POINT('',#431);
#431=CARTESIAN_POINT('',(1.05E+07,7.26666666665E+06,0.));
#432=SURFACE_CURVE('',#433,(#435),.PCURVE_S1.);
#433=LINE('',#434,#126);
#434=CARTESIAN_POINT('',(1.05E+07,-1.0375E+07,0.));
#435=PCURVE('',#58,#436);
#436=DEFINITIONAL_REPRESENTATION('',(#437),#67);
#437=LINE('',#438,#132);
#438=CARTESIAN_POINT('',(1.05E+07,-1.00413801455E+07));
#439=ORIENTED_EDGE('',*,*,#440,.T.);
#440=EDGE_CURVE('',#430,#441,#443,.T.);
#441=VERTEX_POINT('',#442);
#442=CARTESIAN_POINT('',(1.075E+07,7.26666666665E+06,0.));
#443=SURFACE_CURVE('',#444,(#448),.PCURVE_S1.);
#444=LINE('',#445,#446);
#445=CARTESIAN_POINT('',(2.E+06,7.26666666665E+06,0.));
#446=VECTOR('',#447,1.);
#447=DIRECTION('',(1.,-1.624097681737E-15,0.));
#448=PCURVE('',#58,#449);
#449=DEFINITIONAL_REPRESENTATION('',(#450),#67);
#450=LINE('',#451,#452);
#451=CARTESIAN_POINT('',(2.E+06,7.60028652115E+06));
#452=VECTOR('',#453,1.);
#453=DIRECTION('',(1.,-1.624097681737E-15));
#454=ORIENTED_EDGE('',*,*,#455,.T.);
#455=EDGE_CURVE('',#441,#456,#458,.T.);
#456=VERTEX_POINT('',#457);
#457=CARTESIAN_POINT('',(1.075E+07,1.075E+07,0.));
#458=SURFACE_CURVE('',#459,(#462),.PCURVE_S1.);
#459=LINE('',#442,#460);
#460=VECTOR('',#461,1.);
#461=DIRECTION('',(-3.059753407566E-15,1.,0.));
#462=PCURVE('',#58,#463);
#463=DEFINITIONAL_REPRESENTATION('',(#464),#67);
#464=LINE('',#465,#466);
#465=CARTESIAN_POINT('',(1.075E+07,7.60028652115E+06));
#466=VECTOR('',#467,1.);
#467=DIRECTION('',(-3.059753407566E-15,1.));
#468=ORIENTED_EDGE('',*,*,#469,.T.);
#469=EDGE_CURVE('',#456,#470,#472,.T.);
#470=VERTEX_POINT('',#471);
#471=CARTESIAN_POINT('',(2.125E+06,1.075E+07,0.));
#472=SURFACE_CURVE('',#473,(#474),.PCURVE_S1.);
#473=LINE('',#457,#153);
#474=PCURVE('',#58,#475);
#475=DEFINITIONAL_REPRESENTATION('',(#476),#67);
#476=LINE('',#477,#159);
#477=CARTESIAN_POINT('',(1.075E+07,1.10836198545E+07));
#478=ORIENTED_EDGE('',*,*,#479,.F.);
#479=EDGE_CURVE('',#480,#470,#482,.T.);
#480=VERTEX_POINT('',#481);
#481=CARTESIAN_POINT('',(2.E+06,1.0875E+07,0.));
#482=SURFACE_CURVE('',#483,(#486),.PCURVE_S1.);
#483=CIRCLE('',#484,1.25E+05);
#484=AXIS2_PLACEMENT_3D('',#485,#13,#61);
#485=CARTESIAN_POINT('',(2.125E+06,1.0875E+07,0.));
#486=PCURVE('',#58,#487);
#487=DEFINITIONAL_REPRESENTATION('',(#488),#67);
#488=CIRCLE('',#489,1.25E+05);
#489=AXIS2_PLACEMENT_2D('',#490,#81);
#490=CARTESIAN_POINT('',(2.125E+06,1.12086198545E+07));
#491=ORIENTED_EDGE('',*,*,#492,.T.);
#492=EDGE_CURVE('',#480,#493,#495,.T.);
#493=VERTEX_POINT('',#494);
#494=CARTESIAN_POINT('',(2.E+06,1.2125E+07,0.));
#495=SURFACE_CURVE('',#496,(#497),.PCURVE_S1.);
#496=LINE('',#481,#126);
#497=PCURVE('',#58,#498);
#498=DEFINITIONAL_REPRESENTATION('',(#499),#67);
#499=LINE('',#500,#132);
#500=CARTESIAN_POINT('',(2.E+06,1.12086198545E+07));
#501=ORIENTED_EDGE('',*,*,#502,.F.);
#502=EDGE_CURVE('',#503,#493,#505,.T.);
#503=VERTEX_POINT('',#504);
#504=CARTESIAN_POINT('',(2.125E+06,1.225E+07,0.));
#505=SURFACE_CURVE('',#506,(#509),.PCURVE_S1.);
#506=CIRCLE('',#507,1.25E+05);
#507=AXIS2_PLACEMENT_3D('',#508,#13,#61);
#508=CARTESIAN_POINT('',(2.125E+06,1.2125E+07,0.));
#509=PCURVE('',#58,#510);
#510=DEFINITIONAL_REPRESENTATION('',(#511),#67);
#511=CIRCLE('',#512,1.25E+05);
#512=AXIS2_PLACEMENT_2D('',#513,#81);
#513=CARTESIAN_POINT('',(2.125E+06,1.24586198545E+07));
#514=ORIENTED_EDGE('',*,*,#515,.T.);
#515=EDGE_CURVE('',#503,#516,#518,.T.);
#516=VERTEX_POINT('',#517);
#517=CARTESIAN_POINT('',(1.2125E+07,1.225E+07,0.));
#518=SURFACE_CURVE('',#519,(#520),.PCURVE_S1.);
#519=LINE('',#504,#101);
#520=PCURVE('',#58,#521);
#521=DEFINITIONAL_REPRESENTATION('',(#522),#67);
#522=LINE('',#523,#106);
#523=CARTESIAN_POINT('',(2.125E+06,1.25836198545E+07));
#524=ORIENTED_EDGE('',*,*,#525,.F.);
#525=EDGE_CURVE('',#526,#516,#528,.T.);
#526=VERTEX_POINT('',#527);
#527=CARTESIAN_POINT('',(1.225E+07,1.2125E+07,0.));
#528=SURFACE_CURVE('',#529,(#530),.PCURVE_S1.);
#529=CIRCLE('',#140,1.25E+05);
#530=PCURVE('',#58,#531);
#531=DEFINITIONAL_REPRESENTATION('',(#532),#67);
#532=CIRCLE('',#145,1.25E+05);
#533=ORIENTED_EDGE('',*,*,#534,.T.);
#534=EDGE_CURVE('',#526,#535,#537,.T.);
#535=VERTEX_POINT('',#536);
#536=CARTESIAN_POINT('',(1.225E+07,-1.2125E+07,0.));
#537=SURFACE_CURVE('',#538,(#539),.PCURVE_S1.);
#538=LINE('',#527,#180);
#539=PCURVE('',#58,#540);
#540=DEFINITIONAL_REPRESENTATION('',(#541),#67);
#541=LINE('',#542,#186);
#542=CARTESIAN_POINT('',(1.225E+07,1.24586198545E+07));
#543=ORIENTED_EDGE('',*,*,#544,.F.);
#544=EDGE_CURVE('',#545,#535,#547,.T.);
#545=VERTEX_POINT('',#546);
#546=CARTESIAN_POINT('',(1.2125E+07,-1.225E+07,0.));
#547=SURFACE_CURVE('',#548,(#549),.PCURVE_S1.);
#548=CIRCLE('',#113,1.25E+05);
#549=PCURVE('',#58,#550);
#550=DEFINITIONAL_REPRESENTATION('',(#551),#67);
#551=CIRCLE('',#118,1.25E+05);
#552=ORIENTED_EDGE('',*,*,#553,.T.);
#553=EDGE_CURVE('',#545,#554,#556,.T.);
#554=VERTEX_POINT('',#555);
#555=CARTESIAN_POINT('',(2.125000000001E+06,-1.225E+07,0.));
#556=SURFACE_CURVE('',#557,(#558),.PCURVE_S1.);
#557=LINE('',#546,#153);
#558=PCURVE('',#58,#559);
#559=DEFINITIONAL_REPRESENTATION('',(#560),#67);
#560=LINE('',#561,#159);
#561=CARTESIAN_POINT('',(1.2125E+07,-1.19163801455E+07));
#562=ORIENTED_EDGE('',*,*,#563,.T.);
#563=EDGE_CURVE('',#554,#564,#566,.T.);
#564=VERTEX_POINT('',#565);
#565=CARTESIAN_POINT('',(2.000000000001E+06,-1.2375E+07,0.));
#566=SURFACE_CURVE('',#567,(#570),.PCURVE_S1.);
#567=CIRCLE('',#568,1.25E+05);
#568=AXIS2_PLACEMENT_3D('',#569,#13,#61);
#569=CARTESIAN_POINT('',(2.125000000001E+06,-1.2375E+07,0.));
#570=PCURVE('',#58,#571);
#571=DEFINITIONAL_REPRESENTATION('',(#572),#67);
#572=CIRCLE('',#573,1.25E+05);
#573=AXIS2_PLACEMENT_2D('',#574,#81);
#574=CARTESIAN_POINT('',(2.125000000001E+06,-1.20413801455E+07));
#575=ORIENTED_EDGE('',*,*,#576,.T.);
#576=EDGE_CURVE('',#564,#50,#577,.T.);
#577=SURFACE_CURVE('',#578,(#579),.PCURVE_S1.);
#578=LINE('',#565,#180);
#579=PCURVE('',#58,#580);
#580=DEFINITIONAL_REPRESENTATION('',(#581),#67);
#581=LINE('',#582,#186);
#582=CARTESIAN_POINT('',(2.000000000001E+06,-1.20413801455E+07));
#583=SHELL_BASED_SURFACE_MODEL('',(#584));
#584=OPEN_SHELL('',(#585));
#585=ADVANCED_FACE('',(#586),#58,.T.);
#586=FACE_BOUND('',#587,.T.);
#587=EDGE_LOOP('',(#588,#590,#591,#592,#593,#594,#595,#596,#597,#598,    #599,#600,#601,#602,#603,#607,#621,#635,#646,#650,#664,    #678,#689,#693,#707,#717,#732,#736,#750,#760,#771,#775,    #785,#799,#809,#819,#830,#834,#844,#854,#865,#869,#879,    #889,#900,#904,#918,#928,#939,#943,#953,#963,#974,#976,    #977,#978,#979,#980,#981,#982,#983,#984,#985,#986,#987,    #988));
#588=ORIENTED_EDGE('',*,*,#589,.F.);
#589=EDGE_CURVE('',#50,#239,#52,.T.);
#590=ORIENTED_EDGE('',*,*,#576,.F.);
#591=ORIENTED_EDGE('',*,*,#563,.F.);
#592=ORIENTED_EDGE('',*,*,#553,.F.);
#593=ORIENTED_EDGE('',*,*,#544,.T.);
#594=ORIENTED_EDGE('',*,*,#534,.F.);
#595=ORIENTED_EDGE('',*,*,#525,.T.);
#596=ORIENTED_EDGE('',*,*,#515,.F.);
#597=ORIENTED_EDGE('',*,*,#502,.T.);
#598=ORIENTED_EDGE('',*,*,#492,.F.);
#599=ORIENTED_EDGE('',*,*,#479,.T.);
#600=ORIENTED_EDGE('',*,*,#469,.F.);
#601=ORIENTED_EDGE('',*,*,#455,.F.);
#602=ORIENTED_EDGE('',*,*,#440,.F.);
#603=ORIENTED_EDGE('',*,*,#604,.F.);
#604=EDGE_CURVE('',#605,#430,#432,.T.);
#605=VERTEX_POINT('',#606);
#606=CARTESIAN_POINT('',(1.05E+07,7.06666666665E+06,0.));
#607=ORIENTED_EDGE('',*,*,#608,.F.);
#608=EDGE_CURVE('',#609,#605,#611,.T.);
#609=VERTEX_POINT('',#610);
#610=CARTESIAN_POINT('',(1.075E+07,7.06666666665E+06,0.));
#611=SURFACE_CURVE('',#612,(#615),.PCURVE_S1.);
#612=LINE('',#610,#613);
#613=VECTOR('',#614,1.);
#614=DIRECTION('',(-1.,3.248195363475E-15,0.));
#615=PCURVE('',#58,#616);
#616=DEFINITIONAL_REPRESENTATION('',(#617),#67);
#617=LINE('',#618,#619);
#618=CARTESIAN_POINT('',(1.075E+07,7.40028652115E+06));
#619=VECTOR('',#620,1.);
#620=DIRECTION('',(-1.,3.248195363475E-15));
#621=ORIENTED_EDGE('',*,*,#622,.F.);
#622=EDGE_CURVE('',#623,#609,#625,.T.);
#623=VERTEX_POINT('',#624);
#624=CARTESIAN_POINT('',(1.075E+07,3.68333333332E+06,0.));
#625=SURFACE_CURVE('',#626,(#629),.PCURVE_S1.);
#626=LINE('',#624,#627);
#627=VECTOR('',#628,1.);
#628=DIRECTION('',(3.15018946889E-15,1.,0.));
#629=PCURVE('',#58,#630);
#630=DEFINITIONAL_REPRESENTATION('',(#631),#67);
#631=LINE('',#632,#633);
#632=CARTESIAN_POINT('',(1.075E+07,4.01695318782E+06));
#633=VECTOR('',#634,1.);
#634=DIRECTION('',(3.15018946889E-15,1.));
#635=ORIENTED_EDGE('',*,*,#636,.F.);
#636=EDGE_CURVE('',#637,#623,#639,.T.);
#637=VERTEX_POINT('',#638);
#638=CARTESIAN_POINT('',(1.05E+07,3.68333333332E+06,0.));
#639=SURFACE_CURVE('',#640,(#642),.PCURVE_S1.);
#640=LINE('',#641,#446);
#641=CARTESIAN_POINT('',(2.E+06,3.68333333332E+06,0.));
#642=PCURVE('',#58,#643);
#643=DEFINITIONAL_REPRESENTATION('',(#644),#67);
#644=LINE('',#645,#452);
#645=CARTESIAN_POINT('',(2.E+06,4.01695318782E+06));
#646=ORIENTED_EDGE('',*,*,#647,.F.);
#647=EDGE_CURVE('',#648,#637,#432,.T.);
#648=VERTEX_POINT('',#649);
#649=CARTESIAN_POINT('',(1.05E+07,3.48333333332E+06,0.));
#650=ORIENTED_EDGE('',*,*,#651,.F.);
#651=EDGE_CURVE('',#652,#648,#654,.T.);
#652=VERTEX_POINT('',#653);
#653=CARTESIAN_POINT('',(1.075E+07,3.48333333332E+06,0.));
#654=SURFACE_CURVE('',#655,(#658),.PCURVE_S1.);
#655=LINE('',#653,#656);
#656=VECTOR('',#657,1.);
#657=DIRECTION('',(-1.,1.624097681737E-15,0.));
#658=PCURVE('',#58,#659);
#659=DEFINITIONAL_REPRESENTATION('',(#660),#67);
#660=LINE('',#661,#662);
#661=CARTESIAN_POINT('',(1.075E+07,3.81695318782E+06));
#662=VECTOR('',#663,1.);
#663=DIRECTION('',(-1.,1.624097681737E-15));
#664=ORIENTED_EDGE('',*,*,#665,.F.);
#665=EDGE_CURVE('',#666,#652,#668,.T.);
#666=VERTEX_POINT('',#667);
#667=CARTESIAN_POINT('',(1.075E+07,9.999999998999E+04,0.));
#668=SURFACE_CURVE('',#669,(#672),.PCURVE_S1.);
#669=LINE('',#667,#670);
#670=VECTOR('',#671,1.);
#671=DIRECTION('',(5.775347359632E-15,1.,0.));
#672=PCURVE('',#58,#673);
#673=DEFINITIONAL_REPRESENTATION('',(#674),#67);
#674=LINE('',#675,#676);
#675=CARTESIAN_POINT('',(1.075E+07,4.336198544902E+05));
#676=VECTOR('',#677,1.);
#677=DIRECTION('',(5.775347359632E-15,1.));
#678=ORIENTED_EDGE('',*,*,#679,.F.);
#679=EDGE_CURVE('',#680,#666,#682,.T.);
#680=VERTEX_POINT('',#681);
#681=CARTESIAN_POINT('',(1.05E+07,9.999999998999E+04,0.));
#682=SURFACE_CURVE('',#683,(#685),.PCURVE_S1.);
#683=LINE('',#684,#101);
#684=CARTESIAN_POINT('',(2.E+06,9.999999998999E+04,0.));
#685=PCURVE('',#58,#686);
#686=DEFINITIONAL_REPRESENTATION('',(#687),#67);
#687=LINE('',#688,#106);
#688=CARTESIAN_POINT('',(2.E+06,4.336198544902E+05));
#689=ORIENTED_EDGE('',*,*,#690,.F.);
#690=EDGE_CURVE('',#691,#680,#432,.T.);
#691=VERTEX_POINT('',#692);
#692=CARTESIAN_POINT('',(1.05E+07,-1.0000000001E+05,0.));
#693=ORIENTED_EDGE('',*,*,#694,.F.);
#694=EDGE_CURVE('',#695,#691,#697,.T.);
#695=VERTEX_POINT('',#696);
#696=CARTESIAN_POINT('',(1.075E+07,-1.0000000001E+05,0.));
#697=SURFACE_CURVE('',#698,(#701),.PCURVE_S1.);
#698=LINE('',#696,#699);
#699=VECTOR('',#700,1.);
#700=DIRECTION('',(-1.,1.622511648845E-15,0.));
#701=PCURVE('',#58,#702);
#702=DEFINITIONAL_REPRESENTATION('',(#703),#67);
#703=LINE('',#704,#705);
#704=CARTESIAN_POINT('',(1.075E+07,2.336198544902E+05));
#705=VECTOR('',#706,1.);
#706=DIRECTION('',(-1.,1.622511648845E-15));
#707=ORIENTED_EDGE('',*,*,#708,.F.);
#708=EDGE_CURVE('',#709,#695,#711,.T.);
#709=VERTEX_POINT('',#710);
#710=CARTESIAN_POINT('',(1.075E+07,-3.48333333334E+06,0.));
#711=SURFACE_CURVE('',#712,(#713),.PCURVE_S1.);
#712=LINE('',#710,#126);
#713=PCURVE('',#58,#714);
#714=DEFINITIONAL_REPRESENTATION('',(#715),#67);
#715=LINE('',#716,#132);
#716=CARTESIAN_POINT('',(1.075E+07,-3.14971347884E+06));
#717=ORIENTED_EDGE('',*,*,#718,.F.);
#718=EDGE_CURVE('',#719,#709,#721,.T.);
#719=VERTEX_POINT('',#720);
#720=CARTESIAN_POINT('',(1.05E+07,-3.48333333334E+06,0.));
#721=SURFACE_CURVE('',#722,(#726),.PCURVE_S1.);
#722=LINE('',#723,#724);
#723=CARTESIAN_POINT('',(2.E+06,-3.48333333334E+06,0.));
#724=VECTOR('',#725,1.);
#725=DIRECTION('',(1.,-1.573344629183E-15,0.));
#726=PCURVE('',#58,#727);
#727=DEFINITIONAL_REPRESENTATION('',(#728),#67);
#728=LINE('',#729,#730);
#729=CARTESIAN_POINT('',(2.E+06,-3.14971347884E+06));
#730=VECTOR('',#731,1.);
#731=DIRECTION('',(1.,-1.573344629183E-15));
#732=ORIENTED_EDGE('',*,*,#733,.F.);
#733=EDGE_CURVE('',#734,#719,#432,.T.);
#734=VERTEX_POINT('',#735);
#735=CARTESIAN_POINT('',(1.05E+07,-3.68333333334E+06,0.));
#736=ORIENTED_EDGE('',*,*,#737,.F.);
#737=EDGE_CURVE('',#738,#734,#740,.T.);
#738=VERTEX_POINT('',#739);
#739=CARTESIAN_POINT('',(1.075E+07,-3.68333333334E+06,0.));
#740=SURFACE_CURVE('',#741,(#744),.PCURVE_S1.);
#741=LINE('',#739,#742);
#742=VECTOR('',#743,1.);
#743=DIRECTION('',(-1.,3.19744231092E-15,0.));
#744=PCURVE('',#58,#745);
#745=DEFINITIONAL_REPRESENTATION('',(#746),#67);
#746=LINE('',#747,#748);
#747=CARTESIAN_POINT('',(1.075E+07,-3.34971347884E+06));
#748=VECTOR('',#749,1.);
#749=DIRECTION('',(-1.,3.19744231092E-15));
#750=ORIENTED_EDGE('',*,*,#751,.F.);
#751=EDGE_CURVE('',#752,#738,#754,.T.);
#752=VERTEX_POINT('',#753);
#753=CARTESIAN_POINT('',(1.075E+07,-7.06666666667E+06,0.));
#754=SURFACE_CURVE('',#755,(#756),.PCURVE_S1.);
#755=LINE('',#753,#126);
#756=PCURVE('',#58,#757);
#757=DEFINITIONAL_REPRESENTATION('',(#758),#67);
#758=LINE('',#759,#132);
#759=CARTESIAN_POINT('',(1.075E+07,-6.73304681217E+06));
#760=ORIENTED_EDGE('',*,*,#761,.F.);
#761=EDGE_CURVE('',#762,#752,#764,.T.);
#762=VERTEX_POINT('',#763);
#763=CARTESIAN_POINT('',(1.05E+07,-7.06666666667E+06,0.));
#764=SURFACE_CURVE('',#765,(#767),.PCURVE_S1.);
#765=LINE('',#766,#446);
#766=CARTESIAN_POINT('',(2.E+06,-7.06666666667E+06,0.));
#767=PCURVE('',#58,#768);
#768=DEFINITIONAL_REPRESENTATION('',(#769),#67);
#769=LINE('',#770,#452);
#770=CARTESIAN_POINT('',(2.E+06,-6.73304681217E+06));
#771=ORIENTED_EDGE('',*,*,#772,.F.);
#772=EDGE_CURVE('',#773,#762,#432,.T.);
#773=VERTEX_POINT('',#774);
#774=CARTESIAN_POINT('',(1.05E+07,-7.26666666667E+06,0.));
#775=ORIENTED_EDGE('',*,*,#776,.F.);
#776=EDGE_CURVE('',#777,#773,#779,.T.);
#777=VERTEX_POINT('',#778);
#778=CARTESIAN_POINT('',(1.075E+07,-7.26666666667E+06,0.));
#779=SURFACE_CURVE('',#780,(#781),.PCURVE_S1.);
#780=LINE('',#778,#656);
#781=PCURVE('',#58,#782);
#782=DEFINITIONAL_REPRESENTATION('',(#783),#67);
#783=LINE('',#784,#662);
#784=CARTESIAN_POINT('',(1.075E+07,-6.93304681217E+06));
#785=ORIENTED_EDGE('',*,*,#786,.F.);
#786=EDGE_CURVE('',#787,#777,#789,.T.);
#787=VERTEX_POINT('',#788);
#788=CARTESIAN_POINT('',(1.075E+07,-1.075E+07,0.));
#789=SURFACE_CURVE('',#790,(#793),.PCURVE_S1.);
#790=LINE('',#788,#791);
#791=VECTOR('',#792,1.);
#792=DIRECTION('',(-3.059753407582E-15,1.,0.));
#793=PCURVE('',#58,#794);
#794=DEFINITIONAL_REPRESENTATION('',(#795),#67);
#795=LINE('',#796,#797);
#796=CARTESIAN_POINT('',(1.075E+07,-1.04163801455E+07));
#797=VECTOR('',#798,1.);
#798=DIRECTION('',(-3.059753407582E-15,1.));
#799=ORIENTED_EDGE('',*,*,#800,.F.);
#800=EDGE_CURVE('',#801,#787,#803,.T.);
#801=VERTEX_POINT('',#802);
#802=CARTESIAN_POINT('',(-1.075E+07,-1.075E+07,0.));
#803=SURFACE_CURVE('',#804,(#805),.PCURVE_S1.);
#804=LINE('',#802,#101);
#805=PCURVE('',#58,#806);
#806=DEFINITIONAL_REPRESENTATION('',(#807),#67);
#807=LINE('',#808,#106);
#808=CARTESIAN_POINT('',(-1.075E+07,-1.04163801455E+07));
#809=ORIENTED_EDGE('',*,*,#810,.F.);
#810=EDGE_CURVE('',#811,#801,#813,.T.);
#811=VERTEX_POINT('',#812);
#812=CARTESIAN_POINT('',(-1.075E+07,-7.26666666667E+06,0.));
#813=SURFACE_CURVE('',#814,(#815),.PCURVE_S1.);
#814=LINE('',#812,#180);
#815=PCURVE('',#58,#816);
#816=DEFINITIONAL_REPRESENTATION('',(#817),#67);
#817=LINE('',#818,#186);
#818=CARTESIAN_POINT('',(-1.075E+07,-6.93304681217E+06));
#819=ORIENTED_EDGE('',*,*,#820,.F.);
#820=EDGE_CURVE('',#821,#811,#823,.T.);
#821=VERTEX_POINT('',#822);
#822=CARTESIAN_POINT('',(-1.05E+07,-7.26666666667E+06,0.));
#823=SURFACE_CURVE('',#824,(#826),.PCURVE_S1.);
#824=LINE('',#825,#153);
#825=CARTESIAN_POINT('',(-2.E+06,-7.26666666667E+06,0.));
#826=PCURVE('',#58,#827);
#827=DEFINITIONAL_REPRESENTATION('',(#828),#67);
#828=LINE('',#829,#159);
#829=CARTESIAN_POINT('',(-2.E+06,-6.93304681217E+06));
#830=ORIENTED_EDGE('',*,*,#831,.F.);
#831=EDGE_CURVE('',#832,#821,#386,.T.);
#832=VERTEX_POINT('',#833);
#833=CARTESIAN_POINT('',(-1.05E+07,-7.06666666667E+06,0.));
#834=ORIENTED_EDGE('',*,*,#835,.F.);
#835=EDGE_CURVE('',#836,#832,#838,.T.);
#836=VERTEX_POINT('',#837);
#837=CARTESIAN_POINT('',(-1.075E+07,-7.06666666667E+06,0.));
#838=SURFACE_CURVE('',#839,(#840),.PCURVE_S1.);
#839=LINE('',#837,#446);
#840=PCURVE('',#58,#841);
#841=DEFINITIONAL_REPRESENTATION('',(#842),#67);
#842=LINE('',#843,#452);
#843=CARTESIAN_POINT('',(-1.075E+07,-6.73304681217E+06));
#844=ORIENTED_EDGE('',*,*,#845,.F.);
#845=EDGE_CURVE('',#846,#836,#848,.T.);
#846=VERTEX_POINT('',#847);
#847=CARTESIAN_POINT('',(-1.075E+07,-3.68333333334E+06,0.));
#848=SURFACE_CURVE('',#849,(#850),.PCURVE_S1.);
#849=LINE('',#847,#180);
#850=PCURVE('',#58,#851);
#851=DEFINITIONAL_REPRESENTATION('',(#852),#67);
#852=LINE('',#853,#186);
#853=CARTESIAN_POINT('',(-1.075E+07,-3.34971347884E+06));
#854=ORIENTED_EDGE('',*,*,#855,.F.);
#855=EDGE_CURVE('',#856,#846,#858,.T.);
#856=VERTEX_POINT('',#857);
#857=CARTESIAN_POINT('',(-1.05E+07,-3.68333333334E+06,0.));
#858=SURFACE_CURVE('',#859,(#861),.PCURVE_S1.);
#859=LINE('',#860,#153);
#860=CARTESIAN_POINT('',(-2.E+06,-3.68333333334E+06,0.));
#861=PCURVE('',#58,#862);
#862=DEFINITIONAL_REPRESENTATION('',(#863),#67);
#863=LINE('',#864,#159);
#864=CARTESIAN_POINT('',(-2.E+06,-3.34971347884E+06));
#865=ORIENTED_EDGE('',*,*,#866,.F.);
#866=EDGE_CURVE('',#867,#856,#386,.T.);
#867=VERTEX_POINT('',#868);
#868=CARTESIAN_POINT('',(-1.05E+07,-3.48333333334E+06,0.));
#869=ORIENTED_EDGE('',*,*,#870,.F.);
#870=EDGE_CURVE('',#871,#867,#873,.T.);
#871=VERTEX_POINT('',#872);
#872=CARTESIAN_POINT('',(-1.075E+07,-3.48333333334E+06,0.));
#873=SURFACE_CURVE('',#874,(#875),.PCURVE_S1.);
#874=LINE('',#872,#101);
#875=PCURVE('',#58,#876);
#876=DEFINITIONAL_REPRESENTATION('',(#877),#67);
#877=LINE('',#878,#106);
#878=CARTESIAN_POINT('',(-1.075E+07,-3.14971347884E+06));
#879=ORIENTED_EDGE('',*,*,#880,.F.);
#880=EDGE_CURVE('',#881,#871,#883,.T.);
#881=VERTEX_POINT('',#882);
#882=CARTESIAN_POINT('',(-1.075E+07,-1.0000000001E+05,0.));
#883=SURFACE_CURVE('',#884,(#885),.PCURVE_S1.);
#884=LINE('',#882,#180);
#885=PCURVE('',#58,#886);
#886=DEFINITIONAL_REPRESENTATION('',(#887),#67);
#887=LINE('',#888,#186);
#888=CARTESIAN_POINT('',(-1.075E+07,2.336198544902E+05));
#889=ORIENTED_EDGE('',*,*,#890,.F.);
#890=EDGE_CURVE('',#891,#881,#893,.T.);
#891=VERTEX_POINT('',#892);
#892=CARTESIAN_POINT('',(-1.05E+07,-1.0000000001E+05,0.));
#893=SURFACE_CURVE('',#894,(#896),.PCURVE_S1.);
#894=LINE('',#895,#153);
#895=CARTESIAN_POINT('',(-2.E+06,-1.0000000001E+05,0.));
#896=PCURVE('',#58,#897);
#897=DEFINITIONAL_REPRESENTATION('',(#898),#67);
#898=LINE('',#899,#159);
#899=CARTESIAN_POINT('',(-2.E+06,2.336198544902E+05));
#900=ORIENTED_EDGE('',*,*,#901,.F.);
#901=EDGE_CURVE('',#902,#891,#386,.T.);
#902=VERTEX_POINT('',#903);
#903=CARTESIAN_POINT('',(-1.05E+07,9.999999999E+04,0.));
#904=ORIENTED_EDGE('',*,*,#905,.F.);
#905=EDGE_CURVE('',#906,#902,#908,.T.);
#906=VERTEX_POINT('',#907);
#907=CARTESIAN_POINT('',(-1.075E+07,9.999999999E+04,0.));
#908=SURFACE_CURVE('',#909,(#912),.PCURVE_S1.);
#909=LINE('',#907,#910);
#910=VECTOR('',#911,1.);
#911=DIRECTION('',(1.,-1.622511648845E-15,0.));
#912=PCURVE('',#58,#913);
#913=DEFINITIONAL_REPRESENTATION('',(#914),#67);
#914=LINE('',#915,#916);
#915=CARTESIAN_POINT('',(-1.075E+07,4.336198544902E+05));
#916=VECTOR('',#917,1.);
#917=DIRECTION('',(1.,-1.622511648845E-15));
#918=ORIENTED_EDGE('',*,*,#919,.F.);
#919=EDGE_CURVE('',#920,#906,#922,.T.);
#920=VERTEX_POINT('',#921);
#921=CARTESIAN_POINT('',(-1.075E+07,3.48333333332E+06,0.));
#922=SURFACE_CURVE('',#923,(#924),.PCURVE_S1.);
#923=LINE('',#921,#180);
#924=PCURVE('',#58,#925);
#925=DEFINITIONAL_REPRESENTATION('',(#926),#67);
#926=LINE('',#927,#186);
#927=CARTESIAN_POINT('',(-1.075E+07,3.81695318782E+06));
#928=ORIENTED_EDGE('',*,*,#929,.F.);
#929=EDGE_CURVE('',#930,#920,#932,.T.);
#930=VERTEX_POINT('',#931);
#931=CARTESIAN_POINT('',(-1.05E+07,3.48333333332E+06,0.));
#932=SURFACE_CURVE('',#933,(#935),.PCURVE_S1.);
#933=LINE('',#934,#153);
#934=CARTESIAN_POINT('',(-2.E+06,3.48333333332E+06,0.));
#935=PCURVE('',#58,#936);
#936=DEFINITIONAL_REPRESENTATION('',(#937),#67);
#937=LINE('',#938,#159);
#938=CARTESIAN_POINT('',(-2.E+06,3.81695318782E+06));
#939=ORIENTED_EDGE('',*,*,#940,.F.);
#940=EDGE_CURVE('',#941,#930,#386,.T.);
#941=VERTEX_POINT('',#942);
#942=CARTESIAN_POINT('',(-1.05E+07,3.68333333332E+06,0.));
#943=ORIENTED_EDGE('',*,*,#944,.F.);
#944=EDGE_CURVE('',#945,#941,#947,.T.);
#945=VERTEX_POINT('',#946);
#946=CARTESIAN_POINT('',(-1.075E+07,3.68333333332E+06,0.));
#947=SURFACE_CURVE('',#948,(#949),.PCURVE_S1.);
#948=LINE('',#946,#101);
#949=PCURVE('',#58,#950);
#950=DEFINITIONAL_REPRESENTATION('',(#951),#67);
#951=LINE('',#952,#106);
#952=CARTESIAN_POINT('',(-1.075E+07,4.01695318782E+06));
#953=ORIENTED_EDGE('',*,*,#954,.F.);
#954=EDGE_CURVE('',#955,#945,#957,.T.);
#955=VERTEX_POINT('',#956);
#956=CARTESIAN_POINT('',(-1.075E+07,7.06666666665E+06,0.));
#957=SURFACE_CURVE('',#958,(#959),.PCURVE_S1.);
#958=LINE('',#956,#180);
#959=PCURVE('',#58,#960);
#960=DEFINITIONAL_REPRESENTATION('',(#961),#67);
#961=LINE('',#962,#186);
#962=CARTESIAN_POINT('',(-1.075E+07,7.40028652115E+06));
#963=ORIENTED_EDGE('',*,*,#964,.F.);
#964=EDGE_CURVE('',#965,#955,#967,.T.);
#965=VERTEX_POINT('',#966);
#966=CARTESIAN_POINT('',(-1.05E+07,7.06666666665E+06,0.));
#967=SURFACE_CURVE('',#968,(#970),.PCURVE_S1.);
#968=LINE('',#969,#153);
#969=CARTESIAN_POINT('',(-2.E+06,7.06666666665E+06,0.));
#970=PCURVE('',#58,#971);
#971=DEFINITIONAL_REPRESENTATION('',(#972),#67);
#972=LINE('',#973,#159);
#973=CARTESIAN_POINT('',(-2.E+06,7.40028652115E+06));
#974=ORIENTED_EDGE('',*,*,#975,.F.);
#975=EDGE_CURVE('',#374,#965,#386,.T.);
#976=ORIENTED_EDGE('',*,*,#373,.F.);
#977=ORIENTED_EDGE('',*,*,#359,.F.);
#978=ORIENTED_EDGE('',*,*,#349,.F.);
#979=ORIENTED_EDGE('',*,*,#336,.T.);
#980=ORIENTED_EDGE('',*,*,#326,.F.);
#981=ORIENTED_EDGE('',*,*,#313,.T.);
#982=ORIENTED_EDGE('',*,*,#303,.F.);
#983=ORIENTED_EDGE('',*,*,#294,.T.);
#984=ORIENTED_EDGE('',*,*,#284,.F.);
#985=ORIENTED_EDGE('',*,*,#275,.T.);
#986=ORIENTED_EDGE('',*,*,#265,.F.);
#987=ORIENTED_EDGE('',*,*,#252,.F.);
#988=ORIENTED_EDGE('',*,*,#242,.F.);
#989=SHELL_BASED_SURFACE_MODEL('',(#990));
#990=OPEN_SHELL('',(#991));
#991=ADVANCED_FACE('',(#992),#58,.T.);
#992=FACE_BOUND('',#993,.T.);
#993=EDGE_LOOP('',(#994,#997,#998,#999,#1000,#1001,#1002,#1006,    #1018,#1020,#1022,#1026,#1038,#1040,#1042,#1046,#1058,#1060,#1062,    #1066,#1078,#1080,#1082,#1086,#1098,#1100,#1104,#1117,#1131,#1143,    #1145,#1149,#1161,#1163,#1165,#1169,#1181,#1183,#1185,#1189,#1201,    #1203,#1205,#1209,#1221,#1223,#1225,#1229));
#994=ORIENTED_EDGE('',*,*,#995,.T.);
#995=EDGE_CURVE('',#996,#430,#443,.T.);
#996=VERTEX_POINT('',#445);
#997=ORIENTED_EDGE('',*,*,#429,.T.);
#998=ORIENTED_EDGE('',*,*,#416,.T.);
#999=ORIENTED_EDGE('',*,*,#406,.T.);
#1000=ORIENTED_EDGE('',*,*,#393,.T.);
#1001=ORIENTED_EDGE('',*,*,#383,.T.);
#1002=ORIENTED_EDGE('',*,*,#1003,.T.);
#1003=EDGE_CURVE('',#374,#1004,#376,.T.);
#1004=VERTEX_POINT('',#1005);
#1005=CARTESIAN_POINT('',(-2.E+06,7.26666666665E+06,0.));
#1006=ORIENTED_EDGE('',*,*,#1007,.F.);
#1007=EDGE_CURVE('',#1008,#1004,#1009,.T.);
#1008=VERTEX_POINT('',#969);
#1009=SURFACE_CURVE('',#1010,(#1013),.PCURVE_S1.);
#1010=CIRCLE('',#1011,9.999999999999E+04);
#1011=AXIS2_PLACEMENT_3D('',#1012,#13,#61);
#1012=CARTESIAN_POINT('',(-2.E+06,7.16666666665E+06,0.));
#1013=PCURVE('',#58,#1014);
#1014=DEFINITIONAL_REPRESENTATION('',(#1015),#67);
#1015=CIRCLE('',#1016,9.999999999999E+04);
#1016=AXIS2_PLACEMENT_2D('',#1017,#81);
#1017=CARTESIAN_POINT('',(-2.E+06,7.50028652115E+06));
#1018=ORIENTED_EDGE('',*,*,#1019,.T.);
#1019=EDGE_CURVE('',#1008,#965,#967,.T.);
#1020=ORIENTED_EDGE('',*,*,#1021,.T.);
#1021=EDGE_CURVE('',#965,#941,#386,.T.);
#1022=ORIENTED_EDGE('',*,*,#1023,.T.);
#1023=EDGE_CURVE('',#941,#1024,#947,.T.);
#1024=VERTEX_POINT('',#1025);
#1025=CARTESIAN_POINT('',(-2.E+06,3.68333333332E+06,0.));
#1026=ORIENTED_EDGE('',*,*,#1027,.F.);
#1027=EDGE_CURVE('',#1028,#1024,#1029,.T.);
#1028=VERTEX_POINT('',#934);
#1029=SURFACE_CURVE('',#1030,(#1033),.PCURVE_S1.);
#1030=CIRCLE('',#1031,9.999999999999E+04);
#1031=AXIS2_PLACEMENT_3D('',#1032,#13,#61);
#1032=CARTESIAN_POINT('',(-2.E+06,3.58333333332E+06,0.));
#1033=PCURVE('',#58,#1034);
#1034=DEFINITIONAL_REPRESENTATION('',(#1035),#67);
#1035=CIRCLE('',#1036,9.999999999999E+04);
#1036=AXIS2_PLACEMENT_2D('',#1037,#81);
#1037=CARTESIAN_POINT('',(-2.E+06,3.91695318782E+06));
#1038=ORIENTED_EDGE('',*,*,#1039,.T.);
#1039=EDGE_CURVE('',#1028,#930,#932,.T.);
#1040=ORIENTED_EDGE('',*,*,#1041,.T.);
#1041=EDGE_CURVE('',#930,#902,#386,.T.);
#1042=ORIENTED_EDGE('',*,*,#1043,.T.);
#1043=EDGE_CURVE('',#902,#1044,#908,.T.);
#1044=VERTEX_POINT('',#1045);
#1045=CARTESIAN_POINT('',(-2.E+06,9.999999998999E+04,0.));
#1046=ORIENTED_EDGE('',*,*,#1047,.F.);
#1047=EDGE_CURVE('',#1048,#1044,#1049,.T.);
#1048=VERTEX_POINT('',#895);
#1049=SURFACE_CURVE('',#1050,(#1053),.PCURVE_S1.);
#1050=CIRCLE('',#1051,9.999999999999E+04);
#1051=AXIS2_PLACEMENT_3D('',#1052,#13,#61);
#1052=CARTESIAN_POINT('',(-2.E+06,-1.00044417195E-05,0.));
#1053=PCURVE('',#58,#1054);
#1054=DEFINITIONAL_REPRESENTATION('',(#1055),#67);
#1055=CIRCLE('',#1056,9.999999999999E+04);
#1056=AXIS2_PLACEMENT_2D('',#1057,#81);
#1057=CARTESIAN_POINT('',(-2.E+06,3.336198544902E+05));
#1058=ORIENTED_EDGE('',*,*,#1059,.T.);
#1059=EDGE_CURVE('',#1048,#891,#893,.T.);
#1060=ORIENTED_EDGE('',*,*,#1061,.T.);
#1061=EDGE_CURVE('',#891,#867,#386,.T.);
#1062=ORIENTED_EDGE('',*,*,#1063,.T.);
#1063=EDGE_CURVE('',#867,#1064,#873,.T.);
#1064=VERTEX_POINT('',#1065);
#1065=CARTESIAN_POINT('',(-2.E+06,-3.48333333334E+06,0.));
#1066=ORIENTED_EDGE('',*,*,#1067,.F.);
#1067=EDGE_CURVE('',#1068,#1064,#1069,.T.);
#1068=VERTEX_POINT('',#860);
#1069=SURFACE_CURVE('',#1070,(#1073),.PCURVE_S1.);
#1070=CIRCLE('',#1071,9.999999999999E+04);
#1071=AXIS2_PLACEMENT_3D('',#1072,#13,#61);
#1072=CARTESIAN_POINT('',(-2.E+06,-3.58333333334E+06,0.));
#1073=PCURVE('',#58,#1074);
#1074=DEFINITIONAL_REPRESENTATION('',(#1075),#67);
#1075=CIRCLE('',#1076,9.999999999999E+04);
#1076=AXIS2_PLACEMENT_2D('',#1077,#81);
#1077=CARTESIAN_POINT('',(-2.E+06,-3.24971347884E+06));
#1078=ORIENTED_EDGE('',*,*,#1079,.T.);
#1079=EDGE_CURVE('',#1068,#856,#858,.T.);
#1080=ORIENTED_EDGE('',*,*,#1081,.T.);
#1081=EDGE_CURVE('',#856,#832,#386,.T.);
#1082=ORIENTED_EDGE('',*,*,#1083,.T.);
#1083=EDGE_CURVE('',#832,#1084,#838,.T.);
#1084=VERTEX_POINT('',#1085);
#1085=CARTESIAN_POINT('',(-2.E+06,-7.06666666667E+06,0.));
#1086=ORIENTED_EDGE('',*,*,#1087,.F.);
#1087=EDGE_CURVE('',#1088,#1084,#1089,.T.);
#1088=VERTEX_POINT('',#825);
#1089=SURFACE_CURVE('',#1090,(#1093),.PCURVE_S1.);
#1090=CIRCLE('',#1091,9.999999999999E+04);
#1091=AXIS2_PLACEMENT_3D('',#1092,#13,#61);
#1092=CARTESIAN_POINT('',(-2.E+06,-7.16666666667E+06,0.));
#1093=PCURVE('',#58,#1094);
#1094=DEFINITIONAL_REPRESENTATION('',(#1095),#67);
#1095=CIRCLE('',#1096,9.999999999999E+04);
#1096=AXIS2_PLACEMENT_2D('',#1097,#81);
#1097=CARTESIAN_POINT('',(-2.E+06,-6.83304681217E+06));
#1098=ORIENTED_EDGE('',*,*,#1099,.T.);
#1099=EDGE_CURVE('',#1088,#821,#823,.T.);
#1100=ORIENTED_EDGE('',*,*,#1101,.T.);
#1101=EDGE_CURVE('',#821,#1102,#386,.T.);
#1102=VERTEX_POINT('',#1103);
#1103=CARTESIAN_POINT('',(-1.05E+07,-1.0375E+07,0.));
#1104=ORIENTED_EDGE('',*,*,#1105,.T.);
#1105=EDGE_CURVE('',#1102,#1106,#1108,.T.);
#1106=VERTEX_POINT('',#1107);
#1107=CARTESIAN_POINT('',(-1.0375E+07,-1.05E+07,0.));
#1108=SURFACE_CURVE('',#1109,(#1112),.PCURVE_S1.);
#1109=CIRCLE('',#1110,1.25E+05);
#1110=AXIS2_PLACEMENT_3D('',#1111,#13,#61);
#1111=CARTESIAN_POINT('',(-1.0375E+07,-1.0375E+07,0.));
#1112=PCURVE('',#58,#1113);
#1113=DEFINITIONAL_REPRESENTATION('',(#1114),#67);
#1114=CIRCLE('',#1115,1.25E+05);
#1115=AXIS2_PLACEMENT_2D('',#1116,#81);
#1116=CARTESIAN_POINT('',(-1.0375E+07,-1.00413801455E+07));
#1117=ORIENTED_EDGE('',*,*,#1118,.T.);
#1118=EDGE_CURVE('',#1106,#1119,#1121,.T.);
#1119=VERTEX_POINT('',#1120);
#1120=CARTESIAN_POINT('',(1.0375E+07,-1.05E+07,0.));
#1121=SURFACE_CURVE('',#1122,(#1125),.PCURVE_S1.);
#1122=LINE('',#1107,#1123);
#1123=VECTOR('',#1124,1.);
#1124=DIRECTION('',(1.,-5.136453511519E-16,0.));
#1125=PCURVE('',#58,#1126);
#1126=DEFINITIONAL_REPRESENTATION('',(#1127),#67);
#1127=LINE('',#1128,#1129);
#1128=CARTESIAN_POINT('',(-1.0375E+07,-1.01663801455E+07));
#1129=VECTOR('',#1130,1.);
#1130=DIRECTION('',(1.,-5.136453511519E-16));
#1131=ORIENTED_EDGE('',*,*,#1132,.T.);
#1132=EDGE_CURVE('',#1119,#1133,#1134,.T.);
#1133=VERTEX_POINT('',#434);
#1134=SURFACE_CURVE('',#1135,(#1138),.PCURVE_S1.);
#1135=CIRCLE('',#1136,1.25E+05);
#1136=AXIS2_PLACEMENT_3D('',#1137,#13,#61);
#1137=CARTESIAN_POINT('',(1.0375E+07,-1.0375E+07,0.));
#1138=PCURVE('',#58,#1139);
#1139=DEFINITIONAL_REPRESENTATION('',(#1140),#67);
#1140=CIRCLE('',#1141,1.25E+05);
#1141=AXIS2_PLACEMENT_2D('',#1142,#81);
#1142=CARTESIAN_POINT('',(1.0375E+07,-1.00413801455E+07));
#1143=ORIENTED_EDGE('',*,*,#1144,.T.);
#1144=EDGE_CURVE('',#1133,#773,#432,.T.);
#1145=ORIENTED_EDGE('',*,*,#1146,.T.);
#1146=EDGE_CURVE('',#773,#1147,#779,.T.);
#1147=VERTEX_POINT('',#1148);
#1148=CARTESIAN_POINT('',(2.E+06,-7.26666666667E+06,0.));
#1149=ORIENTED_EDGE('',*,*,#1150,.F.);
#1150=EDGE_CURVE('',#1151,#1147,#1152,.T.);
#1151=VERTEX_POINT('',#766);
#1152=SURFACE_CURVE('',#1153,(#1156),.PCURVE_S1.);
#1153=CIRCLE('',#1154,9.999999999999E+04);
#1154=AXIS2_PLACEMENT_3D('',#1155,#13,#61);
#1155=CARTESIAN_POINT('',(2.E+06,-7.16666666667E+06,0.));
#1156=PCURVE('',#58,#1157);
#1157=DEFINITIONAL_REPRESENTATION('',(#1158),#67);
#1158=CIRCLE('',#1159,9.999999999999E+04);
#1159=AXIS2_PLACEMENT_2D('',#1160,#81);
#1160=CARTESIAN_POINT('',(2.E+06,-6.83304681217E+06));
#1161=ORIENTED_EDGE('',*,*,#1162,.T.);
#1162=EDGE_CURVE('',#1151,#762,#764,.T.);
#1163=ORIENTED_EDGE('',*,*,#1164,.T.);
#1164=EDGE_CURVE('',#762,#734,#432,.T.);
#1165=ORIENTED_EDGE('',*,*,#1166,.T.);
#1166=EDGE_CURVE('',#734,#1167,#740,.T.);
#1167=VERTEX_POINT('',#1168);
#1168=CARTESIAN_POINT('',(2.E+06,-3.68333333334E+06,0.));
#1169=ORIENTED_EDGE('',*,*,#1170,.F.);
#1170=EDGE_CURVE('',#1171,#1167,#1172,.T.);
#1171=VERTEX_POINT('',#723);
#1172=SURFACE_CURVE('',#1173,(#1176),.PCURVE_S1.);
#1173=CIRCLE('',#1174,9.999999999999E+04);
#1174=AXIS2_PLACEMENT_3D('',#1175,#13,#61);
#1175=CARTESIAN_POINT('',(2.E+06,-3.58333333334E+06,0.));
#1176=PCURVE('',#58,#1177);
#1177=DEFINITIONAL_REPRESENTATION('',(#1178),#67);
#1178=CIRCLE('',#1179,9.999999999999E+04);
#1179=AXIS2_PLACEMENT_2D('',#1180,#81);
#1180=CARTESIAN_POINT('',(2.E+06,-3.24971347884E+06));
#1181=ORIENTED_EDGE('',*,*,#1182,.T.);
#1182=EDGE_CURVE('',#1171,#719,#721,.T.);
#1183=ORIENTED_EDGE('',*,*,#1184,.T.);
#1184=EDGE_CURVE('',#719,#691,#432,.T.);
#1185=ORIENTED_EDGE('',*,*,#1186,.T.);
#1186=EDGE_CURVE('',#691,#1187,#697,.T.);
#1187=VERTEX_POINT('',#1188);
#1188=CARTESIAN_POINT('',(2.E+06,-1.0000000001E+05,0.));
#1189=ORIENTED_EDGE('',*,*,#1190,.F.);
#1190=EDGE_CURVE('',#1191,#1187,#1192,.T.);
#1191=VERTEX_POINT('',#684);
#1192=SURFACE_CURVE('',#1193,(#1196),.PCURVE_S1.);
#1193=CIRCLE('',#1194,9.999999999999E+04);
#1194=AXIS2_PLACEMENT_3D('',#1195,#13,#61);
#1195=CARTESIAN_POINT('',(2.E+06,-1.000445559729E-05,0.));
#1196=PCURVE('',#58,#1197);
#1197=DEFINITIONAL_REPRESENTATION('',(#1198),#67);
#1198=CIRCLE('',#1199,9.999999999999E+04);
#1199=AXIS2_PLACEMENT_2D('',#1200,#81);
#1200=CARTESIAN_POINT('',(2.E+06,3.336198544902E+05));
#1201=ORIENTED_EDGE('',*,*,#1202,.T.);
#1202=EDGE_CURVE('',#1191,#680,#682,.T.);
#1203=ORIENTED_EDGE('',*,*,#1204,.T.);
#1204=EDGE_CURVE('',#680,#648,#432,.T.);
#1205=ORIENTED_EDGE('',*,*,#1206,.T.);
#1206=EDGE_CURVE('',#648,#1207,#654,.T.);
#1207=VERTEX_POINT('',#1208);
#1208=CARTESIAN_POINT('',(2.E+06,3.48333333332E+06,0.));
#1209=ORIENTED_EDGE('',*,*,#1210,.F.);
#1210=EDGE_CURVE('',#1211,#1207,#1212,.T.);
#1211=VERTEX_POINT('',#641);
#1212=SURFACE_CURVE('',#1213,(#1216),.PCURVE_S1.);
#1213=CIRCLE('',#1214,9.999999999999E+04);
#1214=AXIS2_PLACEMENT_3D('',#1215,#13,#61);
#1215=CARTESIAN_POINT('',(2.E+06,3.58333333332E+06,0.));
#1216=PCURVE('',#58,#1217);
#1217=DEFINITIONAL_REPRESENTATION('',(#1218),#67);
#1218=CIRCLE('',#1219,9.999999999999E+04);
#1219=AXIS2_PLACEMENT_2D('',#1220,#81);
#1220=CARTESIAN_POINT('',(2.E+06,3.91695318782E+06));
#1221=ORIENTED_EDGE('',*,*,#1222,.T.);
#1222=EDGE_CURVE('',#1211,#637,#639,.T.);
#1223=ORIENTED_EDGE('',*,*,#1224,.T.);
#1224=EDGE_CURVE('',#637,#605,#432,.T.);
#1225=ORIENTED_EDGE('',*,*,#1226,.T.);
#1226=EDGE_CURVE('',#605,#1227,#611,.T.);
#1227=VERTEX_POINT('',#1228);
#1228=CARTESIAN_POINT('',(2.E+06,7.06666666665E+06,0.));
#1229=ORIENTED_EDGE('',*,*,#1230,.F.);
#1230=EDGE_CURVE('',#996,#1227,#1231,.T.);
#1231=SURFACE_CURVE('',#1232,(#1235),.PCURVE_S1.);
#1232=CIRCLE('',#1233,9.999999999999E+04);
#1233=AXIS2_PLACEMENT_3D('',#1234,#13,#61);
#1234=CARTESIAN_POINT('',(2.E+06,7.16666666665E+06,0.));
#1235=PCURVE('',#58,#1236);
#1236=DEFINITIONAL_REPRESENTATION('',(#1237),#67);
#1237=CIRCLE('',#1238,9.999999999999E+04);
#1238=AXIS2_PLACEMENT_2D('',#1239,#81);
#1239=CARTESIAN_POINT('',(2.E+06,7.50028652115E+06));
#1240=SHELL_BASED_SURFACE_MODEL('',(#1241));
#1241=OPEN_SHELL('',(#1242));
#1242=ADVANCED_FACE('',(#1243),#58,.T.);
#1243=FACE_BOUND('',#1244,.T.);
#1244=EDGE_LOOP('',(#1245,#1246,#1247,#1248));
#1245=ORIENTED_EDGE('',*,*,#604,.T.);
#1246=ORIENTED_EDGE('',*,*,#995,.F.);
#1247=ORIENTED_EDGE('',*,*,#1230,.T.);
#1248=ORIENTED_EDGE('',*,*,#1226,.F.);
#1249=SHELL_BASED_SURFACE_MODEL('',(#1250));
#1250=OPEN_SHELL('',(#1251));
#1251=ADVANCED_FACE('',(#1252),#58,.T.);
#1252=FACE_BOUND('',#1253,.T.);
#1253=EDGE_LOOP('',(#1254,#1255,#1256,#1257));
#1254=ORIENTED_EDGE('',*,*,#608,.T.);
#1255=ORIENTED_EDGE('',*,*,#1224,.F.);
#1256=ORIENTED_EDGE('',*,*,#636,.T.);
#1257=ORIENTED_EDGE('',*,*,#622,.T.);
#1258=SHELL_BASED_SURFACE_MODEL('',(#1259));
#1259=OPEN_SHELL('',(#1260));
#1260=ADVANCED_FACE('',(#1261),#58,.T.);
#1261=FACE_BOUND('',#1262,.T.);
#1262=EDGE_LOOP('',(#1263,#1264,#1265,#1266));
#1263=ORIENTED_EDGE('',*,*,#1003,.F.);
#1264=ORIENTED_EDGE('',*,*,#975,.T.);
#1265=ORIENTED_EDGE('',*,*,#1019,.F.);
#1266=ORIENTED_EDGE('',*,*,#1007,.T.);
#1267=SHELL_BASED_SURFACE_MODEL('',(#1268));
#1268=OPEN_SHELL('',(#1269));
#1269=ADVANCED_FACE('',(#1270),#58,.T.);
#1270=FACE_BOUND('',#1271,.T.);
#1271=EDGE_LOOP('',(#1272,#1273,#1274,#1275));
#1272=ORIENTED_EDGE('',*,*,#647,.T.);
#1273=ORIENTED_EDGE('',*,*,#1222,.F.);
#1274=ORIENTED_EDGE('',*,*,#1210,.T.);
#1275=ORIENTED_EDGE('',*,*,#1206,.F.);
#1276=SHELL_BASED_SURFACE_MODEL('',(#1277));
#1277=OPEN_SHELL('',(#1278));
#1278=ADVANCED_FACE('',(#1279),#58,.T.);
#1279=FACE_BOUND('',#1280,.T.);
#1280=EDGE_LOOP('',(#1281,#1282,#1283,#1284));
#1281=ORIENTED_EDGE('',*,*,#1021,.F.);
#1282=ORIENTED_EDGE('',*,*,#964,.T.);
#1283=ORIENTED_EDGE('',*,*,#954,.T.);
#1284=ORIENTED_EDGE('',*,*,#944,.T.);
#1285=SHELL_BASED_SURFACE_MODEL('',(#1286));
#1286=OPEN_SHELL('',(#1287));
#1287=ADVANCED_FACE('',(#1288),#58,.T.);
#1288=FACE_BOUND('',#1289,.T.);
#1289=EDGE_LOOP('',(#1290,#1291,#1292,#1293));
#1290=ORIENTED_EDGE('',*,*,#651,.T.);
#1291=ORIENTED_EDGE('',*,*,#1204,.F.);
#1292=ORIENTED_EDGE('',*,*,#679,.T.);
#1293=ORIENTED_EDGE('',*,*,#665,.T.);
#1294=SHELL_BASED_SURFACE_MODEL('',(#1295));
#1295=OPEN_SHELL('',(#1296));
#1296=ADVANCED_FACE('',(#1297),#58,.T.);
#1297=FACE_BOUND('',#1298,.T.);
#1298=EDGE_LOOP('',(#1299,#1300,#1301,#1302));
#1299=ORIENTED_EDGE('',*,*,#1023,.F.);
#1300=ORIENTED_EDGE('',*,*,#940,.T.);
#1301=ORIENTED_EDGE('',*,*,#1039,.F.);
#1302=ORIENTED_EDGE('',*,*,#1027,.T.);
#1303=SHELL_BASED_SURFACE_MODEL('',(#1304));
#1304=OPEN_SHELL('',(#1305));
#1305=ADVANCED_FACE('',(#1306),#58,.T.);
#1306=FACE_BOUND('',#1307,.T.);
#1307=EDGE_LOOP('',(#1308,#1309,#1310,#1311));
#1308=ORIENTED_EDGE('',*,*,#690,.T.);
#1309=ORIENTED_EDGE('',*,*,#1202,.F.);
#1310=ORIENTED_EDGE('',*,*,#1190,.T.);
#1311=ORIENTED_EDGE('',*,*,#1186,.F.);
#1312=SHELL_BASED_SURFACE_MODEL('',(#1313));
#1313=OPEN_SHELL('',(#1314));
#1314=ADVANCED_FACE('',(#1315),#58,.T.);
#1315=FACE_BOUND('',#1316,.T.);
#1316=EDGE_LOOP('',(#1317,#1318,#1319,#1320));
#1317=ORIENTED_EDGE('',*,*,#1041,.F.);
#1318=ORIENTED_EDGE('',*,*,#929,.T.);
#1319=ORIENTED_EDGE('',*,*,#919,.T.);
#1320=ORIENTED_EDGE('',*,*,#905,.T.);
#1321=SHELL_BASED_SURFACE_MODEL('',(#1322));
#1322=OPEN_SHELL('',(#1323));
#1323=ADVANCED_FACE('',(#1324),#58,.T.);
#1324=FACE_BOUND('',#1325,.T.);
#1325=EDGE_LOOP('',(#1326,#1327,#1328,#1329));
#1326=ORIENTED_EDGE('',*,*,#694,.T.);
#1327=ORIENTED_EDGE('',*,*,#1184,.F.);
#1328=ORIENTED_EDGE('',*,*,#718,.T.);
#1329=ORIENTED_EDGE('',*,*,#708,.T.);
#1330=SHELL_BASED_SURFACE_MODEL('',(#1331));
#1331=OPEN_SHELL('',(#1332));
#1332=ADVANCED_FACE('',(#1333),#58,.T.);
#1333=FACE_BOUND('',#1334,.T.);
#1334=EDGE_LOOP('',(#1335,#1336,#1337,#1338));
#1335=ORIENTED_EDGE('',*,*,#1043,.F.);
#1336=ORIENTED_EDGE('',*,*,#901,.T.);
#1337=ORIENTED_EDGE('',*,*,#1059,.F.);
#1338=ORIENTED_EDGE('',*,*,#1047,.T.);
#1339=SHELL_BASED_SURFACE_MODEL('',(#1340));
#1340=OPEN_SHELL('',(#1341));
#1341=ADVANCED_FACE('',(#1342),#58,.T.);
#1342=FACE_BOUND('',#1343,.T.);
#1343=EDGE_LOOP('',(#1344,#1345,#1346,#1347));
#1344=ORIENTED_EDGE('',*,*,#733,.T.);
#1345=ORIENTED_EDGE('',*,*,#1182,.F.);
#1346=ORIENTED_EDGE('',*,*,#1170,.T.);
#1347=ORIENTED_EDGE('',*,*,#1166,.F.);
#1348=SHELL_BASED_SURFACE_MODEL('',(#1349));
#1349=OPEN_SHELL('',(#1350));
#1350=ADVANCED_FACE('',(#1351),#58,.T.);
#1351=FACE_BOUND('',#1352,.T.);
#1352=EDGE_LOOP('',(#1353,#1354,#1355,#1356));
#1353=ORIENTED_EDGE('',*,*,#1061,.F.);
#1354=ORIENTED_EDGE('',*,*,#890,.T.);
#1355=ORIENTED_EDGE('',*,*,#880,.T.);
#1356=ORIENTED_EDGE('',*,*,#870,.T.);
#1357=SHELL_BASED_SURFACE_MODEL('',(#1358));
#1358=OPEN_SHELL('',(#1359));
#1359=ADVANCED_FACE('',(#1360),#58,.T.);
#1360=FACE_BOUND('',#1361,.T.);
#1361=EDGE_LOOP('',(#1362,#1363,#1364,#1365));
#1362=ORIENTED_EDGE('',*,*,#737,.T.);
#1363=ORIENTED_EDGE('',*,*,#1164,.F.);
#1364=ORIENTED_EDGE('',*,*,#761,.T.);
#1365=ORIENTED_EDGE('',*,*,#751,.T.);
#1366=SHELL_BASED_SURFACE_MODEL('',(#1367));
#1367=OPEN_SHELL('',(#1368));
#1368=ADVANCED_FACE('',(#1369),#58,.T.);
#1369=FACE_BOUND('',#1370,.T.);
#1370=EDGE_LOOP('',(#1371,#1372,#1373,#1374));
#1371=ORIENTED_EDGE('',*,*,#1063,.F.);
#1372=ORIENTED_EDGE('',*,*,#866,.T.);
#1373=ORIENTED_EDGE('',*,*,#1079,.F.);
#1374=ORIENTED_EDGE('',*,*,#1067,.T.);
#1375=SHELL_BASED_SURFACE_MODEL('',(#1376));
#1376=OPEN_SHELL('',(#1377));
#1377=ADVANCED_FACE('',(#1378),#58,.T.);
#1378=FACE_BOUND('',#1379,.T.);
#1379=EDGE_LOOP('',(#1380,#1381,#1382,#1383));
#1380=ORIENTED_EDGE('',*,*,#772,.T.);
#1381=ORIENTED_EDGE('',*,*,#1162,.F.);
#1382=ORIENTED_EDGE('',*,*,#1150,.T.);
#1383=ORIENTED_EDGE('',*,*,#1146,.F.);
#1384=SHELL_BASED_SURFACE_MODEL('',(#1385));
#1385=OPEN_SHELL('',(#1386));
#1386=ADVANCED_FACE('',(#1387),#58,.T.);
#1387=FACE_BOUND('',#1388,.T.);
#1388=EDGE_LOOP('',(#1389,#1390,#1391,#1392));
#1389=ORIENTED_EDGE('',*,*,#1081,.F.);
#1390=ORIENTED_EDGE('',*,*,#855,.T.);
#1391=ORIENTED_EDGE('',*,*,#845,.T.);
#1392=ORIENTED_EDGE('',*,*,#835,.T.);
#1393=SHELL_BASED_SURFACE_MODEL('',(#1394));
#1394=OPEN_SHELL('',(#1395));
#1395=ADVANCED_FACE('',(#1396),#58,.T.);
#1396=FACE_BOUND('',#1397,.T.);
#1397=EDGE_LOOP('',(#1398,#1399,#1400,#1401,#1402,#1403,#1404,#1405,    #1406,#1407));
#1398=ORIENTED_EDGE('',*,*,#776,.T.);
#1399=ORIENTED_EDGE('',*,*,#1144,.F.);
#1400=ORIENTED_EDGE('',*,*,#1132,.F.);
#1401=ORIENTED_EDGE('',*,*,#1118,.F.);
#1402=ORIENTED_EDGE('',*,*,#1105,.F.);
#1403=ORIENTED_EDGE('',*,*,#1101,.F.);
#1404=ORIENTED_EDGE('',*,*,#820,.T.);
#1405=ORIENTED_EDGE('',*,*,#810,.T.);
#1406=ORIENTED_EDGE('',*,*,#800,.T.);
#1407=ORIENTED_EDGE('',*,*,#786,.T.);
#1408=SHELL_BASED_SURFACE_MODEL('',(#1409));
#1409=OPEN_SHELL('',(#1410));
#1410=ADVANCED_FACE('',(#1411),#58,.T.);
#1411=FACE_BOUND('',#1412,.T.);
#1412=EDGE_LOOP('',(#1413,#1414,#1415,#1416));
#1413=ORIENTED_EDGE('',*,*,#1083,.F.);
#1414=ORIENTED_EDGE('',*,*,#831,.T.);
#1415=ORIENTED_EDGE('',*,*,#1099,.F.);
#1416=ORIENTED_EDGE('',*,*,#1087,.T.);
#1417=( GEOMETRIC_REPRESENTATION_CONTEXT(3) GLOBAL_UNCERTAINTY_ASSIGNED_CONTEXT((#19)) GLOBAL_UNIT_ASSIGNED_CONTEXT((#16,#17,#18)) REPRESENTATION_CONTEXT('Context #1','3D Context with UNIT and UNCERTAINTY') );
#1418=CONTEXT_DEPENDENT_SHAPE_REPRESENTATION(#1419,#1420);
#1419=( REPRESENTATION_RELATIONSHIP('','',#40,#27) REPRESENTATION_RELATIONSHIP_WITH_TRANSFORMATION(#30) SHAPE_REPRESENTATION_RELATIONSHIP() );
#1420=PRODUCT_DEFINITION_SHAPE('Placement','Placement of an item',  #1421);
#1421=NEXT_ASSEMBLY_USAGE_OCCURRENCE('31','','',#23,#36,$);
#1422=PRODUCT_RELATED_PRODUCT_CATEGORY('part',$,(#38));
#1423=SHAPE_DEFINITION_REPRESENTATION(#1424,#1429);
#1424=PRODUCT_DEFINITION_SHAPE('','',#1425);
#1425=PRODUCT_DEFINITION('design','',#1426,#1428);
#1426=PRODUCT_DEFINITION_FORMATION('','',#1427);
#1427=PRODUCT('contact_cutter','contact_cutter','',(#8));
#1428=PRODUCT_DEFINITION_CONTEXT('part definition',#2,'design');   
#1429=SHAPE_REPRESENTATION('',(#11),#1430);
#1430=( GEOMETRIC_REPRESENTATION_CONTEXT(3) GLOBAL_UNCERTAINTY_ASSIGNED_CONTEXT((#1431)) GLOBAL_UNIT_ASSIGNED_CONTEXT((#16,#17,#18)) REPRESENTATION_CONTEXT('Context #1','3D Context with UNIT and UNCERTAINTY') );
#1431=UNCERTAINTY_MEASURE_WITH_UNIT(LENGTH_MEASURE(1.E-07),#16,  'distance_accuracy_value','confusion accuracy');
#1432=CONTEXT_DEPENDENT_SHAPE_REPRESENTATION(#1433,#1434);
#1433=( REPRESENTATION_RELATIONSHIP('','',#1429,#10) REPRESENTATION_RELATIONSHIP_WITH_TRANSFORMATION(#30) SHAPE_REPRESENTATION_RELATIONSHIP() );
#1434=PRODUCT_DEFINITION_SHAPE('Placement','Placement of an item',  #1435);
#1435=NEXT_ASSEMBLY_USAGE_OCCURRENCE('33','','',#5,#1425,$);
#1436=PRODUCT_RELATED_PRODUCT_CATEGORY('part',$,(#1427));
#1437=MECHANICAL_DESIGN_GEOMETRIC_PRESENTATION_REPRESENTATION('',(    #1438,#1446,#1447,#1448,#1449,#1450,#1451,#1452,#1453,#1454,#1455,    #1456,#1457,#1458,#1459,#1460,#1461,#1462,#1463,#1464,#1465,#1466),  #1417);
#1438=STYLED_ITEM('color',(#1439),#43);
#1439=PRESENTATION_STYLE_ASSIGNMENT((#1440));
#1440=SURFACE_STYLE_USAGE(.BOTH.,#1441);
#1441=SURFACE_SIDE_STYLE('',(#1442));
#1442=SURFACE_STYLE_FILL_AREA(#1443);
#1443=FILL_AREA_STYLE('',(#1444));
#1444=FILL_AREA_STYLE_COLOUR('',#1445);
#1445=DRAUGHTING_PRE_DEFINED_COLOUR('red');
#1446=STYLED_ITEM('color',(#1439),#585);
#1447=STYLED_ITEM('color',(#1439),#991);
#1448=STYLED_ITEM('color',(#1439),#1242);
#1449=STYLED_ITEM('color',(#1439),#1251);
#1450=STYLED_ITEM('color',(#1439),#1260);
#1451=STYLED_ITEM('color',(#1439),#1269);
#1452=STYLED_ITEM('color',(#1439),#1278);
#1453=STYLED_ITEM('color',(#1439),#1287);
#1454=STYLED_ITEM('color',(#1439),#1296);
#1455=STYLED_ITEM('color',(#1439),#1305);
#1456=STYLED_ITEM('color',(#1439),#1314);
#1457=STYLED_ITEM('color',(#1439),#1323);
#1458=STYLED_ITEM('color',(#1439),#1332);
#1459=STYLED_ITEM('color',(#1439),#1341);
#1460=STYLED_ITEM('color',(#1439),#1350);
#1461=STYLED_ITEM('color',(#1439),#1359);
#1462=STYLED_ITEM('color',(#1439),#1368);
#1463=STYLED_ITEM('color',(#1439),#1377);
#1464=STYLED_ITEM('color',(#1439),#1386);
#1465=STYLED_ITEM('color',(#1439),#1395);
#1466=STYLED_ITEM('color',(#1439),#1410);
ENDSEC;
END-ISO-10303-21;

