Wavelength	EQE
500	0.50834
510	0.54864
520	0.60833
530	0.79605
540	1.02136
550	0.98858
560	1.08746
570	1.19635
580	1.32889
590	1.56461
600	1.61635
610	2.48563
620	4.29923
630	6.50415
640	8.20489
650	9.0692
660	9.97909
670	10.6317
680	11.2943
690	12.1279
700	12.7411
710	13.4439
720	14.1291
730	14.716
740	17.133
750	23.1221
760	35.1665
770	51.4743
780	65.2225
790	72.9891
800	76.0294
810	75.665
820	74.1255
840	71.9121
850	71.3135
860	70.8013
870	69.9253
880	69.2696
890	68.3952
900	67.5523
910	67.0982
920	67.1347
930	67.2114
940	66.8228
950	64.8435
960	60.5315
970	52.4116
980	42.0478
990	31.1278
1000	21.7114
1010	14.2626
1020	8.71904
1030	5.02662
1040	2.69053
1050	1.3119
1060	0.62686
1070	0.30851
1080	0.2091
1090	0.12478
1100	0.08871
