Wavelength	EQE
350	4.12458
360	5.84333
370	3.26852
380	4.09572
390	1.73088
400	1.17539
410	1.01484
420	1.53202
430	1.37943
440	0.58499
450	0.85214
460	2.01087
470	3.02619
480	3.9551
490	4.69293
500	6.48936
510	8.52372
520	9.5467
530	11.4738
540	13.572
550	15.2403
560	16.3885
570	17.3219
580	18.0742
590	18.2732
600	20.2231
610	29.0975
620	46.7866
630	64.6579
640	74.5468
650	77.2724
660	77.5205
670	76.7636
680	75.7425
690	75.1044
700	74.6965
710	74.0335
720	73.0639
730	71.7801
740	68.5561
750	60.2666
760	45.2244
770	26.2507
780	11.353
790	4.34151
800	1.7536
810	0.6593
820	0.73762
830	0.44879
840	0.56761
850	0.61126
860	0.26091
870	0.50127
880	0.35325
890	0.40311
900	0.4857
